Division,WeightClassKg,Place,Name,Team,BodyweightKg,Best3SquatKg,Best3BenchKg,Best3DeadliftKg,TotalKg,Equipment,Event,Sex
Boys,51.71,1,Eddie Taylor,La Porte,49.26,117.93,65.77,127.01,310.71,Single-ply,SBD,M
Boys,51.71,2,Steve Melgar,Hitchcock,41.55,90.72,38.56,102.06,231.33,Single-ply,SBD,M
Boys,51.71,3,Keyshawn Johnson,La Marque,47.54,65.77,36.29,77.11,179.17,Single-ply,SBD,M
Boys,51.71,DQ,Bralin Henderson,Conroe Oak Ridge,51.71,,,,,Single-ply,SBD,M
Boys,55.79,1,Blake Gamez,La Porte,55.79,158.76,102.06,172.37,433.18,Single-ply,SBD,M
Boys,55.79,2,Jonathan Cardenas,Freeport Brazosport,55.07,147.42,83.91,151.95,383.29,Single-ply,SBD,M
Boys,55.79,3,Carlos Salazar,Manvel,52.62,129.27,79.38,165.56,374.21,Single-ply,SBD,M
Boys,55.79,4,Ricardo Villafana,Splendora,52.8,138.35,86.18,133.81,358.34,Single-ply,SBD,M
Boys,55.79,5,Nathan Erickson,Splendora,53.07,120.2,,115.67,235.87,Single-ply,SD,M
Boys,55.79,6,Kenny Bounds,Montgomery,55.07,113.4,,113.4,226.8,Single-ply,SD,M
Boys,55.79,DQ,Raistlin Lockhart,Galveston Ball,55.79,,,,,Single-ply,SD,M
Boys,67.13,1,Cecilio Hernandez,Dickinson,59.92,172.37,111.13,172.37,455.86,Single-ply,SBD,M
Boys,59.87,2,Chen Phan,Dickinson,59.78,142.88,86.18,167.83,396.89,Single-ply,SBD,M
Boys,59.87,3,Jakob Rios,Clute Brazoswood,59.87,142.88,92.99,158.76,394.63,Single-ply,SBD,M
Boys,59.87,4,Cecilio Alvarado,Splendora,57.79,133.81,83.91,147.42,365.14,Single-ply,SBD,M
Boys,67.13,5,Ryan Collette,Huffman Hargrave,60.1,131.54,90.72,140.61,362.87,Single-ply,SBD,M
Boys,59.87,6,Adrian Martinez,Texas City,57.7,124.74,81.65,133.81,340.19,Single-ply,SBD,M
Boys,59.87,7,Brandon Jordan,Dickinson,57.88,117.93,79.38,124.74,322.05,Single-ply,SBD,M
Boys,59.87,8,Anthony Scarborough,Hitchcock,58.51,124.74,68.04,124.74,317.51,Single-ply,SBD,M
Boys,59.87,9,Connor Orozco,Huffman Hargrave,57.52,120.2,74.84,117.93,312.98,Single-ply,SBD,M
Boys,59.87,10,Jim Tran,Dickinson,59.01,133.81,,165.56,299.37,Single-ply,SD,M
Boys,59.87,11,Curry Thomas,Channelview,58.42,102.06,,122.47,224.53,Single-ply,SD,M
Boys,59.87,12,Russell January,Beaumont Ozen,58.51,81.65,45.36,90.72,217.72,Single-ply,SBD,M
Boys,59.87,13,Christian Suayan,Galveston Ball,58.24,,74.84,124.74,199.58,Single-ply,BD,M
Boys,59.87,14,Cameron Guillen,Clute Brazoswood,59.33,142.88,,,142.88,Single-ply,S,M
Boys,59.87,DQ,Tyvarian Lane,Stafford,59.87,,,,,Single-ply,S,M
Boys,74.84,1,Alec DeLeon,Dickinson,67.22,231.33,131.54,226.8,589.67,Single-ply,SBD,M
Boys,74.84,2,Cesar Marroquin,Huffman Hargrave,67.22,183.7,117.93,170.1,471.74,Single-ply,SBD,M
Boys,67.13,3,Brandon Martinez,Dickinson,66.41,181.44,95.25,183.7,460.4,Single-ply,SBD,M
Boys,67.13,4,Lucas Erickson,Splendora,66.95,161.03,113.4,185.97,460.4,Single-ply,SBD,M
Boys,67.13,5,Tuciano Pope,Channelview,66.22,170.1,83.91,183.7,437.72,Single-ply,SBD,M
Boys,67.13,6,Gin Ivey,Conroe Oak Ridge,67.04,142.88,90.72,181.44,415.04,Single-ply,SBD,M
Boys,67.13,7,Angel Galvan,Crosby,66.77,147.42,97.52,161.03,405.97,Single-ply,SBD,M
Boys,67.13,8,Austin Blake,Splendora,65.77,142.88,99.79,161.03,403.7,Single-ply,SBD,M
Boys,67.13,9,Robert Ricard,Hitchcock,66.13,133.81,99.79,136.08,369.68,Single-ply,SBD,M
Boys,67.13,10,Jacob Mears,Beaumont Ozen,64.5,120.2,92.99,149.69,362.87,Single-ply,SBD,M
Boys,67.13,11,Dylan Billiott,La Marque,64.14,129.27,72.57,145.15,347,Single-ply,SBD,M
Boys,74.84,12,Blane Marcantel,Santa Fe,67.31,133.81,70.31,142.88,347,Single-ply,SBD,M
Boys,67.13,13,Devin Kelly,Huffman Hargrave,64.95,129.27,79.38,129.27,337.93,Single-ply,SBD,M
Boys,67.13,14,Caleb Ross,Clute Brazoswood,65.41,142.88,,174.63,317.51,Single-ply,SD,M
Boys,67.13,15,Michael Jackson,La Marque,64.32,129.27,61.23,124.74,315.25,Single-ply,SBD,M
Boys,67.13,16,Kaylen Manzi,Huffman Hargrave,65.77,117.93,68.04,122.47,308.44,Single-ply,SBD,M
Boys,67.13,17,Cayden Whigham,Huffman Hargrave,65.32,104.33,65.77,117.93,288.03,Single-ply,SBD,M
Boys,67.13,18,Kalen Redmon,Beaumont Ozen,66.86,81.65,63.5,108.86,254.01,Single-ply,SBD,M
Boys,67.13,19,Cornell White,La Marque,61.69,83.91,65.77,102.06,251.74,Single-ply,SBD,M
Boys,67.13,20,Josh Green,Friendswood Clear Brook,64.5,72.57,49.9,90.72,213.19,Single-ply,SBD,M
Boys,67.13,DQ,Randy Williams,Hitchcock,67.13,,,,,Single-ply,SBD,M
Boys,67.13,DQ,Zachary Mutchler,Manvel,67.13,,,,,Single-ply,SBD,M
Boys,82.1,1,Cournelious Vaughans,Dickinson,74.93,226.8,147.42,217.72,591.94,Single-ply,SBD,M
Boys,74.84,2,Etterious Giles,Channelview,71.49,172.37,106.59,192.78,471.74,Single-ply,SBD,M
Boys,82.1,3,Jimmie Moore,Conroe Oak Ridge,75.02,170.1,92.99,183.7,446.79,Single-ply,SBD,M
Boys,74.84,4,Asa Spade,Splendora,70.49,179.17,92.99,163.29,435.45,Single-ply,SBD,M
Boys,74.84,5,Christian Ramirez,Channelview,70.03,142.88,88.45,190.51,421.84,Single-ply,SBD,M
Boys,74.84,6,Jalen Williams,Dickinson,74.75,163.29,72.57,181.44,417.3,Single-ply,SBD,M
Boys,74.84,7,Scott Spurlock,Montgomery,68.22,154.22,83.91,170.1,408.23,Single-ply,SBD,M
Boys,74.84,8,Devantae Stafford,Freeport Brazosport,72.39,156.49,92.99,158.76,408.23,Single-ply,SBD,M
Boys,74.84,9,Giovanni Porrete,Dickinson,74.21,136.08,102.06,165.56,403.7,Single-ply,SBD,M
Boys,74.84,10,Cameron Amieva,Dickinson,73.98,154.22,88.45,158.76,401.43,Single-ply,SBD,M
Boys,74.84,11,Francisco Vargas,Splendora,71.85,147.42,79.38,167.83,394.63,Single-ply,SBD,M
Boys,74.84,12,Austin Tompkins,Conroe Oak Ridge,68.95,142.88,83.91,151.95,378.75,Single-ply,SBD,M
Boys,74.84,13,Curtis Luff,Crosby,71.03,113.4,83.91,149.69,347,Single-ply,SBD,M
Boys,74.84,14,Dalton Reichardt,Friendswood Clear Brook,74.21,117.93,86.18,140.61,344.73,Single-ply,SBD,M
Boys,82.1,15,John Wilson,Santa Fe,75.02,124.74,92.99,124.74,342.46,Single-ply,SBD,M
Boys,74.84,16,Wyatt Clark,Hitchcock,72.12,92.99,63.5,113.4,269.89,Single-ply,SBD,M
Boys,74.84,DQ,E Balleza,Beaumont Ozen,74.84,,,,,Single-ply,SBD,M
Boys,74.84,DQ,Brandon Parmley,Manvel,74.84,,,,,Single-ply,SBD,M
Boys,82.1,1,Caleb Lamberth,Manvel,81.83,199.58,122.47,215.46,537.51,Single-ply,SBD,M
Boys,82.1,2,Lance Cole,Crosby,81.56,204.12,124.74,185.97,514.83,Single-ply,SBD,M
Boys,82.1,3,Leonard Owens,Manvel,77.93,190.51,117.93,188.24,496.68,Single-ply,SBD,M
Boys,82.1,4,Richard Kieffer,La Porte,77.38,181.44,115.67,197.31,494.42,Single-ply,SBD,M
Boys,82.1,5,Donivan Orozco,Huffman Hargrave,82.01,183.7,124.74,176.9,485.34,Single-ply,SBD,M
Boys,82.1,6,Chris Narcisse,Beaumont Ozen,77.84,170.1,129.27,183.7,483.08,Single-ply,SBD,M
Boys,89.81,7,Nathan Lewis,Freeport Brazosport,82.28,165.56,99.79,215.46,480.81,Single-ply,SBD,M
Boys,82.1,8,Drew Lowery,Clute Brazoswood,76.29,174.63,111.13,192.78,478.54,Single-ply,SBD,M
Boys,82.1,9,Jacob Gallatin,Montgomery,78.02,181.44,108.86,174.63,464.93,Single-ply,SBD,M
Boys,82.1,10,Ashton Turner,Channelview,82.01,151.95,99.79,204.12,455.86,Single-ply,SBD,M
Boys,82.1,11,Miguel Medina,Pasadena Memorial,79.92,172.37,99.79,181.44,453.59,Single-ply,SBD,M
Boys,82.1,12,Mohammad Al-Naimi,Friendswood Clear Brook,76.2,145.15,111.13,183.7,439.98,Single-ply,SBD,M
Boys,82.1,13,Nick Beazley,Montgomery,80.92,163.29,95.25,170.1,428.64,Single-ply,SBD,M
Boys,82.1,14,Anival Villatoro,Pasadena Memorial,80.92,158.76,90.72,176.9,426.38,Single-ply,SBD,M
Boys,82.1,15,Sterling Winzor,Beaumont Ozen,78.93,142.88,95.25,170.1,408.23,Single-ply,SBD,M
Boys,82.1,16,Colton Miller,Santa Fe,76.38,147.42,92.99,147.42,387.82,Single-ply,SBD,M
Boys,82.1,17,Brandon Caldera,Pasadena Memorial,79.56,154.22,88.45,142.88,385.55,Single-ply,SBD,M
Boys,82.1,18,Chris Chapa,Manvel,78.47,136.08,88.45,158.76,383.29,Single-ply,SBD,M
Boys,82.1,19,Alxis Blandhander,Galveston Ball,77.38,140.61,83.91,154.22,378.75,Single-ply,SBD,M
Boys,82.1,20,Connor Cutler,Dickinson,78.29,129.27,83.91,154.22,367.41,Single-ply,SBD,M
Boys,82.1,21,Austin Greer,Huffman Hargrave,76.2,131.54,77.11,147.42,356.07,Single-ply,SBD,M
Boys,82.1,22,Christian Reza,Beaumont Ozen,81.47,113.4,90.72,151.95,356.07,Single-ply,SBD,M
Boys,82.1,23,Thomas Hancock,Friendswood Clear Brook,76.11,90.72,72.57,117.93,281.23,Single-ply,SBD,M
Boys,82.1,24,Xavien Henry,La Porte,81.83,158.76,83.91,,242.67,Single-ply,SB,M
Boys,82.1,DQ,Ryan White,Beaumont Ozen,82.1,,,,,Single-ply,SB,M
Boys,82.1,DQ,Leslie Perez,Channelview,82.1,,,,,Single-ply,SB,M
Boys,82.1,DQ,De'Jeanna Payne,Channelview,82.1,,,,,Single-ply,SB,M
Boys,82.1,DQ,Chase Thompson,Santa Fe,82.1,,,,,Single-ply,SB,M
Boys,89.81,1,Oziel Rios,Palacios,85.55,215.46,165.56,238.14,619.15,Single-ply,SBD,M
Boys,89.81,2,Jalen Hurts,Channelview,89.81,231.33,124.74,238.14,594.21,Single-ply,SBD,M
Boys,89.81,3,Anthony Lamb,Splendora,88.18,226.8,113.4,217.72,557.92,Single-ply,SBD,M
Boys,89.81,4,Reese Thompson,La Porte,87,204.12,136.08,215.46,555.65,Single-ply,SBD,M
Boys,89.81,5,Eric Hembling,Clute Brazoswood,88.68,183.7,113.4,219.99,517.1,Single-ply,SBD,M
Boys,89.81,6,Dylan Bates,Conroe Oak Ridge,83.91,192.78,115.67,204.12,512.56,Single-ply,SBD,M
Boys,89.81,7,Logan Holt,Hitchcock,83.01,195.04,111.13,181.44,487.61,Single-ply,SBD,M
Boys,89.81,8,John Sweeten,Montgomery,89.45,183.7,115.67,185.97,485.34,Single-ply,SBD,M
Boys,89.81,9,David Garza,Palacios,86.18,181.44,104.33,192.78,478.54,Single-ply,SBD,M
Boys,89.81,10,Gil Bernal,Channelview,88,181.44,95.25,181.44,458.13,Single-ply,SBD,M
Boys,89.81,11,Gavin Franklin,Conroe Oak Ridge,88.54,158.76,115.67,183.7,458.13,Single-ply,SBD,M
Boys,89.81,12,Luis Santiago,Pasadena Memorial,87.91,181.44,92.99,172.37,446.79,Single-ply,SBD,M
Boys,89.81,13,Andrew Stokes,Galveston Ball,84.73,147.42,113.4,172.37,433.18,Single-ply,SBD,M
Boys,89.81,14,Charles Hester,Stafford,85.46,161.03,102.06,170.1,433.18,Single-ply,SBD,M
Boys,89.81,15,Trevor Anderson,Dickinson,85.28,154.22,90.72,176.9,421.84,Single-ply,SBD,M
Boys,89.81,16,Chris Ponder,Texas City,86.09,149.69,108.86,158.76,417.3,Single-ply,SBD,M
Boys,99.79,17,Jacob Bryan,Huffman Hargrave,89.99,158.76,104.33,154.22,417.3,Single-ply,SBD,M
Boys,89.81,18,Tyler Ray,Santa Fe,87.45,158.76,74.84,158.76,392.36,Single-ply,SBD,M
Boys,89.81,19,Zachary Mangum,Friendswood Clear Brook,88.81,142.88,83.91,163.29,390.09,Single-ply,SBD,M
Boys,89.81,20,Noah Young #2,Huffman Hargrave,85.64,120.2,92.99,151.95,365.14,Single-ply,SBD,M
Boys,89.81,21,Jack Perry,Huffman Hargrave,85,117.93,97.52,124.74,340.19,Single-ply,SBD,M
Boys,89.81,22,Michel Taylor,Splendora,88.45,147.42,,151.95,299.37,Single-ply,SD,M
Boys,89.81,23,Sean Castillo,La Porte,83.82,181.44,102.06,,283.5,Single-ply,SB,M
Boys,89.81,24,Terrell Bernard,La Porte,88,158.76,124.74,,283.5,Single-ply,SB,M
Boys,89.81,25,Leo Archuleta,Friendswood Clear Brook,85.37,90.72,54.43,117.93,263.08,Single-ply,SBD,M
Boys,89.81,26,N Withers,Beaumont Ozen,89.81,,65.77,136.08,201.85,Single-ply,BD,M
Boys,89.81,DQ,Tyre Preston,Beaumont Ozen,89.81,,,,,Single-ply,BD,M
Boys,99.79,1,Joe Thomas,Beaumont Ozen,94.98,204.12,111.13,226.8,542.04,Single-ply,SBD,M
Boys,99.79,2,Daniel Martinez,Freeport Brazosport,98.61,204.12,122.47,204.12,530.7,Single-ply,SBD,M
Boys,99.79,3,Tristan Anderson,Dickinson,94.35,176.9,104.33,215.46,496.68,Single-ply,SBD,M
Boys,99.79,4,Stephen Rowe,Friendswood Clear Brook,90.63,181.44,108.86,199.58,489.88,Single-ply,SBD,M
Boys,99.79,5,Brad Martin,Montgomery,98.34,201.85,113.4,170.1,485.34,Single-ply,SBD,M
Boys,99.79,6,Hunter Thiem,Hitchcock,95.8,176.9,108.86,181.44,467.2,Single-ply,SBD,M
Boys,99.79,7,Brent Smith,Hitchcock,92.99,181.44,97.52,181.44,460.4,Single-ply,SBD,M
Boys,99.79,8,Cameron Townsend,Friendswood Clear Brook,99.16,158.76,113.4,183.7,455.86,Single-ply,SBD,M
Boys,99.79,9,Ryan Koblect,Splendora,92.8,165.56,108.86,179.17,453.59,Single-ply,SBD,M
Boys,99.79,10,Justin Bryan,Huffman Hargrave,94.44,165.56,108.86,167.83,442.25,Single-ply,SBD,M
Boys,99.79,11,Boys Castillo,Santa Fe,96.16,170.1,106.59,156.49,433.18,Single-ply,SBD,M
Boys,99.79,12,Robert Guidry,Manvel,92.26,142.88,92.99,183.7,419.57,Single-ply,SBD,M
Boys,99.79,13,James Mower,Friendswood Clear Brook,94.98,145.15,97.52,167.83,410.5,Single-ply,SBD,M
Boys,99.79,14,Irving Perez,Manvel,91.4,142.88,92.99,158.76,394.63,Single-ply,SBD,M
Boys,99.79,15,Justin Pechacek,Montgomery,93.08,197.31,,183.7,381.02,Single-ply,SD,M
Boys,99.79,16,Miguel Castellanos,Conroe Oak Ridge,98.34,181.44,115.67,,297.1,Single-ply,SB,M
Boys,99.79,17,J. Armstrong,Beaumont Ozen,96.34,90.72,70.31,124.74,285.76,Single-ply,SBD,M
Boys,99.79,18,Jacob Salazar,Stafford,92.17,102.06,52.16,111.13,265.35,Single-ply,SBD,M
Boys,99.79,19,Dwight Daniels,Friendswood Clear Brook,92.08,120.2,68.04,,188.24,Single-ply,SB,M
Boys,99.79,DQ,Mario Johnson,Hitchcock,99.79,,,,,Single-ply,SB,M
Boys,99.79,DQ,Trevor Hughes,Manvel,99.79,,,,,Single-ply,SB,M
Boys,124.74,1,Kaylond North,Dickinson,109.95,294.84,181.44,263.08,739.36,Single-ply,SBD,M
Boys,109.77,2,Anietie Etuk,Dickinson,106.59,251.74,142.88,249.48,644.1,Single-ply,SBD,M
Boys,124.74,3,Jared Reedy,Dickinson,110,254.01,149.69,226.8,630.49,Single-ply,SBD,M
Boys,109.77,4,Chase Yates,Santa Fe,104.33,199.58,140.61,249.48,589.67,Single-ply,SBD,M
Boys,109.77,5,Deandre Washington,Beaumont Ozen,103.69,195.04,136.08,204.12,535.24,Single-ply,SBD,M
Boys,109.77,6,Brandon Clay,Dickinson,109.68,208.65,136.08,183.7,528.44,Single-ply,SBD,M
Boys,109.77,7,Cedric Duncan,Manvel,104.51,204.12,111.13,210.92,526.17,Single-ply,SBD,M
Boys,109.77,8,Livan Lopez,Dickinson,101.6,195.04,117.93,204.12,517.1,Single-ply,SBD,M
Boys,109.77,9,Ruben Garcia,Freeport Brazosport,106.37,195.04,111.13,181.44,487.61,Single-ply,SBD,M
Boys,109.77,10,Rodnick Artmore,Galveston Ball,103.24,183.7,122.47,167.83,474,Single-ply,SBD,M
Boys,109.77,11,Nathan White,Crosby,103.15,158.76,102.06,199.58,460.4,Single-ply,SBD,M
Boys,109.77,12,Kevin Nguyen,Friendswood Clear Brook,100.7,163.29,108.86,183.7,455.86,Single-ply,SBD,M
Boys,109.77,13,Brandon Trigo,Santa Fe,102.51,156.49,111.13,183.7,451.32,Single-ply,SBD,M
Boys,109.77,14,Roberto Varvelo,Channelview,106.78,163.29,79.38,174.63,417.3,Single-ply,SBD,M
Boys,109.77,15,Ricardo Beliz,Dickinson,105.23,142.88,99.79,149.69,392.36,Single-ply,SBD,M
Boys,109.77,16,Arthur Harmon,Beaumont Ozen,105.69,145.15,90.72,145.15,381.02,Single-ply,SBD,M
Boys,109.77,17,Cruz Barcenas,Huffman Hargrave,105.51,113.4,79.38,145.15,337.93,Single-ply,SBD,M
Boys,109.77,18,Ryan Oldigs,Friendswood Clear Brook,105.69,158.76,,170.1,328.85,Single-ply,SD,M
Boys,109.77,19,Eric Mendoza,Friendswood Clear Brook,102.33,104.33,52.16,127.01,283.5,Single-ply,SBD,M
Boys,109.77,20,Lorenzo Baeza,Texas City,105.87,249.48,,,249.48,Single-ply,S,M
Boys,109.77,21,Eric Kendzior,La Porte,105.51,181.44,,,181.44,Single-ply,S,M
Boys,109.77,DQ,Contrell Green-Warren,Conroe Oak Ridge,109.77,,,,,Single-ply,S,M
Boys,109.77,DQ,Jacob Mcdonald,Santa Fe,109.77,,,,,Single-ply,S,M
Boys,124.74,1,Josh Opiela,Crosby,122.29,306.17,183.7,215.46,705.34,Single-ply,SBD,M
Boys,124.74,2,Young Troung,Pasadena Dobie,122.02,249.48,142.88,278.96,671.32,Single-ply,SBD,M
Boys,124.74,3,Nathaniel Flores,Pasadena Dobie,114.76,260.82,158.76,226.8,646.37,Single-ply,SBD,M
Boys,124.74,4,Jimmy LaFata,Clute Brazoswood,118.84,249.48,165.56,226.8,641.83,Single-ply,SBD,M
Boys,124.74,5,Victor Guevara,Freeport Brazosport,114.58,226.8,127.01,238.14,591.94,Single-ply,SBD,M
Boys,124.74,6,Jonathon Alfred,Manvel,111.67,215.46,136.08,238.14,589.67,Single-ply,SBD,M
Boys,124.74,7,Stephen Mendiola,Channelview,112.67,219.99,113.4,215.46,548.85,Single-ply,SBD,M
Boys,124.74,8,Keyshawn Pettieway,Crosby,118.12,195.04,147.42,206.38,548.85,Single-ply,SBD,M
Boys,124.74,9,Tim Thomas,Pasadena Memorial,121.74,217.72,113.4,217.72,548.85,Single-ply,SBD,M
Boys,124.74,10,Chase Bridgeman,Crosby,122.56,188.24,129.27,208.65,526.17,Single-ply,SBD,M
Boys,124.74,11,Kyler Gentry,Santa Fe,119.75,192.78,124.74,192.78,510.29,Single-ply,SBD,M
Boys,124.74,12,Devyn Billiott,La Marque,124.28,204.12,102.06,204.12,510.29,Single-ply,SBD,M
Boys,124.74+,13,Cameron Villarreal,Galveston Ball,124.96,190.51,127.01,192.78,510.29,Single-ply,SBD,M
Boys,124.74,14,Antonio Williams,Freeport Brazosport,116.85,174.63,108.86,190.51,474,Single-ply,SBD,M
Boys,124.74,15,Andy Cassity,Friendswood Clear Brook,120.02,172.37,90.72,195.04,458.13,Single-ply,SBD,M
Boys,124.74,16,Victor Esquivel,Clute Brazoswood,113.58,158.76,115.67,174.63,449.06,Single-ply,SBD,M
Boys,124.74,17,Tevin Martin,Friendswood Clear Brook,123.38,149.69,99.79,185.97,435.45,Single-ply,SBD,M
Boys,124.74,18,Colby Brignac,Clute Brazoswood,122.02,147.42,102.06,174.63,424.11,Single-ply,SBD,M
Boys,124.74,19,Dustin Willis,Splendora,114.67,226.8,,188.24,415.04,Single-ply,SD,M
Boys,124.74,20,Santos Lazos,Clute Brazoswood,119.29,147.42,92.99,174.63,415.04,Single-ply,SBD,M
Boys,124.74,21,Diante Granger,Beaumont Ozen,116.57,136.08,92.99,172.37,401.43,Single-ply,SBD,M
Boys,124.74,22,Bailey Fox,Montgomery,121.56,206.38,,158.76,365.14,Single-ply,SD,M
Boys,124.74,23,Deshondric Selman,Beaumont Ozen,112.67,104.33,83.91,158.76,347,Single-ply,SBD,M
Boys,124.74,24,Quinton Edmiston,Montgomery,119.93,174.63,,170.1,344.73,Single-ply,SD,M
Boys,124.74,25,Denaus Furgeson,La Porte,120.93,83.91,158.76,,242.67,Single-ply,SB,M
Boys,124.74,26,Ford Obrain,Clute Brazoswood,121.74,192.78,,,192.78,Single-ply,S,M
Boys,124.74,DQ,Jordan Tankersly,Crosby,124.74,,,,,Single-ply,S,M
Boys,124.74+,1,Chance Harmanson,Dickinson,141.07,299.37,190.51,265.35,755.23,Single-ply,SBD,M
Boys,124.74+,2,Alonzo Crittendon,Dickinson,140.89,331.12,149.69,272.16,752.96,Single-ply,SBD,M
Boys,124.74+,3,Matthew Gregory,Crosby,141.97,249.48,142.88,222.26,614.62,Single-ply,SBD,M
Boys,124.74+,4,Brandon Jones,Montgomery,140.25,249.48,142.88,219.99,612.35,Single-ply,SBD,M
Boys,124.74+,5,Keenan Murphy,Crosby,133.81,226.8,136.08,226.8,589.67,Single-ply,SBD,M
Boys,124.74+,6,John Vasquez,Dickinson,147.87,226.8,124.74,183.7,535.24,Single-ply,SBD,M
Boys,124.74+,7,William Tinner,La Marque,132.72,188.24,127.01,170.1,485.34,Single-ply,SBD,M
Boys,124.74+,8,Seth Lambert,Clute Brazoswood,136.08,183.7,106.59,192.78,483.08,Single-ply,SBD,M
Boys,124.74+,9,Jason Hessler,Galveston Ball,129.73,165.56,124.74,183.7,474,Single-ply,SBD,M
Boys,124.74+,10,Moses Horn,Stafford,126.82,188.24,111.13,172.37,471.74,Single-ply,SBD,M
Boys,124.74+,11,Dennis Bardwell,Huffman Hargrave,126.01,174.63,102.06,183.7,460.4,Single-ply,SBD,M
Boys,124.74+,12,Danny Guajardo,Crosby,132.81,183.7,83.91,190.51,458.13,Single-ply,SBD,M
Boys,124.74+,13,Ambrows Moreland,Beaumont Ozen,147.42,158.76,99.79,158.76,417.3,Single-ply,SBD,M
Boys,124.74+,14,Zach Vega,Friendswood Clear Brook,140.89,,108.86,176.9,285.76,Single-ply,BD,M
Boys,124.74+,DQ,Victor Sanchez,Hitchcock,136.08,,,,,Single-ply,BD,M
Boys,124.74+,DQ,Luis Atilano,La Porte,130.91,,,,,Single-ply,BD,M
