Division,WeightClassKg,Place,Name,Team,BodyweightKg,Best3SquatKg,Best3BenchKg,Best3DeadliftKg,TotalKg,Equipment,Event,Sex
Boys,51.71,1,Aj Sneed,Richardson Lake Highlands,49.44,111.13,63.5,113.4,288.03,Single-ply,SBD,M
Boys,51.71,2,Manny Evins,Richardson Pearce,50.85,74.84,52.16,92.99,219.99,Single-ply,SBD,M
Boys,55.79,1,Todd Henderson,Richardson Lake Highlands,55.07,147.42,86.18,158.76,392.36,Single-ply,SBD,M
Boys,59.87,1,Abdullahakim Abdullahzim,Richardson Berkner,57.7,136.08,79.38,142.88,358.34,Single-ply,SBD,M
Boys,67.13,1,Noel Whitehead,Richardson Lake Highlands,63.64,158.76,90.72,181.44,430.91,Single-ply,SBD,M
Boys,67.13,2,Kam Lewis,Richardson,65.63,147.42,83.91,156.49,387.82,Single-ply,SBD,M
Boys,67.13,3,Kierian Wright,Garland Naaman Forest,63.68,136.08,83.91,158.76,378.75,Single-ply,SBD,M
Boys,67.13,4,Jahar Hooks,Richardson,63.14,129.27,74.84,165.56,369.68,Single-ply,SBD,M
Boys,67.13,DQ,Alexis Delgado,Richardson Berkner,63,124.74,,127.01,,Single-ply,SBD,M
Boys,74.84,1,Emmanuel Nwosu,Richardson Lake Highlands,73.35,183.7,108.86,192.78,485.34,Single-ply,SBD,M
Boys,74.84,2,Dilland Enriquez,Garland Naaman Forest,69.85,183.7,95.25,195.04,474,Single-ply,SBD,M
Boys,74.84,3,De'quan Landon,Richardson Pearce,72.71,192.78,97.52,181.44,471.74,Single-ply,SBD,M
Boys,74.84,4,Ezekiel Johnson,Richardson Berkner,73.39,149.69,113.4,185.97,449.06,Single-ply,SBD,M
Boys,74.84,5,Alpha Taylor,Crowley,74.71,174.63,90.72,158.76,424.11,Single-ply,SBD,M
Boys,74.84,6,Jackson Mize,Richardson Pearce,70.67,142.88,90.72,179.17,412.77,Single-ply,SBD,M
Boys,74.84,7,Francisco Rodriguez,Richardson Berkner,72.3,136.08,90.72,179.17,405.97,Single-ply,SBD,M
Boys,74.84,8,Matua Mauga,Garland Naaman Forest,69.04,136.08,74.84,156.49,367.41,Single-ply,SBD,M
Boys,74.84,9,Juan Cruz,Richardson Pearce,72.98,117.93,83.91,124.74,326.59,Single-ply,SBD,M
Boys,74.84,DQ,Idris Tanner,Richardson Berkner,69.13,158.76,,185.97,,Single-ply,SBD,M
Boys,82.1,1,Nicolas Abangowe,Garland Naaman Forest,78.74,192.78,97.52,195.04,485.34,Single-ply,SBD,M
Boys,82.1,2,Cameron Laurie,Dallas Highland Park,81.65,174.63,95.25,185.97,455.86,Single-ply,SBD,M
Boys,82.1,3,Quamarie Wells,Richardson Berkner,82.1,131.54,92.99,167.83,392.36,Single-ply,SBD,M
Boys,82.1,4,Alex Weiss,Richardson Pearce,79.61,127.01,83.91,165.56,376.48,Single-ply,SBD,M
Boys,82.1,5,Channing Williams,Richardson,76.11,133.81,79.38,145.15,358.34,Single-ply,SBD,M
Boys,89.81,1,Caleb Parker,Richardson Lake Highlands,85.41,204.12,124.74,204.12,532.97,Single-ply,SBD,M
Boys,89.81,2,Charles Bird,Richardson Pearce,82.6,174.63,129.27,219.99,523.9,Single-ply,SBD,M
Boys,89.81,3,Chance Price,Richardson Pearce,86.82,195.04,113.4,183.7,492.15,Single-ply,SBD,M
Boys,89.81,4,David Simmons,Richardson Pearce,84.32,183.7,102.06,204.12,489.88,Single-ply,SBD,M
Boys,89.81,5,Brandon Markle,Garland Naaman Forest,89.68,192.78,97.52,197.31,487.61,Single-ply,SBD,M
Boys,89.81,6,Tate Auldridge,Richardson Lake Highlands,83.87,183.7,104.33,192.78,480.81,Single-ply,SBD,M
Boys,89.81,7,David Lightbourn,Dallas Highland Park,86.18,183.7,113.4,170.1,467.2,Single-ply,SBD,M
Boys,89.81,8,Kaleb Knox,Richardson,83.96,183.7,108.86,165.56,458.13,Single-ply,SBD,M
Boys,89.81,9,Cal Hirschey,Dallas Highland Park,85.28,167.83,102.06,183.7,453.59,Single-ply,SBD,M
Boys,89.81,10,Jymmy Acosta,Richardson Pearce,86.91,174.63,88.45,183.7,446.79,Single-ply,SBD,M
Boys,89.81,11,Charlie Griege,Dallas Highland Park,84.37,131.54,111.13,183.7,426.38,Single-ply,SBD,M
Boys,89.81,DQ,Lynn Josh,Crowley,88.31,,92.99,170.1,,Single-ply,SBD,M
Boys,99.79,1,Jack Hutton,Richardson Lake Highlands,97.25,226.8,138.35,238.14,603.28,Single-ply,SBD,M
Boys,99.79,2,Dominique Johnson,Crowley,97.66,183.7,129.27,226.8,539.77,Single-ply,SBD,M
Boys,99.79,3,Kareem Campbell,Richardson Pearce,92.76,204.12,129.27,197.31,530.7,Single-ply,SBD,M
Boys,99.79,4,Adrian Brown,Garland Naaman Forest,89.95,188.24,108.86,219.99,517.1,Single-ply,SBD,M
Boys,99.79,5,Tyson Washington,Richardson Lake Highlands,95.39,183.7,124.74,208.65,517.1,Single-ply,SBD,M
Boys,99.79,6,Abdul Darkazelli,Garland Naaman Forest,98.25,185.97,104.33,219.99,510.29,Single-ply,SBD,M
Boys,99.79,7,Ethan Schwartz,Dallas Highland Park,95.25,181.44,104.33,149.69,435.45,Single-ply,SBD,M
Boys,99.79,8,Braxton Socia,Richardson,92.4,151.95,111.13,163.29,426.38,Single-ply,SBD,M
Boys,99.79,9,Campbell Saustad,Dallas Highland Park,95.25,163.29,97.52,165.56,426.38,Single-ply,SBD,M
Boys,99.79,10,Rodolfo Ramirez,Richardson Pearce,99.52,163.29,83.91,172.37,419.57,Single-ply,SBD,M
Boys,99.79,DQ,Kane Robinson,Richardson Berkner,99.29,174.63,,188.24,,Single-ply,SBD,M
Boys,99.79,DQ,Keilen Jackson,Crowley,93.17,170.1,,,,Single-ply,SBD,M
Boys,109.77,1,Kiere Ward,Garland Naaman Forest,106,247.21,127.01,231.33,605.55,Single-ply,SBD,M
Boys,109.77,2,Azion Washington,Richardson Lake Highlands,108.64,215.46,115.67,249.48,580.6,Single-ply,SBD,M
Boys,109.77,3,Jack Rourke,Dallas Highland Park,106.59,226.8,136.08,204.12,566.99,Single-ply,SBD,M
Boys,109.77,4,Kaleb White,Richardson,105.14,210.92,124.74,215.46,551.11,Single-ply,SBD,M
Boys,109.77,5,Durim Negron,Garland Naaman Forest,107.09,226.8,136.08,188.24,551.11,Single-ply,SBD,M
Boys,109.77,6,Tracy Fields,Crowley,105.01,226.8,113.4,190.51,530.7,Single-ply,SBD,M
Boys,109.77,7,Sam Morse,Dallas Highland Park,108.86,210.92,124.74,181.44,517.1,Single-ply,SBD,M
Boys,109.77,8,Osi Richmond,Crowley,105.37,181.44,131.54,190.51,503.49,Single-ply,SBD,M
Boys,109.77,9,Keldred Johnson,Garland Naaman Forest,100.43,185.97,97.52,195.04,478.54,Single-ply,SBD,M
Boys,109.77,10,Antonio Ruiz,Crowley,103.01,163.29,108.86,199.58,471.74,Single-ply,SBD,M
Boys,109.77,11,John Velez,Richardson Berkner,105.05,158.76,120.2,165.56,444.52,Single-ply,SBD,M
Boys,109.77,12,Andrew Washburne,Dallas Highland Park,104.33,156.49,111.13,165.56,433.18,Single-ply,SBD,M
Boys,109.77,DQ,Jaheem Bethea,Richardson,102.97,,,124.74,,Single-ply,SBD,M
Boys,124.74,1,Ryan Olds,Dallas Highland Park,117.93,226.8,163.29,249.48,639.57,Single-ply,SBD,M
Boys,124.74,2,Latrell Smith,Richardson Lake Highlands,123.97,238.14,124.74,231.33,594.21,Single-ply,SBD,M
Boys,124.74,3,Kyron Robinson-Woods,Richardson Berkner,121.29,231.33,111.13,206.38,548.85,Single-ply,SBD,M
Boys,124.74,4,Tommy Dunn,Garland Naaman Forest,122.97,210.92,129.27,192.78,532.97,Single-ply,SBD,M
Boys,124.74,5,Alex Salgado,Richardson Berkner,119.02,199.58,83.91,192.78,476.27,Single-ply,SBD,M
Boys,124.74,6,Chris Jones,Crowley,122.92,181.44,113.4,181.44,476.27,Single-ply,SBD,M
Boys,124.74+,1,Marc Johnson,Crowley,163.25,274.42,185.97,265.35,725.75,Single-ply,SBD,M
Boys,124.74+,2,Regan Riddle,Dallas Highland Park,126.55,260.82,124.74,226.8,612.35,Single-ply,SBD,M
Boys,124.74+,3,Trinton Jones,Crowley,126.19,192.78,133.81,181.44,508.02,Single-ply,SBD,M
Boys,124.74+,4,Michael Nwokocha,Richardson Lake Highlands,127.01,206.38,83.91,204.12,494.42,Single-ply,SBD,M
Boys,124.74+,5,Vontrez Jackson,Crowley,131.54,181.44,102.06,158.76,442.25,Single-ply,SBD,M
Boys,124.74+,DQ,Jonathan Batts,Richardson Berkner,128.23,226.8,,231.33,,Single-ply,SBD,M
