Division,WeightClassKg,Place,Name,Team,BodyweightKg,Best3SquatKg,Best3BenchKg,Best3DeadliftKg,TotalKg,Equipment,Event,Sex
Boys,55.79,1,Able Tellez,Olney,54.98,111.13,63.5,117.93,292.57,Single-ply,SBD,M
Boys,59.87,DQ,Jose Ramirez,Castleberry,59.69,,,,,Single-ply,SBD,M
Boys,67.13,1,Michael Cole,Bridgeport,67.13,149.69,97.52,185.97,433.18,Single-ply,SBD,M
Boys,67.13,2,Jose de la Cerda,Bridgeport,63.87,161.03,90.72,165.56,417.3,Single-ply,SBD,M
Boys,67.13,3,Ty Vanbuskirk,Perrin-Whitt,64.68,129.27,83.91,142.88,356.07,Single-ply,SBD,M
Boys,67.13,4,Houston Hare,Olney,64.23,124.74,81.65,142.88,349.27,Single-ply,SBD,M
Boys,67.13,5,Jose Torres,Olney,61.69,115.67,70.31,115.67,301.64,Single-ply,SBD,M
Boys,74.84,1,Josh Wells,Jacksboro,74.57,190.51,133.81,231.33,555.65,Single-ply,SBD,M
Boys,74.84,2,Brendene Ramos,Castleberry,73.48,165.56,122.47,167.83,455.86,Single-ply,SBD,M
Boys,74.84,3,Randall Hamilton,Jacksboro,70.4,172.37,95.25,145.15,412.77,Single-ply,SBD,M
Boys,74.84,4,Caleb McKenzie,Castleberry,71.21,151.95,90.72,170.1,412.77,Single-ply,SBD,M
Boys,74.84,5,Ethan Fudge,Jacksboro,72.57,145.15,92.99,151.95,390.09,Single-ply,SBD,M
Boys,74.84,6,Will Cross,Jacksboro,72.21,136.08,81.65,158.76,376.48,Single-ply,SBD,M
Boys,74.84,7,Austin Guthrie,Jacksboro,74.07,149.69,68.04,136.08,353.8,Single-ply,SBD,M
Boys,74.84,DQ,Antonio Martinez,Castleberry,68.86,136.08,61.23,,,Single-ply,SBD,M
Boys,82.1,1,Colby White,Bridgeport,78.83,181.44,92.99,192.78,467.2,Single-ply,SBD,M
Boys,82.1,2,Diangelo Sandoval,Bridgeport,79.74,172.37,108.86,174.63,455.86,Single-ply,SBD,M
Boys,82.1,DQ,Carson Johnson,Bridgeport,79.65,185.97,,,,Single-ply,SBD,M
Boys,89.81,1,Brian Chapa,Castleberry,89.54,192.78,136.08,222.26,551.11,Single-ply,SBD,M
Boys,89.81,2,James Brock,Jacksboro,88.18,204.12,120.2,215.46,539.77,Single-ply,SBD,M
Boys,89.81,3,Jacob Hull,Jacksboro,85.09,195.04,108.86,206.38,510.29,Single-ply,SBD,M
Boys,89.81,4,Mario Cruz,Castleberry,87.54,174.63,129.27,206.38,510.29,Single-ply,SBD,M
Boys,89.81,5,Jake Holmes,Perrin-Whitt,84.91,149.69,120.2,195.04,464.93,Single-ply,SBD,M
Boys,89.81,6,Cody Howard,Jacksboro,89.09,183.7,92.99,185.97,462.66,Single-ply,SBD,M
Boys,89.81,7,Jacob White,Perrin-Whitt,85.64,136.08,95.25,167.83,399.16,Single-ply,SBD,M
Boys,99.79,1,Gonsalo Ibarra,Bridgeport,96.89,231.33,158.76,226.8,616.89,Single-ply,SBD,M
Boys,99.79,2,Hector Hernandez,Olney,99.34,149.69,70.31,174.63,394.63,Single-ply,SBD,M
Boys,99.79,DQ,Donovan Valdez,Olney,97.79,133.81,,,,Single-ply,SBD,M
Boys,109.77,1,Justin Shipman,Castleberry,102.24,219.99,124.74,204.12,548.85,Single-ply,SBD,M
Boys,109.77,2,Chandler Bridges,Jacksboro,108.32,229.06,117.93,201.85,548.85,Single-ply,SBD,M
Boys,109.77,DQ,Hunter Coleman,Bridgeport,109.04,,,,,Single-ply,SBD,M
Boys,109.77,DQ,Jordan Badillo,Bridgeport,107.86,,,,,Single-ply,SBD,M
Boys,124.74,1,KC Rater,Jacksboro,122.74,222.26,115.67,181.44,519.36,Single-ply,SBD,M
Boys,124.74,2,Jacob Marshall,Bridgeport,119.02,183.7,115.67,204.12,503.49,Single-ply,SBD,M
Boys,124.74+,1,Caleb Jennings,Bridgeport,137.17,290.3,183.7,274.42,748.43,Single-ply,SBD,M
Boys,124.74+,2,Eric Stonechek,Bridgeport,131.72,249.48,176.9,235.87,662.24,Single-ply,SBD,M
Boys,,NS,Gabriel Rodriguez,Castleberry,,,,,,Single-ply,SBD,M
Boys,,NS,Isac DeHaro,Castleberry,,,,,,Single-ply,SBD,M
Boys,,NS,Mason Damron,Jacksboro,,,,,,Single-ply,SBD,M
Boys,,NS,Anthony Pacheco,Perrin-Whitt,,,,,,Single-ply,SBD,M
Boys,,NS,Dakota Armstrong,Perrin-Whitt,,,,,,Single-ply,SBD,M
