Division,WeightClassKg,Place,Name,Team,BodyweightKg,Best3SquatKg,Best3BenchKg,Best3DeadliftKg,TotalKg,Equipment,Event,Sex
Varsity,51.71,1,Dylan Elkins,Needville,51.44,147.42,102.06,147.42,396.89,Single-ply,SBD,M
Varsity,51.71,2,Josh Cantu,Bloomington,46.04,115.67,63.5,133.81,312.98,Single-ply,SBD,M
Varsity,51.71,3,Fernando Valdez,Needville,51.71,86.18,58.97,120.2,265.35,Single-ply,SBD,M
Varsity,51.71,4,Kayden Kurtz,Vanderbilt Industrial,45.81,63.5,47.63,95.25,206.38,Single-ply,SBD,M
Varsity,55.79,1,Cortrae Wiggins,Bay City,55.75,120.2,72.57,131.54,324.32,Single-ply,SBD,M
Varsity,55.79,2,Trenton Thedford,Vanderbilt Industrial,55.57,136.08,72.57,113.4,322.05,Single-ply,SBD,M
Varsity,55.79,3,Daniel Santillan,Vanderbilt Industrial,55.79,120.2,61.23,133.81,315.25,Single-ply,SBD,M
Varsity,55.79,4,Chris Garza,Ganado,54.84,120.2,70.31,120.2,310.71,Single-ply,SBD,M
Varsity,55.79,5,Jake Buzek,Edna,54.57,113.4,68.04,106.59,288.03,Single-ply,SBD,M
Varsity,59.87,DQ,Jacob Ryder,Needville,55.97,115.67,79.38,,,Single-ply,SBD,M
Varsity,55.79,DQ,Josiah Williams,Vanderbilt Industrial,54.43,106.59,65.77,,,Single-ply,SBD,M
Varsity,59.87,1,Michael Latapie,Palacios,59.42,165.56,115.67,176.9,458.13,Single-ply,SBD,M
Varsity,59.87,2,Rhett Musser,Vanderbilt Industrial,58.51,142.88,79.38,133.81,356.07,Single-ply,SBD,M
Varsity,59.87,3,Isaac Cervantes,Needville,58.97,117.93,74.84,151.95,344.73,Single-ply,SBD,M
Varsity,59.87,4,Michael Gonzalez,Edna,57.52,113.4,83.91,129.27,326.59,Single-ply,SBD,M
Varsity,67.13,5,Andrew Weight,Van Vleck,60.01,113.4,74.84,136.08,324.32,Single-ply,SBD,M
Varsity,67.13,6,Al-Delwin Nelson,Bay City,60.06,111.13,83.91,127.01,322.05,Single-ply,SBD,M
Varsity,59.87,7,Eddie Ramos,Ganado,56.34,117.93,68.04,127.01,312.98,Single-ply,SBD,M
Varsity,59.87,8,Matthew White,Palacios,57.92,95.25,61.23,111.13,267.62,Single-ply,SBD,M
Varsity,59.87,9,Kyle Jones,Needville,59.87,74.84,68.04,88.45,231.33,Single-ply,SBD,M
Varsity,59.87,DQ,Hunter Keazler,Ganado,56.34,136.08,,,,Single-ply,SBD,M
Varsity,67.13,1,Brice LaMach,Bay City,66.04,208.65,127.01,215.46,551.11,Single-ply,SBD,M
Varsity,67.13,2,Jose Jimenez,Palacios,66.77,172.37,115.67,195.04,483.08,Single-ply,SBD,M
Varsity,74.84,3,Caleb Jones,Van Vleck,67.31,172.37,117.93,192.78,483.08,Single-ply,SBD,M
Varsity,67.13,4,Kristian Grifaldo,Edna,61.05,181.44,92.99,158.76,433.18,Single-ply,SBD,M
Varsity,67.13,5,Brandon Maraggia,Vanderbilt Industrial,64.41,131.54,90.72,179.17,401.43,Single-ply,SBD,M
Varsity,67.13,6,David Franz,Vanderbilt Industrial,66.22,145.15,70.31,161.03,376.48,Single-ply,SBD,M
Varsity,67.13,7,David Nunes,Edna,60.19,147.42,83.91,136.08,367.41,Single-ply,SBD,M
Varsity,67.13,8,Marquis Earls,Edna,63.46,120.2,88.45,147.42,356.07,Single-ply,SBD,M
Varsity,67.13,9,Sergio Olvera,Needville,61.78,117.93,86.18,142.88,347,Single-ply,SBD,M
Varsity,67.13,10,Da'Shaun Smith,Bay City,60.65,120.2,74.84,127.01,322.05,Single-ply,SBD,M
Varsity,67.13,11,Robert Gamble,Ganado,63.73,113.4,79.38,115.67,308.44,Single-ply,SBD,M
Varsity,67.13,12,Sam Fisher,Bay City,65.77,111.13,83.91,102.06,297.1,Single-ply,SBD,M
Varsity,67.13,DQ,Jerry Manning,Bay City,66.32,115.67,74.84,,,Single-ply,SBD,M
Varsity,67.13,DQ,Dean Bagby,Van Vleck,64.14,142.88,,,,Single-ply,SBD,M
Varsity,82.1,1,Matthew Nguyen,Palacios,75.02,229.06,117.93,242.67,589.67,Single-ply,SBD,M
Varsity,74.84,2,Denzell Banks,Edna,73.8,185.97,99.79,210.92,496.68,Single-ply,SBD,M
Varsity,74.84,3,Cutberto Ramos,Ganado,70.03,167.83,120.2,185.97,474,Single-ply,SBD,M
Varsity,74.84,4,Gabe Valladares,Van Vleck,70.31,158.76,106.59,181.44,446.79,Single-ply,SBD,M
Varsity,74.84,5,Noah Seaman,Palacios,71.35,163.29,88.45,176.9,428.64,Single-ply,SBD,M
Varsity,74.84,6,Tavon Cantue,Edna,68.22,161.03,88.45,174.63,424.11,Single-ply,SBD,M
Varsity,74.84,7,Marco Chavarria,Vanderbilt Industrial,71.21,174.63,90.72,147.42,412.77,Single-ply,SBD,M
Varsity,74.84,8,Triston Tomas,Edna,70.99,156.49,90.72,149.69,396.89,Single-ply,SBD,M
Varsity,74.84,9,Jonathan Schreckengost,Ganado,71.62,113.4,68.04,151.95,333.39,Single-ply,SBD,M
Varsity,74.84,DQ,Nathan Perkins,Palacios,67.9,127.01,92.99,,,Single-ply,SBD,M
Varsity,74.84,DQ,Courtland Taylor,Bay City,71.17,219.99,136.08,,,Single-ply,SBD,M
Varsity,74.84,DQ,Jesus Chavarria,Vanderbilt Industrial,69.85,131.54,,,,Single-ply,SBD,M
Varsity,82.1,1,Stevie Franklin,Bay City,80.6,192.78,120.2,158.76,471.74,Single-ply,SBD,M
Varsity,82.1,2,Chris Cabrera,Bloomington,79.02,183.7,102.06,174.63,460.4,Single-ply,SBD,M
Varsity,82.1,3,Will Knopp,Vanderbilt Industrial,81.65,158.76,104.33,188.24,451.32,Single-ply,SBD,M
Varsity,82.1,4,Miguel Ramirez,Vanderbilt Industrial,81.19,161.03,90.72,183.7,435.45,Single-ply,SBD,M
Varsity,82.1,5,Jack Perry,Vanderbilt Industrial,79.83,161.03,92.99,172.37,426.38,Single-ply,SBD,M
Varsity,82.1,6,Dustin Hempel,Vanderbilt Industrial,80.74,158.76,104.33,149.69,412.77,Single-ply,SBD,M
Varsity,82.1,7,Marvin Watson,Van Vleck,81.33,161.03,95.25,151.95,408.23,Single-ply,SBD,M
Varsity,82.1,8,Kevin Holdgraf,Vanderbilt Industrial,79.38,136.08,72.57,136.08,344.73,Single-ply,SBD,M
Varsity,82.1,9,Kevon Bryant,Edna,75.8,113.4,68.04,149.69,331.12,Single-ply,SBD,M
Varsity,82.1,10,Ty Cammack,Needville,78.97,99.79,79.38,104.33,283.5,Single-ply,SBD,M
Varsity,82.1,DQ,Devan Pinon,Bloomington,77.34,165.56,83.91,,,Single-ply,SBD,M
Varsity,82.1,DQ,Jaden Morales,Bay City,80.65,165.56,,,,Single-ply,SBD,M
Varsity,82.1,DQ,Dakota Duvall,Vanderbilt Industrial,81.65,117.93,,,,Single-ply,SBD,M
Varsity,89.81,1,Joe Woodson,El Maton Tidehaven,85.82,199.58,117.93,215.46,532.97,Single-ply,SBD,M
Varsity,89.81,2,Juan Evangalistia,Bay City,89.77,192.78,133.81,199.58,526.17,Single-ply,SBD,M
Varsity,89.81,3,Cade Cihal,Ganado,86.18,204.12,113.4,201.85,519.36,Single-ply,SBD,M
Varsity,89.81,4,Zeke Zomora,Bay City,89.77,190.51,142.88,181.44,514.83,Single-ply,SBD,M
Varsity,89.81,5,Jeff McDonald,Van Vleck,88.77,201.85,111.13,190.51,503.49,Single-ply,SBD,M
Varsity,89.81,6,Chris Sherrill,Bay City,88.72,190.51,124.74,185.97,501.22,Single-ply,SBD,M
Varsity,89.81,7,Luis Escobedo,Needville,86.68,185.97,122.47,179.17,487.61,Single-ply,SBD,M
Varsity,89.81,8,Jordan Branum,Vanderbilt Industrial,83.46,190.51,111.13,181.44,483.08,Single-ply,SBD,M
Varsity,89.81,9,Matt Lamb,Van Vleck,89.81,190.51,108.86,170.1,469.47,Single-ply,SBD,M
Varsity,89.81,10,Dillon Kuhlman,Ganado,84.1,151.95,102.06,158.76,412.77,Single-ply,SBD,M
Varsity,89.81,11,Carlos Zanzen,Needville,83.42,140.61,92.99,136.08,369.68,Single-ply,SBD,M
Varsity,89.81,DQ,Russell Taylor,Needville,83.96,181.44,104.33,,,Single-ply,SBD,M
Varsity,99.79,1,Kj Brown,Bay City,99.61,188.24,145.15,195.04,528.44,Single-ply,SBD,M
Varsity,99.79,2,Juan Lopez,Palacios,90.85,183.7,111.13,229.06,523.9,Single-ply,SBD,M
Varsity,99.79,3,Mason Davis,Vanderbilt Industrial,97.52,188.24,113.4,199.58,501.22,Single-ply,SBD,M
Varsity,99.79,4,Nick Goza,Needville,98.29,165.56,117.93,181.44,464.93,Single-ply,SBD,M
Varsity,99.79,5,Chris Mejias,Bay City,98.07,172.37,124.74,142.88,439.98,Single-ply,SBD,M
Varsity,99.79,6,Travis Alexander,Vanderbilt Industrial,90.72,170.1,92.99,161.03,424.11,Single-ply,SBD,M
Varsity,99.79,7,Kyle Dunk,Needville,99.79,142.88,108.86,140.61,392.36,Single-ply,SBD,M
Varsity,99.79,8,Lucas Smith,Van Vleck,93.08,108.86,83.91,127.01,319.78,Single-ply,SBD,M
Varsity,99.79,DQ,Tanner Chavana,Bloomington,96.57,219.99,106.59,,,Single-ply,SBD,M
Varsity,109.77,1,Case Silliman,Ganado,102.6,238.14,161.03,233.6,632.76,Single-ply,SBD,M
Varsity,109.77,2,Anthony Norman,Edna,104.42,165.56,106.59,181.44,453.59,Single-ply,SBD,M
Varsity,109.77,DQ,Trey Rivera,Bloomington,101.24,158.76,,,,Single-ply,SBD,M
Varsity,109.77,DQ,Jose Rodriguez,Bay City,107.95,170.1,,,,Single-ply,SBD,M
Varsity,124.74,1,Adam Aucoin,Palacios,110.63,306.17,181.44,229.06,716.68,Single-ply,SBD,M
Varsity,124.74,2,Michael Garcia,Ganado,111.27,231.33,165.56,235.87,632.76,Single-ply,SBD,M
Varsity,124.74,3,Logan Robinson,Edna,122.7,222.26,127.01,233.6,582.87,Single-ply,SBD,M
Varsity,124.74,4,Will Malek,Ganado,121.61,176.9,117.93,174.63,469.47,Single-ply,SBD,M
Varsity,124.74,5,Alex Polomoras,Bay City,118.39,188.24,111.13,158.76,458.13,Single-ply,SBD,M
Varsity,124.74,6,Levi Perry,Vanderbilt Industrial,113.4,136.08,106.59,142.88,385.55,Single-ply,SBD,M
Varsity,124.74+,1,Anthony Parks,Ganado,132.54,219.99,163.29,238.14,621.42,Single-ply,SBD,M
Varsity,124.74+,2,Denton Lesak,Ganado,135.62,249.48,117.93,229.06,596.47,Single-ply,SBD,M
Varsity,124.74+,3,Nicholas Dowdle,Bay City,125.46,102.06,79.38,136.08,317.51,Single-ply,SBD,M
