Name,Age,Event,Sex,Division,Equipment,BodyweightKg,WeightClassKg,Squat1Kg,Squat2Kg,Squat3Kg,Best3SquatKg,Bench1Kg,Bench2Kg,Bench3Kg,Best3BenchKg,Deadlift1Kg,Deadlift2Kg,Deadlift3Kg,Best3DeadliftKg,TotalKg,Place
Bill Carlough,52,SBD,M,Masters 50-59,Multi-ply,80.29,82.5,183.7,195.04,204.12,204.12,138.35,-174.63,183.7,183.7,174.63,185.97,201.85,201.85,589.67,1
Doug Petersen,57,B,M,Masters 50-59,Raw,109.32,110,,,,,142.88,158.76,167.83,167.83,,,,,167.83,1
Victor Patterson,47,B,M,Masters 40-49,Raw,173.27,140+,,,,,183.7,204.12,226.8,226.8,,,,,226.8,1
Kaleb Carlson,16,B,M,Teen 16-17,Raw,67.13,67.5,,,,,99.79,106.59,111.13,111.13,,,,,111.13,1
Nick Price,16,D,M,Teen 16-17,Raw,74.39,75,,,,,,,,,142.88,156.49,-174.63,156.49,156.49,1
Pietro Alfano,16,D,M,Teen 16-17,Raw,84.37,90,,,,,,,,,158.76,172.37,-176.9,172.37,172.37,1
Danny Bridgeman,25,D,M,Novice,Raw,83.91,90,,,,,,,,,142.88,183.7,204.12,204.12,204.12,1
