Division,WeightClassKg,Place,Name,Team,BodyweightKg,Best3SquatKg,Best3BenchKg,Best3DeadliftKg,TotalKg,Equipment,Event,Sex
Varsity,51.71,1,Payton Robertson,West Orange-Stark,51.71,70.31,43.09,102.06,215.46,Single-ply,SBD,M
Varsity,59.87,1,Javier Garcia,Orange Little Cypress-Mauriceville,59.42,163.29,88.45,174.63,426.38,Single-ply,SBD,M
Varsity,59.87,2,Regan Ficken,Orangefield,59.42,167.83,86.18,145.15,399.16,Single-ply,SBD,M
Varsity,67.13,1,Matthew Watkins,Orangefield,67.13,124.74,79.38,136.08,340.19,Single-ply,SBD,M
Varsity,74.84,1,Bryce Rambo,Orange Little Cypress-Mauriceville,70.76,142.88,72.57,170.1,385.55,Single-ply,SBD,M
Varsity,74.84,2,Tyler Hanna,Orange Little Cypress-Mauriceville,68.49,124.74,81.65,113.4,319.78,Single-ply,SBD,M
Varsity,82.1,1,Troy Angelo,Orange Little Cypress-Mauriceville,81.65,226.8,124.74,226.8,578.33,Single-ply,SBD,M
Varsity,82.1,2,Roderick Harper,Silsbee,77.11,172.37,108.86,197.31,478.54,Single-ply,SBD,M
Varsity,82.1,3,Ryan Kirkendall,Silsbee,79.38,163.29,102.06,183.7,449.06,Single-ply,SBD,M
Varsity,82.1,4,Elijah Miller,Silsbee,81.65,127.01,92.99,165.56,385.55,Single-ply,SBD,M
Varsity,82.1,5,Josh Tims,West Orange-Stark,82.1,145.15,79.38,140.61,365.14,Single-ply,SBD,M
Varsity,82.1,6,Elijah Teel,West Orange-Stark,82.1,124.74,77.11,147.42,349.27,Single-ply,SBD,M
Varsity,82.1,7,Ian Putman,Orangefield,80.74,195.04,,,195.04,Single-ply,S,M
Varsity,89.81,1,Coleton Boudreaux,Orange Little Cypress-Mauriceville,88,226.8,140.61,217.72,585.13,Single-ply,SBD,M
Varsity,89.81,2,Jhayllien Monette,West Orange-Stark,89.81,161.03,117.93,204.12,483.08,Single-ply,SBD,M
Varsity,89.81,3,Adam Jacobs,Orangefield,89.36,163.29,108.86,163.29,435.45,Single-ply,SBD,M
Varsity,89.81,4,Jamarcus Myers,Silsbee,88.9,138.35,92.99,192.78,424.11,Single-ply,SBD,M
Varsity,89.81,5,Blake LeBlanc,Orange Little Cypress-Mauriceville,83.46,161.03,90.72,142.88,394.63,Single-ply,SBD,M
Varsity,89.81,6,Anthony Kirkendall,Silsbee,83.91,129.27,97.52,149.69,376.48,Single-ply,SBD,M
Varsity,99.79,1,Coy Laughlin,Orange Little Cypress-Mauriceville,96.16,206.38,151.95,181.44,539.77,Single-ply,SBD,M
Varsity,99.79,2,Bryan Lopez,Orangefield,97.07,210.92,111.13,181.44,503.49,Single-ply,SBD,M
Varsity,99.79,3,Octavius Crosson,West Orange-Stark,99.79,158.76,106.59,154.22,419.57,Single-ply,SBD,M
Varsity,99.79,4,Talon Weaver,Silsbee,98.43,129.27,106.59,149.69,385.55,Single-ply,SBD,M
Varsity,99.79,5,Trent Morgan,Silsbee,90.72,133.81,97.52,151.95,383.29,Single-ply,SBD,M
Varsity,99.79,6,Stuart Viator,Orange Little Cypress-Mauriceville,90.72,133.81,74.84,136.08,344.73,Single-ply,SBD,M
Varsity,99.79,7,Jeremiah Klinkhammer,West Orange-Stark,99.79,108.86,83.91,131.54,324.32,Single-ply,SBD,M
Varsity,109.77,1,Jerrod Watkins,Orangefield,105.23,206.38,129.27,188.24,523.9,Single-ply,SBD,M
Varsity,109.77,2,Carter Beck,Orange Little Cypress-Mauriceville,103.87,151.95,95.25,151.95,399.16,Single-ply,SBD,M
Varsity,124.74,1,Jonathan Judge,Orange Little Cypress-Mauriceville,119.29,188.24,120.2,185.97,494.42,Single-ply,SBD,M
Varsity,124.74+,1,Patrick Hudson,Silsbee,145.15,215.46,124.74,233.6,573.79,Single-ply,SBD,M
Varsity,124.74+,2,Seth Adams,Silsbee,129.27,195.04,142.88,204.12,542.04,Single-ply,SBD,M
Varsity,124.74+,3,Richard Wright,West Orange-Stark,136.08,158.76,106.59,181.44,446.79,Single-ply,SBD,M
Junior Varsity,67.13,1,Gz Zare,Silsbee,65.32,104.33,83.91,124.74,312.98,Single-ply,SBD,M
Junior Varsity,67.13,2,Mason Fredric,Orange Little Cypress-Mauriceville,61.23,83.91,49.9,111.13,244.94,Single-ply,SBD,M
Junior Varsity,74.84,1,Demaric Judge,West Orange-Stark,74.84,111.13,79.38,145.15,335.66,Single-ply,SBD,M
Junior Varsity,74.84,2,Fred Reppond,Silsbee,72.57,104.33,90.72,131.54,326.59,Single-ply,SBD,M
Junior Varsity,74.84,3,Scott McCarty,West Orange-Stark,74.84,113.4,72.57,136.08,322.05,Single-ply,SBD,M
Junior Varsity,74.84,4,Chase Williams,Orange Little Cypress-Mauriceville,70.76,113.4,74.84,117.93,306.17,Single-ply,SBD,M
Junior Varsity,89.81,1,Austin Woods,Orange Little Cypress-Mauriceville,83.01,124.74,81.65,102.06,308.44,Single-ply,SBD,M
Junior Varsity,99.79,1,Virgil Vontoure,West Orange-Stark,99.79,108.86,65.77,149.69,324.32,Single-ply,SBD,M
