Division,WeightClassKg,Place,Name,Team,BodyweightKg,Best3SquatKg,Best3BenchKg,Best3DeadliftKg,TotalKg,Equipment,Event,Sex
Boys,59.87,1,Arnold Delgadillo,White Settlement Brewer,55.84,147.42,97.52,161.03,405.97,Single-ply,SBD,M
Boys,55.79,2,Felipe Hernandez,Saginaw,55.57,131.54,81.65,142.88,356.07,Single-ply,SBD,M
Boys,67.13,1,Tyler Sutton,White Settlement Brewer,66.95,149.69,106.59,158.76,415.04,Single-ply,SBD,M
Boys,67.13,2,Elferis Bey,White Settlement Brewer,66.59,147.42,102.06,156.49,405.97,Single-ply,SBD,M
Boys,67.13,3,Austin Chenault,Springtown,60.96,142.88,74.84,147.42,365.14,Single-ply,SBD,M
Boys,74.84,4,Omar Lopez,Springtown,67.22,124.74,92.99,145.15,362.87,Single-ply,SBD,M
Boys,74.84,1,Jarrod Nelson,Springtown,74.8,188.24,102.06,183.7,474,Single-ply,SBD,M
Boys,82.1,2,Cody Gentry,White Settlement Brewer,74.98,170.1,97.52,206.38,474,Single-ply,SBD,M
Boys,82.1,3,Jeremy Chote,White Settlement Brewer,74.89,170.1,117.93,183.7,471.74,Single-ply,SBD,M
Boys,74.84,4,Matt Blakely,Saginaw,68.04,161.03,106.59,181.44,449.06,Single-ply,SBD,M
Boys,74.84,5,Barrett Tedder,Springtown,74.75,167.83,90.72,174.63,433.18,Single-ply,SBD,M
Boys,74.84,6,Dominique Orozco,Saginaw,71.21,136.08,92.99,163.29,392.36,Single-ply,SBD,M
Boys,74.84,7,Jordon Purnell,White Settlement Brewer,73.66,131.54,97.52,156.49,385.55,Single-ply,SBD,M
Boys,74.84,8,Ezekiel Plata,Saginaw,71.89,142.88,88.45,149.69,381.02,Single-ply,SBD,M
Boys,74.84,9,Jonathan Chavez,Springtown,73.75,133.81,86.18,151.95,371.95,Single-ply,SBD,M
Boys,74.84,10,Nolan Tucker,Springtown,74.71,124.74,81.65,158.76,365.14,Single-ply,SBD,M
Boys,74.84,11,Curtis Taylor,White Settlement Brewer,73.66,124.74,83.91,136.08,344.73,Single-ply,SBD,M
Boys,82.1,1,Kameron Shields,White Settlement Brewer,77.29,176.9,108.86,170.1,455.86,Single-ply,SBD,M
Boys,82.1,2,Brandon Santos,Springtown,77.2,154.22,99.79,181.44,435.45,Single-ply,SBD,M
Boys,82.1,3,Christian Cato,White Settlement Brewer,77.79,174.63,88.45,156.49,419.57,Single-ply,SBD,M
Boys,89.81,1,Damian Hernandez,White Settlement Brewer,89.72,197.31,136.08,210.92,544.31,Single-ply,SBD,M
Boys,89.81,2,Guillermo Pando,Springtown,83.6,156.49,90.72,165.56,412.77,Single-ply,SBD,M
Boys,89.81,3,Devin Buckner,Saginaw,88.9,156.49,95.25,154.22,405.97,Single-ply,SBD,M
Boys,89.81,4,Cordell Tyson,White Settlement Brewer,87,124.74,86.18,163.29,374.21,Single-ply,SBD,M
Boys,89.81,5,Derrick Munoz,Saginaw,88.9,145.15,83.91,138.35,367.41,Single-ply,SBD,M
Boys,89.81,6,John Molinar,White Settlement Brewer,88.68,170.1,102.06,,272.16,Single-ply,SB,M
Boys,99.79,1,Nathan Badillo,Saginaw,99.56,224.53,138.35,206.38,569.26,Single-ply,SBD,M
Boys,99.79,2,Martine Medina,Springtown,97.79,208.65,115.67,226.8,551.11,Single-ply,SBD,M
Boys,99.79,3,Derrick Jones,White Settlement Brewer,94.26,185.97,117.93,206.38,510.29,Single-ply,SBD,M
Boys,99.79,4,Al Kankam,Saginaw,98.66,192.78,111.13,201.85,505.76,Single-ply,SBD,M
Boys,99.79,5,Omar Bosquez,Saginaw,97.3,174.63,92.99,151.95,419.57,Single-ply,SBD,M
Boys,99.79,6,Ignacio Gonzales,Saginaw,91.63,142.88,102.06,151.95,396.89,Single-ply,SBD,M
Boys,99.79,7,David Hickey,Saginaw,95.25,129.27,68.04,129.27,326.59,Single-ply,SBD,M
Boys,109.77,1,Fernando Monreal,White Settlement Brewer,105.41,204.12,133.81,188.24,526.17,Single-ply,SBD,M
Boys,109.77,2,Gilbert Cortinas,Saginaw,107.27,145.15,88.45,147.42,381.02,Single-ply,SBD,M
Boys,124.74,1,Jesse Springfield,Springtown,122.52,240.4,129.27,231.33,601.01,Single-ply,SBD,M
Boys,124.74,2,Amador Chavez,Saginaw,112.49,181.44,111.13,158.76,451.32,Single-ply,SBD,M
Boys,124.74,3,Jared Luth,Saginaw,119.29,179.17,102.06,158.76,439.98,Single-ply,SBD,M
Boys,124.74,4,Michael Ward,Springtown,120.07,161.03,90.72,174.63,426.38,Single-ply,SBD,M
Boys,124.74+,1,Dusty Seely,White Settlement Brewer,128.46,238.14,145.15,208.65,591.94,Single-ply,SBD,M
Boys,124.74+,2,Taylor Bitters,White Settlement Brewer,129.73,249.48,113.4,219.99,582.87,Single-ply,SBD,M
Boys,124.74+,3,Joseph Alfaro,White Settlement Brewer,134.81,251.74,124.74,199.58,576.06,Single-ply,SBD,M
