Division,WeightClassKg,Place,Name,Team,BodyweightKg,Best3SquatKg,Best3BenchKg,Best3DeadliftKg,TotalKg,Equipment,Event,Sex
Boys,51.71,1,Ezekiel Chavez,Abilene,46.9,99.79,77.11,124.74,301.64,Single-ply,SBD,M
Boys,51.71,2,Trey Jimenez,Sweetwater,51.17,113.4,68.04,117.93,299.37,Single-ply,SBD,M
Boys,51.71,3,Christian Rodriquez,Tuscola Jim Ned,51.17,108.86,54.43,120.2,283.5,Single-ply,SBD,M
Boys,51.71,4,Tyler Guelker,Roscoe Collegiate,48.53,106.59,54.43,111.13,272.16,Single-ply,SBD,M
Boys,51.71,5,Wyatt Kofoed,Merkel,51.66,102.06,49.9,115.67,267.62,Single-ply,SBD,M
Boys,51.71,DQ,Josh Hood,Water Valley,49.9,111.13,,,,Single-ply,SBD,M
Boys,55.79,1,Tristen Thompson,Merkel,55.7,136.08,102.06,142.88,381.02,Single-ply,SBD,M
Boys,55.79,2,Robert Hernandez,Abilene Cooper,53.07,113.4,74.84,131.54,319.78,Single-ply,SBD,M
Boys,55.79,3,Josiah Galvan,Abilene,55.61,117.93,65.77,122.47,306.17,Single-ply,SBD,M
Boys,55.79,4,Corbin Otto,Abilene Cooper,52.89,90.72,49.9,102.06,242.67,Single-ply,SBD,M
Boys,55.79,5,Enrique Bautista,Anson,54.07,88.45,47.63,102.06,238.14,Single-ply,SBD,M
Boys,59.87,1,Lleyton Frazier,Tuscola Jim Ned,57.61,145.15,90.72,163.29,399.16,Single-ply,SBD,M
Boys,59.87,2,Caleb Chacon,Merkel,59.69,142.88,90.72,156.49,390.09,Single-ply,SBD,M
Boys,59.87,3,Sebastian Gonzales,Sweetwater,59.87,142.88,77.11,151.95,371.95,Single-ply,SBD,M
Boys,59.87,4,Marcus Gomez,Abilene Cooper,59.87,136.08,68.04,156.49,360.61,Single-ply,SBD,M
Boys,59.87,5,Luke Wilson,Roscoe Collegiate,57.61,106.59,68.04,129.27,303.91,Single-ply,SBD,M
Boys,59.87,6,Reece Kiser,Roscoe Collegiate,57.79,102.06,58.97,115.67,276.69,Single-ply,SBD,M
Boys,67.13,1,Riley Perry,Tuscola Jim Ned,61.69,181.44,115.67,163.29,460.4,Single-ply,SBD,M
Boys,67.13,2,Kendal Adames,Sweetwater,64.86,167.83,77.11,188.24,433.18,Single-ply,SBD,M
Boys,67.13,3,Blayz Ingle,Clyde,66.22,156.49,86.18,163.29,405.97,Single-ply,SBD,M
Boys,67.13,4,Andrew DeLeon,Roscoe Collegiate,61.23,154.22,83.91,154.22,392.36,Single-ply,SBD,M
Boys,67.13,5,Xavier Soliz,Anson,61.87,151.95,79.38,151.95,383.29,Single-ply,SBD,M
Boys,67.13,6,Marco Garza,Abilene Cooper,65.86,145.15,92.99,142.88,381.02,Single-ply,SBD,M
Boys,67.13,7,Andrew Bradley,Abilene Cooper,61.42,136.08,77.11,158.76,371.95,Single-ply,SBD,M
Boys,67.13,8,Don Bridges,Tuscola Jim Ned,64.77,136.08,68.04,158.76,362.87,Single-ply,SBD,M
Boys,67.13,9,Isaac Brahm,Anson,66.95,142.88,77.11,142.88,362.87,Single-ply,SBD,M
Boys,67.13,10,Marc Williams,Haskell,61.42,120.2,74.84,151.95,347,Single-ply,SBD,M
Boys,67.13,11,Aiden Feeler,Merkel,66.22,127.01,68.04,149.69,344.73,Single-ply,SBD,M
Boys,67.13,12,Gary Shaw,Roscoe Collegiate,67.13,120.2,83.91,133.81,337.93,Single-ply,SBD,M
Boys,67.13,13,Michael Torres,Merkel,64.68,129.27,61.23,142.88,333.39,Single-ply,SBD,M
Boys,67.13,14,Kolten Hope,Roscoe Collegiate,66.86,106.59,74.84,117.93,299.37,Single-ply,SBD,M
Boys,67.13,DQ,Nick Massey,Merkel,64.32,,,,,Single-ply,SBD,M
Boys,74.84,1,Josh Camacho,Sweetwater,70.49,188.24,113.4,204.12,505.76,Single-ply,SBD,M
Boys,74.84,2,Richard Hoffman,Clyde,74.48,204.12,102.06,183.7,489.88,Single-ply,SBD,M
Boys,74.84,3,Bo Baker,Clyde,72.12,190.51,108.86,165.56,464.93,Single-ply,SBD,M
Boys,74.84,4,Peyton Smith,Haskell,73.57,176.9,104.33,181.44,462.66,Single-ply,SBD,M
Boys,74.84,5,Ramiro Aguilar,Hawley,68.04,158.76,90.72,183.7,433.18,Single-ply,SBD,M
Boys,74.84,6,Gunnar McCoy,Water Valley,69.4,151.95,83.91,172.37,408.23,Single-ply,SBD,M
Boys,74.84,7,Daniel Medina,Ballinger,74.3,147.42,90.72,158.76,396.89,Single-ply,SBD,M
Boys,74.84,8,Nimfasha Olivier,Abilene Cooper,70.94,181.44,70.31,142.88,394.63,Single-ply,SBD,M
Boys,74.84,9,Luke Leonard,Haskell,73.48,158.76,86.18,149.69,394.63,Single-ply,SBD,M
Boys,74.84,10,Adrian Tapia,Ballinger,71.49,129.27,97.52,163.29,390.09,Single-ply,SBD,M
Boys,74.84,11,Brendon Mount,Clyde,67.77,145.15,77.11,154.22,376.48,Single-ply,SBD,M
Boys,74.84,12,Ethan Brockman,Sweetwater,71.76,156.49,68.04,149.69,374.21,Single-ply,SBD,M
Boys,74.84,13,Sam Meier,Merkel,73.94,142.88,74.84,149.69,367.41,Single-ply,SBD,M
Boys,74.84,14,Mark Leyva,Merkel,70.94,127.01,68.04,136.08,331.12,Single-ply,SBD,M
Boys,74.84,15,Charles Self,Clyde,68.4,111.13,88.45,129.27,328.85,Single-ply,SBD,M
Boys,74.84,16,Ethan Doby,Anson,73.94,122.47,83.91,122.47,328.85,Single-ply,SBD,M
Boys,74.84,17,Zachary Jordan,Roscoe Collegiate,70.03,102.06,74.84,142.88,319.78,Single-ply,SBD,M
Boys,74.84,18,Michael Stephens,Haskell,68.31,102.06,52.16,154.22,308.44,Single-ply,SBD,M
Boys,74.84,19,Caleb Powell,Clyde,73.03,97.52,68.04,117.93,283.5,Single-ply,SBD,M
Boys,74.84,DQ,Matthew Lozano,Anson,70.4,,,,,Single-ply,SBD,M
Boys,74.84,DQ,Jorge Hernandez,Abilene,72.85,,,,,Single-ply,SBD,M
Boys,82.1,1,Tony Padilla,Sweetwater,82.01,195.04,127.01,208.65,530.7,Single-ply,SBD,M
Boys,82.1,2,Julio Acevedo,Roby,81.92,229.06,102.06,185.97,517.1,Single-ply,SBD,M
Boys,82.1,3,Phonzo Dotson,Abilene,80.56,199.58,102.06,197.31,498.95,Single-ply,SBD,M
Boys,82.1,4,Michael Bartlett,Abilene,76.29,188.24,95.25,195.04,478.54,Single-ply,SBD,M
Boys,82.1,5,John Schudde,Tuscola Jim Ned,81.01,183.7,97.52,190.51,471.74,Single-ply,SBD,M
Boys,82.1,6,Kolby Griffin,Anson,79.29,183.7,95.25,188.24,467.2,Single-ply,SBD,M
Boys,82.1,7,Fabian Rubio,Ballinger,79.56,183.7,95.25,151.95,430.91,Single-ply,SBD,M
Boys,82.1,8,Wyatt McCoy,Sweetwater,82.1,158.76,92.99,176.9,428.64,Single-ply,SBD,M
Boys,82.1,9,Tristan Alejandro,Ballinger,76.48,170.1,95.25,158.76,424.11,Single-ply,SBD,M
Boys,82.1,10,Kyle St John,Anson,78.83,154.22,77.11,142.88,374.21,Single-ply,SBD,M
Boys,82.1,DQ,Luke Boggess,Ballinger,81.47,163.29,,,,Single-ply,SBD,M
Boys,82.1,DQ,Adam Keidl,Clyde,81.65,156.49,,,,Single-ply,SBD,M
Boys,89.81,1,Donovan Gomez,Clyde,88.27,256.28,163.29,233.6,653.17,Single-ply,SBD,M
Boys,89.81,2,Emile Niyonkuru,Abilene Cooper,83.01,229.06,127.01,213.19,569.26,Single-ply,SBD,M
Boys,89.81,3,Colton Marshall,Hawley,89.81,183.7,131.54,204.12,519.36,Single-ply,SBD,M
Boys,89.81,4,Shawn Howell,Roby,86,206.38,90.72,183.7,480.81,Single-ply,SBD,M
Boys,89.81,5,D'Anthony Franklin,Abilene,87.27,199.58,97.52,183.7,480.81,Single-ply,SBD,M
Boys,89.81,6,Phillip Tellez,Abilene,83.1,170.1,122.47,183.7,476.27,Single-ply,SBD,M
Boys,89.81,7,Caleb Wright,Haskell,83.46,185.97,83.91,183.7,453.59,Single-ply,SBD,M
Boys,89.81,8,Jacob Childers,Clyde,86.09,167.83,92.99,172.37,433.18,Single-ply,SBD,M
Boys,89.81,9,Caleb Smith,Tuscola Jim Ned,83.01,158.76,86.18,181.44,426.38,Single-ply,SBD,M
Boys,89.81,10,Tyler Stevens,Tuscola Jim Ned,86.18,163.29,90.72,163.29,417.3,Single-ply,SBD,M
Boys,89.81,11,Nate King,Haskell,87.36,185.97,77.11,151.95,415.04,Single-ply,SBD,M
Boys,89.81,12,Elijah Dudley,Clyde,88.99,151.95,95.25,165.56,412.77,Single-ply,SBD,M
Boys,89.81,13,Caleb Moreno,Anson,84.73,147.42,79.38,156.49,383.29,Single-ply,SBD,M
Boys,89.81,DQ,Jacob Deax,Abilene Cooper,84.73,179.17,,,,Single-ply,SBD,M
Boys,89.81,DQ,Dawson Cannon,Clyde,83.73,,,,,Single-ply,SBD,M
Boys,99.79,1,Arthur Murillo,Tuscola Jim Ned,93.62,226.8,131.54,222.26,580.6,Single-ply,SBD,M
Boys,99.79,2,Colton Stricklan,Hawley,93.89,208.65,120.2,242.67,571.53,Single-ply,SBD,M
Boys,99.79,3,Adolph Medina,Ballinger,96.8,206.38,138.35,224.53,569.26,Single-ply,SBD,M
Boys,99.79,4,Tommy Allmand,Abilene Cooper,92.08,229.06,131.54,195.04,555.65,Single-ply,SBD,M
Boys,99.79,5,Cody Crouch,Merkel,99.7,206.38,90.72,204.12,501.22,Single-ply,SBD,M
Boys,99.79,6,Jeremy Le,Sweetwater,99.52,190.51,113.4,170.1,474,Single-ply,SBD,M
Boys,99.79,7,Robert Garcia,Merkel,98.16,172.37,74.84,167.83,415.04,Single-ply,SBD,M
Boys,99.79,8,Jon Fisher,Clyde,93.17,147.42,106.59,151.95,405.97,Single-ply,SBD,M
Boys,99.79,9,John Acevedo,Roby,98.43,158.76,79.38,142.88,381.02,Single-ply,SBD,M
Boys,99.79,DQ,Max Bradley,Water Valley,97.25,,,,,Single-ply,SBD,M
Boys,99.79,DQ,Dustin Parmeter,Merkel,92.35,145.15,,,,Single-ply,SBD,M
Boys,99.79,DQ,Evan Andrews,Merkel,92.08,,,,,Single-ply,SBD,M
Boys,99.79,DQ,Cody Farley,Abilene Cooper,99.79,188.24,,,,Single-ply,SBD,M
Boys,109.77,1,Justin Castereno,Sweetwater,106.96,272.16,170.1,256.28,698.53,Single-ply,SBD,M
Boys,109.77,2,Lucio Ramirez,Abilene,105.87,258.55,113.4,197.31,569.26,Single-ply,SBD,M
Boys,109.77,3,Jorrian Moses,Abilene Cooper,105.69,226.8,129.27,208.65,564.72,Single-ply,SBD,M
Boys,109.77,4,Harley Davis,Water Valley,102.97,226.8,106.59,215.46,548.85,Single-ply,SBD,M
Boys,109.77,5,John Wheeler,Tuscola Jim Ned,102.78,217.72,142.88,185.97,546.58,Single-ply,SBD,M
Boys,109.77,6,Colby Ernst,Abilene,107.32,226.8,124.74,195.04,546.58,Single-ply,SBD,M
Boys,109.77,7,Donovan Brooks,Merkel,107.95,195.04,149.69,181.44,526.17,Single-ply,SBD,M
Boys,109.77,8,Cody Rice,Merkel,107.32,183.7,90.72,163.29,437.72,Single-ply,SBD,M
Boys,109.77,9,Garrett Bowers,Roscoe Collegiate,103.87,170.1,74.84,181.44,426.38,Single-ply,SBD,M
Boys,109.77,10,Skylar Pulattie,Sweetwater,107.5,158.76,83.91,151.95,394.63,Single-ply,SBD,M
Boys,109.77,11,Xavier Lopez,Roscoe Collegiate,108.59,117.93,68.04,131.54,317.51,Single-ply,SBD,M
Boys,124.74,1,Luke Williams,Merkel,116.48,249.48,149.69,249.48,648.64,Single-ply,SBD,M
Boys,124.74,2,Colton Grimes,Abilene Cooper,110.86,244.94,154.22,226.8,625.96,Single-ply,SBD,M
Boys,124.74,3,Xavier Cortez,Abilene,119.29,265.35,113.4,210.92,589.67,Single-ply,SBD,M
Boys,124.74,4,Ryan Gofigan,Abilene Cooper,115.67,231.33,120.2,219.99,571.53,Single-ply,SBD,M
Boys,124.74,5,Jayden Hostetter,Ballinger,118.39,226.8,129.27,192.78,548.85,Single-ply,SBD,M
Boys,124.74,6,Lucas Gomez,Abilene,116.57,231.33,106.59,201.85,539.77,Single-ply,SBD,M
Boys,124.74,7,Chris Loya,Abilene,115.21,210.92,115.67,199.58,526.17,Single-ply,SBD,M
Boys,124.74,8,Justin Smith,Abilene Cooper,120.66,215.46,117.93,188.24,521.63,Single-ply,SBD,M
Boys,124.74,9,Triston Patterson,Tuscola Jim Ned,111.4,199.58,113.4,190.51,503.49,Single-ply,SBD,M
Boys,124.74,10,Bradley Byrne,Abilene,110.22,210.92,97.52,183.7,492.15,Single-ply,SBD,M
Boys,124.74,11,Kade Miller,Tuscola Jim Ned,112.67,176.9,97.52,181.44,455.86,Single-ply,SBD,M
Boys,124.74,12,Stephen Crain,Haskell,112.22,145.15,102.06,167.83,415.04,Single-ply,SBD,M
Boys,124.74+,1,David Schuman,Merkel,124.83,285.76,190.51,258.55,734.82,Single-ply,SBD,M
Boys,124.74+,2,Devon Cosby,Abilene Cooper,131.09,254.01,158.76,244.94,657.71,Single-ply,SBD,M
Boys,124.74+,3,Ricardo Rios-Esparza,Abilene Cooper,134.26,249.48,122.47,217.72,589.67,Single-ply,SBD,M
Boys,124.74+,4,Khalil Spivey,Abilene,139.71,272.16,108.86,208.65,589.67,Single-ply,SBD,M
Boys,124.74+,5,Jaxon O'Kelly,Merkel,137.85,226.8,124.74,210.92,562.45,Single-ply,SBD,M
Boys,,NS,Jake Gonzales,Roscoe Collegiate,,,,,,Single-ply,SBD,M
Boys,,NS,Jessus Menjivar,Abilene Cooper,,,,,,Single-ply,SBD,M
Boys,,NS,Ely Barrera,Sweetwater,,,,,,Single-ply,SBD,M
Boys,,NS,Levi Smith,Water Valley,,,,,,Single-ply,SBD,M
Boys,,NS,Austin Schoonmaker,Clyde,,,,,,Single-ply,SBD,M
