Division,WeightClassKg,Place,Name,Team,BodyweightKg,Best3SquatKg,Best3BenchKg,Best3DeadliftKg,TotalKg,Equipment,Event,Sex
Girls,44.23,1,Frida Rodriguez,Brownsville Pace,43.54,83.91,34.02,90.72,208.65,Single-ply,SBD,F
Girls,47.85,1,Lexi Davila,Brownsville Lopez,45.36,124.74,52.16,115.67,292.57,Single-ply,SBD,F
Girls,47.85,2,Sophia Navarrete,Los Fresnos,47.63,115.67,47.63,127.01,290.3,Single-ply,SBD,F
Girls,47.85,3,Esmeralda Saldana,Brownsville Lopez,47.63,117.93,58.97,106.59,283.5,Single-ply,SBD,F
Girls,47.85,4,Amri Benitez,Rio Hondo,46.27,113.4,56.7,108.86,278.96,Single-ply,SBD,F
Girls,47.85,5,Bel Sanchez,Mercedes,46.72,86.18,40.82,74.84,201.85,Single-ply,SBD,F
Girls,47.85,DQ,Alexie Hernandez,Los Fresnos,47.17,,,,,Single-ply,SBD,F
Girls,51.94,1,Jannay Garcia,Mercedes,51.26,115.67,56.7,120.2,292.57,Single-ply,SBD,F
Girls,51.94,2,Jackie Del Molino,Brownsville Veterans Memorial,50.8,113.4,38.56,127.01,278.96,Single-ply,SBD,F
Girls,51.94,3,Misty Garza,Rio Hondo,51.26,97.52,56.7,124.74,278.96,Single-ply,SBD,F
Girls,51.94,4,Aubree Ramos,Los Fresnos,51.26,106.59,56.7,108.86,272.16,Single-ply,SBD,F
Girls,51.94,5,Devin Balderama,Los Fresnos,51.26,104.33,52.16,106.59,263.08,Single-ply,SBD,F
Girls,51.94,6,Julie Del Bosque,Rio Hondo,51.26,102.06,43.09,108.86,254.01,Single-ply,SBD,F
Girls,51.94,7,Melanie Davila,Los Fresnos,51.26,88.45,47.63,97.52,233.6,Single-ply,SBD,F
Girls,51.94,8,Lesly Suarez,Brownsville Lopez,48.99,74.84,38.56,88.45,201.85,Single-ply,SBD,F
Girls,51.94,9,Ellenise Guerra,Brownsville Veterans Memorial,50.35,74.84,31.75,90.72,197.31,Single-ply,SBD,F
Girls,51.94,10,Mitzy Olvera,Brownsville Hanna,48.99,70.31,43.09,79.38,192.78,Single-ply,SBD,F
Girls,51.94,11,Nicole Birney,La Feria,48.53,74.84,31.75,81.65,188.24,Single-ply,SBD,F
Girls,51.94,DQ,Alexandra Bradshaw,Brownsville Hanna,50.8,79.38,47.63,,,Single-ply,SBD,F
Girls,56.02,1,Annahi Pizana,Brownsville Lopez,54.88,147.42,68.04,124.74,340.19,Single-ply,SBD,F
Girls,56.02,2,Evelyn Guerra,Brownsville Pace,54.88,120.2,61.23,129.27,310.71,Single-ply,SBD,F
Girls,56.02,3,Brittany Federico,Brownsville Porter,54.43,90.72,43.09,99.79,233.6,Single-ply,SBD,F
Girls,56.02,4,Karina Chavez,Brownsville Hanna,55.34,92.99,34.02,92.99,219.99,Single-ply,SBD,F
Girls,56.02,5,Aletse Gonzalez,Brownsville Hanna,55.34,83.91,47.63,79.38,210.92,Single-ply,SBD,F
Girls,56.02,6,Vanessa Lucio,La Feria,55.34,70.31,36.29,97.52,204.12,Single-ply,SBD,F
Girls,56.02,DQ,Taylor Cavazos,Mercedes,54.43,61.23,24.95,,,Single-ply,SBD,F
Girls,56.02,DQ,Sofia Tatum,Brownsville Hanna,52.16,,,79.38,,Single-ply,SBD,F
Girls,56.02,DQ,Emily Reyes,Brownsville Pace,52.16,,,,,Single-ply,SBD,F
Girls,56.02,DQ,Paulina Esquivel,Brownsville Pace,55.34,,,,,Single-ply,SBD,F
Girls,56.02,DQ,Ana Lopez,Brownsville Pace,55.79,61.23,,,,Single-ply,SBD,F
Girls,60.1,1,Kassidy Sanchez,Mercedes,59.87,151.95,65.77,147.42,365.14,Single-ply,SBD,F
Girls,60.1,2,Joesha Villanueva,Los Fresnos,58.51,131.54,61.23,136.08,328.85,Single-ply,SBD,F
Girls,60.1,3,Madelyn Gutierrez,Brownsville Hanna,58.97,115.67,54.43,120.2,290.3,Single-ply,SBD,F
Girls,60.1,4,Kiara Garcia,Brownsville Lopez,57.15,115.67,47.63,111.13,274.42,Single-ply,SBD,F
Girls,60.1,5,Dana Rodriguez,Brownsville Pace,56.7,106.59,38.56,108.86,254.01,Single-ply,SBD,F
Girls,60.1,6,Jackie Perez,Port Isabel,57.61,102.06,43.09,108.86,254.01,Single-ply,SBD,F
Girls,60.1,7,Sylvia Cardenas,Brownsville Hanna,58.51,111.13,47.63,92.99,251.74,Single-ply,SBD,F
Girls,60.1,8,Amy Moran,San Benito,57.61,79.38,40.82,90.72,210.92,Single-ply,SBD,F
Girls,60.1,9,Nallely Lara,Brownsville Lopez,58.06,79.38,38.56,88.45,206.38,Single-ply,SBD,F
Girls,60.1,10,Jocelyn Guzman,Brownsville Hanna,56.7,70.31,38.56,70.31,179.17,Single-ply,SBD,F
Girls,60.1,DQ,Daniella Rodriguez,Brownsville Hanna,56.25,92.99,,,,Single-ply,SBD,F
Girls,60.1,DQ,Hailey Rodriguez,Brownsville Rivera,58.06,90.72,49.9,,,Single-ply,SBD,F
Girls,60.1,DQ,Emily Castro,Brownsville Rivera,59.87,95.25,,,,Single-ply,SBD,F
Girls,60.1,DQ,Leanna Gonzalez,Rio Hondo,58.97,,,,,Single-ply,SBD,F
Girls,60.1,DQ,Mayra Yanez,San Benito,58.51,,,,,Single-ply,SBD,F
Girls,67.36,1,Tiffany Silguero,Los Fresnos,66.68,136.08,70.31,122.47,328.85,Single-ply,SBD,F
Girls,67.36,2,Nancy Gutierrez,Brownsville Veterans Memorial,65.32,131.54,56.7,127.01,315.25,Single-ply,SBD,F
Girls,67.36,3,Natalia Marquez,Mercedes,60.33,111.13,49.9,142.88,303.91,Single-ply,SBD,F
Girls,67.36,4,Saira Castillo,Los Fresnos,64.86,115.67,56.7,124.74,297.1,Single-ply,SBD,F
Girls,67.36,5,Annahi Escobar,Brownsville Lopez,63.05,111.13,47.63,115.67,274.42,Single-ply,SBD,F
Girls,67.36,6,Stephanie Reyes,La Feria,62.14,115.67,52.16,102.06,269.89,Single-ply,SBD,F
Girls,67.36,7,Oyuki Maldonado,Brownsville Porter,67.13,90.72,65.77,113.4,269.89,Single-ply,SBD,F
Girls,67.36,8,Silvia Gonzalez,Port Isabel,66.22,88.45,61.23,108.86,258.55,Single-ply,SBD,F
Girls,67.36,9,Kate Garcia,Brownsville Hanna,64.41,70.31,43.09,77.11,190.51,Single-ply,SBD,F
Girls,67.36,10,Ana Ayala,Brownsville Rivera,67.13,68.04,31.75,65.77,165.56,Single-ply,SBD,F
Girls,67.36,DQ,Yumara Villanueva,Brownsville Rivera,61.69,61.23,,,,Single-ply,SBD,F
Girls,67.36,DQ,Stephanie Cantu,San Benito,64.41,,,,,Single-ply,SBD,F
Girls,75.07,1,Juliana Barrera,Port Isabel,68.95,179.17,86.18,158.76,424.11,Single-ply,SBD,F
Girls,75.07,2,Madelyne McKinney,Brownsville Veterans Memorial,72.57,136.08,72.57,158.76,367.41,Single-ply,SBD,F
Girls,75.07,3,Mayeliza Sanchez,Brownsville Lopez,69.85,138.35,70.31,133.81,342.46,Single-ply,SBD,F
Girls,75.07,4,Eylen Ruiz,Brownsville Pace,74.39,138.35,65.77,117.93,322.05,Single-ply,SBD,F
Girls,75.07,5,Monica Salgado,Brownsville Pace,72.57,127.01,63.5,117.93,308.44,Single-ply,SBD,F
Girls,75.07,6,Gabriela Torres,La Feria,71.67,127.01,49.9,124.74,301.64,Single-ply,SBD,F
Girls,75.07,7,Mikayla Rodriguez,Rio Hondo,69.85,102.06,63.5,133.81,299.37,Single-ply,SBD,F
Girls,75.07,8,Virginia Galvan,La Feria,72.57,108.86,63.5,127.01,299.37,Single-ply,SBD,F
Girls,75.07,9,Janie Ramos,Brownsville Veterans Memorial,73.94,113.4,61.23,122.47,297.1,Single-ply,SBD,F
Girls,75.07,10,Madelyn Galvan,Port Isabel,67.59,99.79,54.43,111.13,265.35,Single-ply,SBD,F
Girls,75.07,11,Jordan Puckett,Port Isabel,69.4,88.45,47.63,92.99,229.06,Single-ply,SBD,F
Girls,82.33,1,Carmen Lainez,Los Fresnos,77.11,102.06,79.38,120.2,301.64,Single-ply,SBD,F
Girls,82.33,2,Natalie Rivera,Brownsville Pace,77.11,117.93,56.7,102.06,276.69,Single-ply,SBD,F
Girls,82.33,3,Jasmine Garcia,Lyford,81.65,111.13,43.09,111.13,265.35,Single-ply,SBD,F
Girls,82.33,4,Angelina Cervantes,Brownsville Rivera,79.83,102.06,47.63,95.25,244.94,Single-ply,SBD,F
Girls,82.33,DQ,Adriana Valerio,Brownsville Pace,81.19,,,,,Single-ply,SBD,F
Girls,82.33,DQ,Jenifher Gallegos,San Benito,77.11,102.06,56.7,,,Single-ply,SBD,F
Girls,90.04,1,Melanie Quintero,Brownsville Lopez,85.73,170.1,90.72,170.1,430.91,Single-ply,SBD,F
Girls,90.04,2,Micaela Castaneda,Los Fresnos,84.82,163.29,74.84,136.08,374.21,Single-ply,SBD,F
Girls,90.04,3,Adelina Quintana,Rio Hondo,88.45,117.93,74.84,133.81,326.59,Single-ply,SBD,F
Girls,90.04,4,Dalila Araguz,San Benito,88,136.08,56.7,117.93,310.71,Single-ply,SBD,F
Girls,90.04,5,Zelyn de la Cruz,La Feria,88.9,90.72,61.23,129.27,281.23,Single-ply,SBD,F
Girls,90.04,6,Arcelia Villalon,Brownsville Rivera,83.46,74.84,38.56,56.7,170.1,Single-ply,SBD,F
Girls,100.02,1,Destinee Perez,Mercedes,93.89,188.24,74.84,147.42,410.5,Single-ply,SBD,F
Girls,100.02,2,Casey Najar,Rio Hondo,93.89,147.42,74.84,138.35,360.61,Single-ply,SBD,F
Girls,100.02,3,Caroline Hernandez,San Benito,91.63,149.69,65.77,113.4,328.85,Single-ply,SBD,F
Girls,100.02,4,Shyanna Gutierrez,San Benito,90.72,122.47,58.97,90.72,272.16,Single-ply,SBD,F
Girls,100.02,DQ,Victoria Espinosa,Brownsville Porter,98.43,,,,,Single-ply,SBD,F
Girls,100.02,DQ,Katya Alfaro,Brownsville Porter,98.43,131.54,61.23,,,Single-ply,SBD,F
Girls,100.02,DQ,Priscilla Tovar,Lyford,93.44,156.49,,,,Single-ply,SBD,F
Girls,117.71,1,Julieann Delgado,Brownsville Lopez,104.33,197.31,92.99,179.17,469.47,Single-ply,SBD,F
Girls,117.71,2,Desiree Perez,La Feria,105.69,142.88,63.5,133.81,340.19,Single-ply,SBD,F
Girls,117.71,3,Anastacia Parsons,Brownsville Lopez,107.05,145.15,68.04,124.74,337.93,Single-ply,SBD,F
Girls,117.71,4,Anna Coronado,La Feria,105.69,142.88,56.7,136.08,335.66,Single-ply,SBD,F
Girls,117.71,5,Rosario Vargas,Brownsville Lopez,104.33,142.88,74.84,115.67,333.39,Single-ply,SBD,F
Girls,117.71,6,Vivian Diaz,Brownsville Hanna,100.24,72.57,43.09,102.06,217.72,Single-ply,SBD,F
Girls,117.71,DQ,Lisa Zuniga,Rio Hondo,103.87,163.29,,,,Single-ply,SBD,F
Girls,117.71+,1,Kimberley Rojas,Mercedes,124.28,161.03,61.23,140.61,362.87,Single-ply,SBD,F
