Division,WeightClassKg,Place,Name,Team,BodyweightKg,Best3SquatKg,Best3BenchKg,Best3DeadliftKg,TotalKg,Equipment,Event,Sex
Boys,51.71,1,Miguel Ontiveros,Victoria West,51.71,120.2,65.77,129.27,315.25,Single-ply,SBD,M
Boys,51.71,2,Bradley McGill,Vanderbilt Industrial,50.8,111.13,65.77,115.67,292.57,Single-ply,SBD,M
Boys,51.71,3,Jacob Salinas,Runge,50.58,90.72,54.43,92.99,238.14,Single-ply,SBD,M
Boys,51.71,DQ,Kayden Kurtz,Vanderbilt Industrial,51.71,,,,,Single-ply,SBD,M
Boys,51.71,DQ,Marcos Lara,Mathis,51.48,,68.04,120.2,,Single-ply,SBD,M
Boys,55.79,1,Marcus Hernandez,Victoria West,54.88,158.76,81.65,181.44,421.84,Single-ply,SBD,M
Boys,55.79,2,Jesus Rios,Vanderbilt Industrial,53.52,106.59,88.45,136.08,331.12,Single-ply,SBD,M
Boys,55.79,3,Albert Alvarez,Jourdanton,55.11,106.59,79.38,129.27,315.25,Single-ply,SBD,M
Boys,59.87,4,Wesley Lover,Karnes City,56.02,120.2,70.31,124.74,315.25,Single-ply,SBD,M
Boys,55.79,5,Colton Rodriguez,Jourdanton,53.75,122.47,61.23,115.67,299.37,Single-ply,SBD,M
Boys,55.79,6,Chris Eastwood,Goliad,54.43,83.91,52.16,97.52,233.6,Single-ply,SBD,M
Boys,55.79,7,Kenny Moore,Refugio,54.43,65.77,45.36,70.31,181.44,Single-ply,SBD,M
Boys,55.79,DQ,Derrick Rios,Runge,55.79,,,,,Single-ply,SBD,M
Boys,55.79,DQ,Amit Patel,Three Rivers,55.79,,,,,Single-ply,SBD,M
Boys,67.13,1,Dylan Torres,Runge,60.1,154.22,92.99,172.37,419.57,Single-ply,SBD,M
Boys,67.13,2,Miguel Hernandez,Nixon Smiley,60.1,151.95,88.45,174.63,415.04,Single-ply,SBD,M
Boys,67.13,3,Fabian Tijerina,Mathis,60.1,142.88,90.72,151.95,385.55,Single-ply,SBD,M
Boys,67.13,4,Trenton Thedford,Vanderbilt Industrial,60.1,149.69,90.72,142.88,383.29,Single-ply,SBD,M
Boys,67.13,5,David Nunez,Edna,60.1,136.08,79.38,145.15,360.61,Single-ply,SBD,M
Boys,59.87,6,Beau Burns,Victoria West,58.74,133.81,74.84,145.15,353.8,Single-ply,SBD,M
Boys,59.87,7,Buster Dodge,Refugio,58.74,106.59,61.23,117.93,285.76,Single-ply,SBD,M
Boys,59.87,DQ,Colton Richmond,Vanderbilt Industrial,59.87,,,,,Single-ply,SBD,M
Boys,59.87,DQ,Isiah Dennis,Goliad,59.87,,,,,Single-ply,SBD,M
Boys,59.87,DQ,Isaac Lopez,Jourdanton,59.65,142.88,,,,Single-ply,SBD,M
Boys,67.13,1,Jose Jimenez,Palacios,66.9,192.78,124.74,199.58,517.1,Single-ply,SBD,M
Boys,67.13,2,Michael Latapie,Palacios,63.05,181.44,138.35,190.51,510.29,Single-ply,SBD,M
Boys,67.13,3,Elijah Velasquez,Port Lavaca Calhoun,66.22,185.97,122.47,190.51,498.95,Single-ply,SBD,M
Boys,67.13,4,Jade Haney,Port Lavaca Calhoun,64.86,183.7,92.99,190.51,467.2,Single-ply,SBD,M
Boys,67.13,5,Kristian Grifaldo,Edna,64.18,170.1,97.52,170.1,437.72,Single-ply,SBD,M
Boys,67.13,6,Colby Berger,Goliad,66,185.97,83.91,167.83,437.72,Single-ply,SBD,M
Boys,67.13,7,Noah Seaman,Palacios,66.68,151.95,92.99,174.63,419.57,Single-ply,SBD,M
Boys,67.13,8,Jimmy Gonzales,Port Lavaca Calhoun,65.32,154.22,95.25,167.83,417.3,Single-ply,SBD,M
Boys,67.13,9,Marcus Crespin,Victoria West,65.54,142.88,95.25,165.56,403.7,Single-ply,SBD,M
Boys,67.13,10,Keiano Gary,Victoria East,66.22,142.88,58.97,158.76,360.61,Single-ply,SBD,M
Boys,74.84,11,Kyle Falcon,Victoria East,67.36,120.2,79.38,158.76,358.34,Single-ply,SBD,M
Boys,67.13,12,Rhett Musser,Vanderbilt Industrial,60.78,147.42,74.84,131.54,353.8,Single-ply,SBD,M
Boys,67.13,13,Daniel Santillan,Vanderbilt Industrial,61.92,133.81,68.04,140.61,342.46,Single-ply,SBD,M
Boys,67.13,14,Logan Muehlstein,Goliad,64.86,113.4,70.31,158.76,342.46,Single-ply,SBD,M
Boys,67.13,15,Thomas Aranda,Refugio,62.14,129.27,72.57,136.08,337.93,Single-ply,SBD,M
Boys,67.13,16,Rhett Kelley,Karnes City,63.73,115.67,74.84,138.35,328.85,Single-ply,SBD,M
Boys,67.13,17,Robert Morin,Karnes City,60.55,104.33,74.84,140.61,319.78,Single-ply,SBD,M
Boys,67.13,DQ,Danny Gloor,Edna,65.14,,,,,Single-ply,SBD,M
Boys,67.13,DQ,Jake Johnson,Edna,67.13,,,,,Single-ply,SBD,M
Boys,67.13,DQ,Michael Chavarria,San Antonio Brooks Academy,67.13,,,,,Single-ply,SBD,M
Boys,67.13,DQ,Eric Gutierrez,Runge,67.13,,,,,Single-ply,SBD,M
Boys,67.13,DQ,Caleb Marek,Victoria West,66.68,172.37,,176.9,,Single-ply,SBD,M
Boys,67.13,DQ,Dempsey Duprie,Goliad,62.82,147.42,,156.49,,Single-ply,SBD,M
Boys,74.84,1,Jacob Perez,Nixon Smiley,69.85,204.12,113.4,181.44,498.95,Single-ply,SBD,M
Boys,74.84,2,David Ledbetter,Victoria West,68.72,183.7,124.74,183.7,492.15,Single-ply,SBD,M
Boys,74.84,3,Denzell Banks,Edna,74.62,183.7,97.52,192.78,474,Single-ply,SBD,M
Boys,74.84,4,Jhony Zalaya,Victoria East,73.26,188.24,111.13,158.76,458.13,Single-ply,SBD,M
Boys,74.84,5,Craig Wells,San Antonio Brooks Academy,73.26,142.88,111.13,185.97,439.98,Single-ply,SBD,M
Boys,74.84,6,Ta'Von Cantu,Edna,71.67,158.76,88.45,183.7,430.91,Single-ply,SBD,M
Boys,74.84,7,Paul Almendarez,Three Rivers,73.94,154.22,74.84,185.97,415.04,Single-ply,SBD,M
Boys,74.84,8,Steven Salas,Runge,70.99,142.88,70.31,165.56,378.75,Single-ply,SBD,M
Boys,74.84,9,Travis Dibble,Victoria West,73.94,142.88,86.18,142.88,371.95,Single-ply,SBD,M
Boys,74.84,10,Buddy Vega,Jourdanton,71.21,129.27,90.72,136.08,356.07,Single-ply,SBD,M
Boys,74.84,11,Bobby Morris,Victoria East,68.27,117.93,70.31,142.88,331.12,Single-ply,SBD,M
Boys,74.84,12,Anthony McGuill,Refugio,73.26,97.52,79.38,136.08,312.98,Single-ply,SBD,M
Boys,82.1,13,AJ Garcia,Edna,75.07,115.67,61.23,136.08,312.98,Single-ply,SBD,M
Boys,74.84,14,Ethan Lueckemeyer,Goliad,68.72,97.52,65.77,97.52,260.82,Single-ply,SBD,M
Boys,74.84,15,Hector Campos,Nixon Smiley,68.49,,81.65,154.22,235.87,Single-ply,BD,M
Boys,74.84,DQ,Dominic Cruz,Jourdanton,74.84,,,,,Single-ply,BD,M
Boys,74.84,DQ,Tony Hinajosa,Three Rivers,74.84,,,,,Single-ply,BD,M
Boys,74.84,DQ,Joe Caldera,Port Lavaca Calhoun,74.84,192.78,136.08,,,Single-ply,SBD,M
Boys,74.84,DQ,Lucas Alvear,Runge,68.04,,83.91,142.88,,Single-ply,BD,M
Boys,74.84,DQ,Mark Aguirre,Edna,73.48,,83.91,,,Single-ply,BD,M
Boys,74.84,DQ,Pedro Amador,Mathis,74.62,,,142.88,,Single-ply,BD,M
Boys,74.84,DQ,Marin Fonseca,Mathis,72.12,154.22,81.65,,,Single-ply,SBD,M
Boys,82.1,1,Oziel Rios,Palacios,82.1,192.78,145.15,199.58,537.51,Single-ply,SBD,M
Boys,82.1,2,Gabriel Casarez,Port Lavaca Calhoun,81.42,204.12,117.93,190.51,512.56,Single-ply,SBD,M
Boys,89.81,3,Eli Milner,Vanderbilt Industrial,82.33,172.37,102.06,188.24,462.66,Single-ply,SBD,M
Boys,82.1,4,Alex Aguero,Jourdanton,79.61,183.7,90.72,167.83,442.25,Single-ply,SBD,M
Boys,82.1,5,Nick Quintanilla,Karnes City,77.79,163.29,95.25,170.1,428.64,Single-ply,SBD,M
Boys,82.1,6,Claudio Capibaribe,Karnes City,82.1,138.35,86.18,174.63,399.16,Single-ply,SBD,M
Boys,82.1,7,Raul Tovar,Nixon Smiley,79.83,149.69,97.52,145.15,392.36,Single-ply,SBD,M
Boys,82.1,8,Luis Balz,Mathis,77.79,149.69,83.91,156.49,390.09,Single-ply,SBD,M
Boys,82.1,9,Steven Carreon,Victoria East,78.02,117.93,,165.56,283.5,Single-ply,SD,M
Boys,82.1,DQ,Valentin Sanchez,Three Rivers,82.1,,,,,Single-ply,SD,M
Boys,82.1,DQ,Aaron Charles,Runge,82.1,,,,,Single-ply,SD,M
Boys,82.1,DQ,Jason Gonzales,Mathis,82.1,,,,,Single-ply,SD,M
Boys,82.1,DQ,Aaron Trevino,Victoria East,80.74,185.97,104.33,,,Single-ply,SBD,M
Boys,89.81,DQ,Damein Mellieon,San Antonio Brooks Academy,82.33,,,124.74,,Single-ply,SD,M
Boys,82.1,DQ,Steven Koehne,Goliad,78.47,,68.04,154.22,,Single-ply,SBD,M
Boys,82.1,DQ,Michael Hernandez,Edna,75.98,,,138.35,,Single-ply,SD,M
Boys,89.81,1,Kenneth Sanchez,Victoria West,88,226.8,142.88,188.24,557.92,Single-ply,SBD,M
Boys,89.81,2,Jordan Branum,Vanderbilt Industrial,86.64,201.85,131.54,192.78,526.17,Single-ply,SBD,M
Boys,89.81,3,Dustin Hempel,Vanderbilt Industrial,85.5,192.78,129.27,192.78,514.83,Single-ply,SBD,M
Boys,89.81,4,Merle Garza,Goliad,87.32,204.12,117.93,190.51,512.56,Single-ply,SBD,M
Boys,89.81,5,Mike DeLaGarza,Victoria West,88.45,190.51,106.59,204.12,501.22,Single-ply,SBD,M
Boys,89.81,6,Tim Esquivel,Mathis,85.05,188.24,102.06,188.24,478.54,Single-ply,SBD,M
Boys,89.81,7,Estaban Morales,Port Lavaca Calhoun,86.64,199.58,104.33,158.76,462.66,Single-ply,SBD,M
Boys,89.81,8,Oscar Torres,Nixon Smiley,88,158.76,102.06,190.51,451.32,Single-ply,SBD,M
Boys,89.81,9,Lain Hermes,Goliad,89.36,181.44,90.72,176.9,449.06,Single-ply,SBD,M
Boys,89.81,10,Quenton Pena,Victoria East,84.59,151.95,108.86,170.1,430.91,Single-ply,SBD,M
Boys,89.81,11,Sean Bastain,Vanderbilt Industrial,86.86,163.29,104.33,161.03,428.64,Single-ply,SBD,M
Boys,89.81,12,Shawn Martinez,Victoria West,89.58,181.44,92.99,149.69,424.11,Single-ply,SBD,M
Boys,89.81,13,Andrew Garcia,Refugio,83.91,165.56,92.99,149.69,408.23,Single-ply,SBD,M
Boys,89.81,14,Edward Rubio,Goliad,86.41,131.54,68.04,192.78,392.36,Single-ply,SBD,M
Boys,89.81,15,Michael Rios,Runge,88.22,133.81,86.18,154.22,374.21,Single-ply,SBD,M
Boys,89.81,16,Kevelain Franklin-Williams,Goliad,87.09,131.54,77.11,133.81,342.46,Single-ply,SBD,M
Boys,99.79,17,Nick Casanova,Karnes City,90.04,124.74,77.11,133.81,335.66,Single-ply,SBD,M
Boys,89.81,DQ,Jesse Perez,Three Rivers,89.81,,,,,Single-ply,SBD,M
Boys,89.81,DQ,Gilbert Aguirre,Three Rivers,89.81,,,,,Single-ply,SBD,M
Boys,89.81,DQ,Tanner Yeaman,Three Rivers,89.81,,,,,Single-ply,SBD,M
Boys,89.81,DQ,Coty Garza,Runge,85.96,133.81,,,,Single-ply,SBD,M
Boys,89.81,DQ,Jon Echavarria,Mathis,88.45,,108.86,190.51,,Single-ply,SBD,M
Boys,99.79,1,Mark Bocanegra,Jourdanton,92.76,254.01,149.69,181.44,585.13,Single-ply,SBD,M
Boys,99.79,2,Alex Valdez,Refugio,92.08,192.78,145.15,213.19,551.11,Single-ply,SBD,M
Boys,99.79,3,Conner Chumchall,Victoria West,98.88,226.8,120.2,197.31,544.31,Single-ply,SBD,M
Boys,99.79,4,Joseph Perez,Refugio,97.98,183.7,145.15,183.7,512.56,Single-ply,SBD,M
Boys,99.79,5,Thomas Kennemer,Victoria East,97.52,181.44,113.4,174.63,469.47,Single-ply,SBD,M
Boys,99.79,6,Aaron Lopez,Karnes City,94.35,170.1,108.86,161.03,439.98,Single-ply,SBD,M
Boys,99.79,7,Shane Edens,Three Rivers,99.79,176.9,106.59,156.49,439.98,Single-ply,SBD,M
Boys,99.79,8,Marcus Gruetzmacher,Goliad,94.8,154.22,97.52,181.44,433.18,Single-ply,SBD,M
Boys,99.79,9,Travis Alexander,Vanderbilt Industrial,98.88,161.03,102.06,158.76,421.84,Single-ply,SBD,M
Boys,99.79,10,Ryan Edwards,Goliad,95.93,156.49,102.06,151.95,410.5,Single-ply,SBD,M
Boys,99.79,11,Cody Park,Goliad,97.75,154.22,61.23,156.49,371.95,Single-ply,SBD,M
Boys,99.79,12,Emilio Vargas,Goliad,98.66,106.59,52.16,104.33,263.08,Single-ply,SBD,M
Boys,99.79,DQ,Daniel Barter,Three Rivers,99.79,,,,,Single-ply,SBD,M
Boys,99.79,DQ,Josh Garcia,Runge,99.79,,,,,Single-ply,SBD,M
Boys,99.79,DQ,Thomas Duran,San Antonio Brooks Academy,99.79,,,,,Single-ply,SBD,M
Boys,99.79,DQ,Brandon Nunez,Runge,91.4,92.99,,,,Single-ply,SBD,M
Boys,99.79,DQ,Jonathan Chavana,Port Lavaca Calhoun,98.88,,,,,Single-ply,SBD,M
Boys,109.77,1,Israel Aguero,Jourdanton,106.82,235.87,149.69,222.26,607.81,Single-ply,SBD,M
Boys,109.77,2,Weston Block,Karnes City,101.15,222.26,138.35,219.99,580.6,Single-ply,SBD,M
Boys,109.77,3,Austin Block,Karnes City,101.83,208.65,124.74,204.12,537.51,Single-ply,SBD,M
Boys,109.77,4,William Olson,Jourdanton,107.73,204.12,129.27,181.44,514.83,Single-ply,SBD,M
Boys,109.77,5,Levi Fulcher,Three Rivers,109.09,192.78,122.47,197.31,512.56,Single-ply,SBD,M
Boys,109.77,6,Rene Gonzales,Mathis,107.73,190.51,127.01,172.37,489.88,Single-ply,SBD,M
Boys,109.77,7,Nick Guzman,Karnes City,103.42,170.1,120.2,192.78,483.08,Single-ply,SBD,M
Boys,109.77,8,Eric Ortega,Port Lavaca Calhoun,108.41,206.38,108.86,163.29,478.54,Single-ply,SBD,M
Boys,109.77,9,Andy Ochoa,Mathis,100.47,183.7,106.59,183.7,474,Single-ply,SBD,M
Boys,124.74,10,Ben Morgan,Victoria West,110,161.03,111.13,151.95,424.11,Single-ply,SBD,M
Boys,109.77,11,Dylan Kallus,Edna,108.86,151.95,70.31,136.08,358.34,Single-ply,SBD,M
Boys,109.77,DQ,Jordan Kasper-Hines,Three Rivers,109.77,,,,,Single-ply,SBD,M
Boys,109.77,DQ,Abara Torrez,Port Lavaca Calhoun,109.77,206.38,,,,Single-ply,SBD,M
Boys,109.77,DQ,Diego Fonseca,Mathis,104.55,,83.91,147.42,,Single-ply,SBD,M
Boys,124.74,1,Austin Speed,Goliad,117.03,249.48,136.08,215.46,601.01,Single-ply,SBD,M
Boys,124.74,2,Cullin Oliver,Victoria East,119.98,158.76,104.33,149.69,412.77,Single-ply,SBD,M
Boys,124.74,DQ,Justin Brister,Jourdanton,111.13,,,,,Single-ply,SBD,M
Boys,124.74,DQ,Anthony Norman,Edna,124.74,,,,,Single-ply,SBD,M
Boys,124.74,DQ,Logan McMain,Nixon Smiley,114.76,226.8,,,,Single-ply,SBD,M
Boys,124.74,DQ,JohnPaul Lugo,Jourdanton,121.56,185.97,113.4,,,Single-ply,SBD,M
Boys,124.74,DQ,Logan Robinson,Edna,115.21,,124.74,217.72,,Single-ply,SBD,M
Boys,124.74+,1,Bryan Tuschtschula,Port Lavaca Calhoun,134.04,265.35,149.69,215.46,630.49,Single-ply,SBD,M
Boys,124.74+,2,Jeremiah Sodia,Victoria West,132,226.8,127.01,192.78,546.58,Single-ply,SBD,M
Boys,124.74+,3,Bo Pullin,Victoria East,135.17,204.12,129.27,208.65,542.04,Single-ply,SBD,M
Boys,124.74+,4,Arturo Romero,Port Lavaca Calhoun,128.37,217.72,122.47,192.78,532.97,Single-ply,SBD,M
Boys,124.74+,5,Trent Enriquez,Karnes City,127.91,204.12,124.74,195.04,523.9,Single-ply,SBD,M
Boys,124.74+,6,Jose Carreon,San Antonio Brooks Academy,131.54,154.22,102.06,158.76,415.04,Single-ply,SBD,M
Boys,124.74+,7,Pedro Guerra,Runge,129.5,136.08,83.91,181.44,401.43,Single-ply,SBD,M
Boys,124.74+,DQ,Bryan Taschtschla,Port Lavaca Calhoun,125.19,,,,,Single-ply,SBD,M
Boys,124.74+,DQ,Jaeren Smith-Hollins,Refugio,125.19,,,,,Single-ply,SBD,M
Boys,124.74+,DQ,Paul Esparza,San Antonio Brooks Academy,128.82,,,,,Single-ply,SBD,M
Boys,124.74+,DQ,Matt Granz,Victoria East,139.03,163.29,113.4,,,Single-ply,SBD,M
