Division,WeightClassKg,Place,Name,Team,BodyweightKg,Best3SquatKg,Best3BenchKg,Best3DeadliftKg,TotalKg,Equipment,Event,Sex
Boys,51.71,1,Corey Fuller,Shepherd,51.26,72.57,52.16,92.99,217.72,Single-ply,SBD,M
Boys,51.71,2,Josh Courvelle,Shepherd,44.54,68.04,43.09,92.99,204.12,Single-ply,SBD,M
Boys,51.71,3,Trevor Lewing,Livingston,45,68.04,36.29,79.38,183.7,Single-ply,SBD,M
Boys,51.71,DQ,Colton Leggett,Livingston,49.94,,,,,Single-ply,SBD,M
Boys,55.79,1,Victor Lara-Cortez,Corrigan-Camden,54.7,127.01,70.31,124.74,322.05,Single-ply,SBD,M
Boys,55.79,2,Matthew Beaughman,Groveton,54.34,99.79,65.77,102.06,267.62,Single-ply,SBD,M
Boys,55.79,3,Josh Veyssi,Livingston,54.88,61.23,70.31,102.06,233.6,Single-ply,SBD,M
Boys,59.87,1,Trevor Banaszak,Shepherd,59.78,188.24,106.59,190.51,485.34,Single-ply,SBD,M
Boys,59.87,2,Beau Burleson,Woodville,59.24,172.37,108.86,167.83,449.06,Single-ply,SBD,M
Boys,59.87,3,Patrick Parker,Corrigan-Camden,58.15,127.01,72.57,149.69,349.27,Single-ply,SBD,M
Boys,67.13,1,Beto Dejesus,Corrigan-Camden,65.68,174.63,99.79,201.85,476.27,Single-ply,SBD,M
Boys,67.13,2,Thad Whigham,Woodville,61.96,151.95,99.79,181.44,433.18,Single-ply,SBD,M
Boys,67.13,3,Kirby Nielsen,Livingston,67.04,170.1,90.72,140.61,401.43,Single-ply,SBD,M
Boys,67.13,4,Dwayne Colone,Beaumont Ozen,62.41,129.27,88.45,181.44,399.16,Single-ply,SBD,M
Boys,67.13,5,Sammy Bell,Woodville,66.22,142.88,90.72,147.42,381.02,Single-ply,SBD,M
Boys,67.13,6,David Muñoz,Shepherd,66.95,113.4,97.52,170.1,381.02,Single-ply,SBD,M
Boys,67.13,7,J. Johnson,Port Arthur Memorial,66.04,124.74,83.91,149.69,358.34,Single-ply,SBD,M
Boys,67.13,8,Andrew Harvey,Corrigan-Camden,62.69,145.15,63.5,138.35,347,Single-ply,SBD,M
Boys,67.13,9,Cain Kimberlin,Livingston,66.72,113.4,95.25,129.27,337.93,Single-ply,SBD,M
Boys,67.13,10,Aaron Valdez,Huntsville,64.95,104.33,86.18,115.67,306.17,Single-ply,SBD,M
Boys,67.13,DQ,Troy Seal,Groveton,67.13,,,,,Single-ply,SBD,M
Boys,67.13,DQ,Robert Sparks,Corrigan-Camden,63.59,,,,,Single-ply,SBD,M
Boys,67.13,DQ,Terrell Ravelle,Beaumont Ozen,67.13,,,,,Single-ply,SBD,M
Boys,67.13,DQ,J. Lucas,Port Arthur Memorial,64.41,,,,,Single-ply,SBD,M
Boys,74.84,1,Juan Guerrero,Corrigan-Camden,68.4,204.12,115.67,199.58,519.36,Single-ply,SBD,M
Boys,74.84,2,Christian Andrews,Beaumont Ozen,73.75,181.44,127.01,195.04,503.49,Single-ply,SBD,M
Boys,82.1,3,Taylor Rhorer,Woodville,75.02,181.44,99.79,181.44,462.66,Single-ply,SBD,M
Boys,74.84,4,Victor Villareal,Corrigan-Camden,74.84,174.63,97.52,145.15,417.3,Single-ply,SBD,M
Boys,74.84,5,Eric White,Corrigan-Camden,72.03,154.22,88.45,172.37,415.04,Single-ply,SBD,M
Boys,74.84,6,Arthur Maxwell,Shepherd,73.39,151.95,74.84,161.03,387.82,Single-ply,SBD,M
Boys,74.84,7,Ben Martinez,Corrigan-Camden,74.03,138.35,68.04,154.22,360.61,Single-ply,SBD,M
Boys,74.84,8,Trevor Morrison,Corrigan-Camden,71.3,136.08,70.31,136.08,342.46,Single-ply,SBD,M
Boys,74.84,9,Calvin Williams,Groveton,72.57,113.4,79.38,129.27,322.05,Single-ply,SBD,M
Boys,74.84,10,Grant Darvis,Beaumont Ozen,74.39,104.33,65.77,117.93,288.03,Single-ply,SBD,M
Boys,74.84,11,Jimmy Harris,Livingston,73.94,90.72,63.5,113.4,267.62,Single-ply,SBD,M
Boys,74.84,12,Marcel Maier,Huntsville,71.49,95.25,52.16,92.99,240.4,Single-ply,SBD,M
Boys,74.84,DQ,Aaron Hodges,Huntsville,74.57,,,,,Single-ply,SBD,M
Boys,74.84,DQ,Chris Carolan,Huntsville,67.77,,,,,Single-ply,SBD,M
Boys,74.84,DQ,Aaron Lemelle,Beaumont Ozen,74.84,,,,,Single-ply,SBD,M
Boys,74.84,DQ,Justin Courvelle,Shepherd,72.85,,,,,Single-ply,SBD,M
Boys,89.81,1,Quinton Smith,Huntsville,82.28,235.87,124.74,231.33,591.94,Single-ply,SBD,M
Boys,82.1,2,Blayne Elster,Livingston,81.28,213.19,113.4,190.51,517.1,Single-ply,SBD,M
Boys,82.1,3,Devonte Mays,Livingston,80.01,195.04,106.59,185.97,487.61,Single-ply,SBD,M
Boys,82.1,4,Clint Platt,Corrigan-Camden,78.2,185.97,106.59,176.9,469.47,Single-ply,SBD,M
Boys,82.1,5,Keyon Martin,Beaumont Ozen,82.01,183.7,113.4,172.37,469.47,Single-ply,SBD,M
Boys,82.1,6,Jared Hoover,Livingston,81.19,195.04,97.52,163.29,455.86,Single-ply,SBD,M
Boys,82.1,7,Derrick Petty,Corrigan-Camden,76.75,158.76,92.99,199.58,451.32,Single-ply,SBD,M
Boys,82.1,8,Terryance Horrace,Groveton,75.57,136.08,102.06,181.44,419.57,Single-ply,SBD,M
Boys,82.1,9,Eric Lewis,Livingston,80.51,165.56,90.72,154.22,410.5,Single-ply,SBD,M
Boys,82.1,10,Corey Mitchell,Woodville,80.01,145.15,90.72,167.83,403.7,Single-ply,SBD,M
Boys,82.1,11,Cesar Felipe,Corrigan-Camden,81.65,158.76,72.57,163.29,394.63,Single-ply,SBD,M
Boys,82.1,12,Adam Lively,Woodville,81.37,156.49,86.18,147.42,390.09,Single-ply,SBD,M
Boys,82.1,13,Josh Jeffus,Lovelady,81.65,129.27,74.84,138.35,342.46,Single-ply,SBD,M
Boys,82.1,14,Kyle Vance,Corrigan-Camden,79.65,120.2,58.97,136.08,315.25,Single-ply,SBD,M
Boys,82.1,DQ,Charlie Cooper,Corrigan-Camden,79.38,,,,,Single-ply,SBD,M
Boys,82.1,DQ,D. Martin,Port Arthur Memorial,79.83,,,,,Single-ply,SBD,M
Boys,89.81,1,Willie Washington,Groveton,87.18,204.12,158.76,226.8,589.67,Single-ply,SBD,M
Boys,89.81,2,Ryan McClain,Livingston,85.37,183.7,117.93,215.46,517.1,Single-ply,SBD,M
Boys,89.81,3,Anthony Breed,Beaumont Ozen,85.18,172.37,124.74,208.65,505.76,Single-ply,SBD,M
Boys,89.81,4,Tanner Banaszak,Shepherd,87,183.7,120.2,183.7,487.61,Single-ply,SBD,M
Boys,89.81,5,Dalton Ramon,Huntsville,89.45,183.7,111.13,185.97,480.81,Single-ply,SBD,M
Boys,89.81,6,Adrian Lacy,Woodville,87.36,174.63,106.59,158.76,439.98,Single-ply,SBD,M
Boys,89.81,7,Garrett Derouen,Woodville,89.27,154.22,102.06,167.83,424.11,Single-ply,SBD,M
Boys,89.81,8,David Harris,Huntsville,84.82,142.88,77.11,151.95,371.95,Single-ply,SBD,M
Boys,89.81,DQ,John Murphy,Huntsville,85.64,,,,,Single-ply,SBD,M
Boys,89.81,DQ,Jordan Folds,Groveton,89.81,,,,,Single-ply,SBD,M
Boys,89.81,DQ,Khiry Gray,Livingston,88.99,,,,,Single-ply,SBD,M
Boys,89.81,DQ,J Tyler,Port Arthur Memorial,88.36,,,,,Single-ply,SBD,M
Boys,89.81,DQ,T Kennerson,Port Arthur Memorial,83.73,,,,,Single-ply,SBD,M
Boys,99.79,1,Mark Armstrong,Corrigan-Camden,98.7,265.35,154.22,247.21,666.78,Single-ply,SBD,M
Boys,99.79,2,Jacob Courvelle,Shepherd,98.79,215.46,111.13,226.8,553.38,Single-ply,SBD,M
Boys,99.79,3,Austin Galloway,Livingston,96.43,190.51,117.93,195.04,503.49,Single-ply,SBD,M
Boys,99.79,4,James Johnson,Livingston,95.44,147.42,90.72,131.54,369.68,Single-ply,SBD,M
Boys,99.79,DQ,Ricky Francis,Beaumont Ozen,99.79,,,,,Single-ply,SBD,M
Boys,99.79,DQ,Michael Rotger,Huntsville,92.44,,,,,Single-ply,SBD,M
Boys,109.77,1,K Bill,Port Arthur Memorial,102.97,163.29,97.52,170.1,430.91,Single-ply,SBD,M
Boys,109.77,DQ,Adrian Calvin,Groveton,103.69,,,,,Single-ply,SBD,M
Boys,109.77,DQ,S. Brown,Port Arthur Memorial,101.42,,,,,Single-ply,SBD,M
Boys,109.77,DQ,W Thorton,Port Arthur Memorial,100.88,,,,,Single-ply,SBD,M
Boys,124.74,1,Shawn Mitchell,Woodville,111.22,294.84,156.49,233.6,684.92,Single-ply,SBD,M
Boys,124.74,2,Darius Cratic,Corrigan-Camden,118.3,249.48,145.15,183.7,578.33,Single-ply,SBD,M
Boys,124.74,3,Coy Brown,Corrigan-Camden,112.04,197.31,106.59,174.63,478.54,Single-ply,SBD,M
Boys,124.74,DQ,K Sanchez,Port Arthur Memorial,122.92,,,,,Single-ply,SBD,M
Boys,124.74,DQ,J. Reno,Port Arthur Memorial,121.56,,,,,Single-ply,SBD,M
Boys,124.74,DQ,C Griffin,Port Arthur Memorial,116.94,,,,,Single-ply,SBD,M
Boys,124.74,DQ,Colton Placker,Livingston,123.74,,,,,Single-ply,SBD,M
Boys,124.74,DQ,G. Smith,Port Arthur Memorial,120.84,,,,,Single-ply,SBD,M
Boys,124.74,DQ,Taylor Hawthorne,Shepherd,111.86,,,,,Single-ply,SBD,M
Boys,124.74+,1,Kenneth White,Beaumont Ozen,132.81,258.55,170.1,206.38,635.03,Single-ply,SBD,M
Boys,124.74+,2,Rodolfo Nava,Corrigan-Camden,128.73,231.33,124.74,249.48,605.55,Single-ply,SBD,M
Boys,124.74+,3,Zach Kennedy,Corrigan-Camden,127.73,258.55,113.4,188.24,560.19,Single-ply,SBD,M
Boys,124.74+,4,Nashawn Edwards,Beaumont Ozen,161.39,183.7,115.67,222.26,521.63,Single-ply,SBD,M
Boys,124.74+,5,B Dennis,Port Arthur Memorial,133.63,195.04,136.08,183.7,514.83,Single-ply,SBD,M
Boys,124.74+,6,J Ned,Port Arthur Memorial,131.18,165.56,102.06,192.78,460.4,Single-ply,SBD,M
Boys,124.74+,7,Abel Gonzalez,Livingston,138.35,181.44,90.72,158.76,430.91,Single-ply,SBD,M
Boys,124.74+,DQ,M. Hager,Port Arthur Memorial,177.08,,,,,Single-ply,SBD,M
Boys,124.74+,DQ,Trey Walker,Beaumont Ozen,172.64,,,,,Single-ply,SBD,M
