Division,WeightClassKg,Place,Name,Team,BodyweightKg,Best3SquatKg,Best3BenchKg,Best3DeadliftKg,TotalKg,Equipment,Event,Sex
Junior Varsity,51.71,1,Lucas Collins,Jasper,51.26,104.33,52.16,136.08,292.57,Single-ply,SBD,M
Junior Varsity,51.71,2,Dominic Limbrick,Jasper,50.8,90.72,47.63,124.74,263.08,Single-ply,SBD,M
Junior Varsity,55.79,1,Reggie Shaw,Jasper,54.88,95.25,56.7,127.01,278.96,Single-ply,SBD,M
Junior Varsity,55.79,2,Aaron Hernandez,Kirbyville,55.34,52.16,54.43,95.25,201.85,Single-ply,SBD,M
Junior Varsity,59.87,1,Eric Bean,Kirbyville,59.87,81.65,52.16,99.79,233.6,Single-ply,SBD,M
Junior Varsity,67.13,1,Cason Chandler,Jasper,66.22,136.08,92.99,151.95,381.02,Single-ply,SBD,M
Junior Varsity,67.13,2,Jacob Fowler,Newton,62.14,127.01,72.57,163.29,362.87,Single-ply,SBD,M
Junior Varsity,67.13,3,Bryce Garner,Kirbyville,63.96,81.65,49.9,113.4,244.94,Single-ply,SBD,M
Junior Varsity,74.84,1,Kris Drayton,Jasper,73.48,161.03,83.91,204.12,449.06,Single-ply,SBD,M
Junior Varsity,74.84,2,Chandler Spivey,Newton,74.39,111.13,70.31,149.69,331.12,Single-ply,SBD,M
Junior Varsity,74.84,3,Justin St Aubin,Newton,68.49,106.59,72.57,140.61,319.78,Single-ply,SBD,M
Junior Varsity,74.84,4,Jacob Litton,Kirbyville,68.95,115.67,58.97,120.2,294.84,Single-ply,SBD,M
Junior Varsity,74.84,DQ,Jaron Gosey,Jasper,72.12,106.59,63.5,158.76,,Single-ply,SBD,M
Junior Varsity,74.84,DQ,Dylan Williams,Newton,71.67,117.93,,120.2,,Single-ply,SBD,M
Junior Varsity,82.1,1,Bryson Thomas,Newton,77.56,183.7,97.52,206.38,487.61,Single-ply,SBD,M
Junior Varsity,82.1,2,Jarvis Wilson,Jasper,78.47,183.7,97.52,183.7,464.93,Single-ply,SBD,M
Junior Varsity,82.1,3,Jamarion Samuel,Newton,80.29,145.15,79.38,163.29,387.82,Single-ply,SBD,M
Junior Varsity,82.1,DQ,Trenton Cooper,Jasper,81.19,115.67,70.31,147.42,,Single-ply,SBD,M
Junior Varsity,89.81,1,Brashuan Hubbard,Jasper,86.18,183.7,102.06,192.78,478.54,Single-ply,SBD,M
Junior Varsity,89.81,2,Makoyee Franks,Newton,87.09,165.56,92.99,190.51,449.06,Single-ply,SBD,M
Junior Varsity,89.81,3,Lawrence Smith,Jasper,88.45,142.88,92.99,183.7,419.57,Single-ply,SBD,M
Junior Varsity,89.81,4,Ty Clakley,Newton,88,149.69,92.99,151.95,394.63,Single-ply,SBD,M
Junior Varsity,99.79,1,Tra'varian Harris,Jasper,97.07,138.35,88.45,174.63,401.43,Single-ply,SBD,M
Junior Varsity,109.77,1,Edrick Adams,Jasper,105.23,163.29,124.74,179.17,467.2,Single-ply,SBD,M
Junior Varsity,109.77,2,Avante Burnham,Newton,100.7,158.76,111.13,190.51,460.4,Single-ply,SBD,M
Junior Varsity,109.77,3,Richard Bronson,Kirbyville,108.86,120.2,68.04,151.95,340.19,Single-ply,SBD,M
Junior Varsity,109.77,DQ,Hunter Amburn,Newton,100.7,92.99,77.11,154.22,,Single-ply,SBD,M
Junior Varsity,124.74,1,Caiden Walker,Newton,112.49,183.7,92.99,174.63,451.32,Single-ply,SBD,M
Junior Varsity,124.74,2,Jonah Hammaker,Newton,124.74,163.29,106.59,174.63,444.52,Single-ply,SBD,M
Junior Varsity,124.74,DQ,Ja'Kelen Johnson,Jasper,118.39,136.08,92.99,142.88,,Single-ply,SBD,M
Boys,51.71,1,Trevor Greer,Woodville,51.26,124.74,61.23,124.74,310.71,Single-ply,SBD,M
Boys,51.71,2,Keithon Glenn,Jasper,50.8,99.79,63.5,124.74,288.03,Single-ply,SBD,M
Boys,51.71,3,John Davis,Center,50.8,90.72,54.43,83.91,229.06,Single-ply,SBD,M
Boys,55.79,1,Jordan Foxworth,Woodville,55.34,127.01,72.57,131.54,331.12,Single-ply,SBD,M
Boys,55.79,2,Tyler Greer,Woodville,53.98,131.54,61.23,136.08,328.85,Single-ply,SBD,M
Boys,59.87,1,Derek Clark,Buna,59.87,149.69,102.06,165.56,417.3,Single-ply,SBD,M
Boys,59.87,2,Issac Causey,Newton,59.42,142.88,65.77,154.22,362.87,Single-ply,SBD,M
Boys,59.87,3,Payton Samuel,Jasper,57.15,136.08,65.77,145.15,347,Single-ply,SBD,M
Boys,59.87,4,Jordan Lott,Jasper,58.97,113.4,79.38,145.15,337.93,Single-ply,SBD,M
Boys,67.13,1,Luke Collins,Jasper,62.14,165.56,99.79,183.7,449.06,Single-ply,SBD,M
Boys,67.13,2,Tristen Mitchell,Woodville,66.68,156.49,95.25,183.7,435.45,Single-ply,SBD,M
Boys,67.13,3,Seth Craft,Newton,67.13,158.76,83.91,158.76,401.43,Single-ply,SBD,M
Boys,67.13,4,Mark Tucker,Woodville,62.14,117.93,65.77,154.22,337.93,Single-ply,SBD,M
Boys,67.13,5,Triton Manous,Hemphill,62.6,113.4,65.77,145.15,324.32,Single-ply,SBD,M
Boys,67.13,6,Jacarveious Horton,Center,65.32,83.91,56.7,104.33,244.94,Single-ply,SBD,M
Boys,74.84,1,Jerkarion Simmons,Jasper,71.67,231.33,140.61,272.16,644.1,Single-ply,SBD,M
Boys,74.84,2,Kristian Paulette,Newton,71.67,190.51,115.67,183.7,489.88,Single-ply,SBD,M
Boys,74.84,3,Jared Hatcher,Buna,73.03,172.37,108.86,181.44,462.66,Single-ply,SBD,M
Boys,74.84,4,Jake Rueffer,Hemphill,70.76,176.9,97.52,172.37,446.79,Single-ply,SBD,M
Boys,74.84,5,Christian Lee,Center,71.67,165.56,99.79,167.83,433.18,Single-ply,SBD,M
Boys,74.84,6,Anthony Horton,Center,69.85,117.93,83.91,136.08,337.93,Single-ply,SBD,M
Boys,74.84,7,Christian Burns,Hemphill,71.67,142.88,65.77,122.47,331.12,Single-ply,SBD,M
Boys,74.84,8,Brandon Pope,Kirbyville,71.21,108.86,65.77,151.95,326.59,Single-ply,SBD,M
Boys,74.84,9,Triston Wagner,Hemphill,73.48,106.59,65.77,122.47,294.84,Single-ply,SBD,M
Boys,74.84,10,Jl Griffin,Joaquin,72.57,106.59,54.43,106.59,267.62,Single-ply,SBD,M
Boys,82.1,1,JaCarlos Hall,Center,77.11,233.6,136.08,219.99,589.67,Single-ply,SBD,M
Boys,82.1,2,Dylan Denby,Center,77.56,208.65,108.86,167.83,485.34,Single-ply,SBD,M
Boys,82.1,3,Chance Harding,Buna,78.47,185.97,92.99,181.44,460.4,Single-ply,SBD,M
Boys,82.1,4,Ian Shahan,Joaquin,81.65,183.7,102.06,174.63,460.4,Single-ply,SBD,M
Boys,82.1,5,Jadarian McGraw,Newton,81.19,154.22,115.67,188.24,458.13,Single-ply,SBD,M
Boys,82.1,6,Hunter Holt,Joaquin,80.74,183.7,102.06,156.49,442.25,Single-ply,SBD,M
Boys,82.1,7,Cameron Kittman,Hemphill,78.02,156.49,106.59,170.1,433.18,Single-ply,SBD,M
Boys,82.1,8,Dre Walters,Joaquin,80.29,151.95,106.59,138.35,396.89,Single-ply,SBD,M
Boys,82.1,9,Holden Lott,Woodville,80.74,133.81,63.5,142.88,340.19,Single-ply,SBD,M
Boys,82.1,DQ,Juvenile Lee,Jasper,81.19,158.76,131.54,,,Single-ply,SBD,M
Boys,89.81,1,Witt Dockens,Center,85.73,249.48,142.88,222.26,614.62,Single-ply,SBD,M
Boys,89.81,2,DeCorrian Holmes,Jasper,88.9,229.06,131.54,249.48,610.08,Single-ply,SBD,M
Boys,89.81,3,Ethan Shaeffer,Buna,88.9,217.72,120.2,217.72,555.65,Single-ply,SBD,M
Boys,89.81,4,Darwin Barlow,Newton,85.73,192.78,120.2,229.06,542.04,Single-ply,SBD,M
Boys,89.81,5,Deviun Kenebrew,Newton,86.64,190.51,111.13,235.87,537.51,Single-ply,SBD,M
Boys,99.79,1,Marcus Fabela,Buna,92.99,215.46,124.74,215.46,555.65,Single-ply,SBD,M
Boys,99.79,2,William Steel,Newton,99.34,190.51,117.93,217.72,526.17,Single-ply,SBD,M
Boys,99.79,3,Drew Poncho,Woodville,99.34,183.7,99.79,183.7,467.2,Single-ply,SBD,M
Boys,109.77,1,Evander Williams,Newton,107.5,265.35,138.35,242.67,646.37,Single-ply,SBD,M
Boys,109.77,2,Chandler DeLeon,Hemphill,108.86,229.06,136.08,217.72,582.87,Single-ply,SBD,M
Boys,109.77,3,Antwaine Hunter,Newton,101.6,233.6,140.61,206.38,580.6,Single-ply,SBD,M
Boys,109.77,4,Patrick Davis,Newton,104.78,229.06,124.74,197.31,551.11,Single-ply,SBD,M
Boys,109.77,5,Keivionte Rollins,Jasper,107.05,208.65,117.93,206.38,532.97,Single-ply,SBD,M
Boys,109.77,6,Glenn Bingham,Buna,102.51,197.31,127.01,176.9,501.22,Single-ply,SBD,M
Boys,109.77,7,Wade Walsh,Woodville,106.14,147.42,102.06,151.95,401.43,Single-ply,SBD,M
Boys,124.74,1,Trajan Williams,Jasper,113.4,219.99,142.88,272.16,635.03,Single-ply,SBD,M
Boys,124.74,2,Nick Kirbo,Hemphill,111.13,219.99,151.95,183.7,555.65,Single-ply,SBD,M
Boys,124.74,3,Darren Lowe,Hemphill,113.4,183.7,115.67,185.97,485.34,Single-ply,SBD,M
Boys,124.74,4,Robert Stout,Buna,116.57,179.17,106.59,183.7,469.47,Single-ply,SBD,M
Boys,124.74,5,Reese McGraw,Hemphill,116.57,183.7,106.59,179.17,469.47,Single-ply,SBD,M
Boys,124.74,6,Cade Grey,Woodville,123.83,165.56,102.06,181.44,449.06,Single-ply,SBD,M
Boys,124.74,7,Dylan Reeves,Kirbyville,115.67,163.29,81.65,165.56,410.5,Single-ply,SBD,M
Boys,124.74+,1,Richard Bennett,Hemphill,140.16,249.48,142.88,226.8,619.15,Single-ply,SBD,M
Boys,124.74+,2,Ryan Jones,Jasper,146.96,226.8,138.35,226.8,591.94,Single-ply,SBD,M
Boys,124.74+,3,Yavin Shankle,Newton,136.53,226.8,127.01,219.99,573.79,Single-ply,SBD,M
Boys,124.74+,4,Seth Fabela,Woodville,136.98,206.38,120.2,197.31,523.9,Single-ply,SBD,M
Boys,124.74+,5,Robert Turpin,Woodville,137.44,210.92,115.67,181.44,508.02,Single-ply,SBD,M
