Place,Name,Sex,Event,Division,WeightClassKg,Equipment,BirthYear,State,BodyweightKg,Squat1Kg,Squat2Kg,Squat3Kg,Best3SquatKg,Bench1Kg,Bench2Kg,Bench3Kg,Best3BenchKg,Deadlift1Kg,Deadlift2Kg,Deadlift3Kg,Best3DeadliftKg,TotalKg
1,Emily Delgado,F,SBD,FR-Jr,52,Raw,1996,FL,51.2,95,100,-105,100,47.5,-52.5,-52.5,47.5,95,100,102.5,102.5,250
1,Abigail Del Fierro,F,SBD,FR-Jr,57,Raw,1994,NJ,52.2,97.5,102.5,110,110,62.5,-65,-65,62.5,102.5,110,117.5,117.5,290
1,Deshindri Natalia,F,SBD,FR-Jr,72,Raw,1994,PA,64.2,107.5,115,122.5,122.5,45,50,-55,50,130,137.5,142.5,142.5,315
1,Leah Goldring,F,SBD,FR-O,52,Raw,1983,PA,50.9,97.5,-105,105,105,60,65,67.5,67.5,132.5,140,147.5,147.5,320
DQ,Anna Weiss,F,SBD,FR-O,52,Raw,1989,PA,50.7,-72.5,-72.5,-75,,37.5,-40,-42.5,37.5,-82.5,82.5,87.5,87.5,
1,Drew Bedor,F,SBD,FR-O,57,Raw,1986,PA,56.5,-100,105,110,110,55,60,-62.5,60,105,112.5,122.5,122.5,292.5
2,Abigail Del Fierro,F,SBD,FR-O,57,Raw,1994,NJ,52.2,97.5,102.5,110,110,62.5,-65,-65,62.5,102.5,110,117.5,117.5,290
3,Jenna Fryer,F,SBD,FR-O,57,Raw,1989,NJ,56.1,82.5,92.5,95,95,-52.5,52.5,55,55,97.5,110,115,115,265
4,Savuol Ngo,F,SBD,FR-O,57,Raw,1984,PA,55.7,90,-97.5,-102.5,90,45,-50,-50,45,90,95,100,100,235
1,Veronica McNelis,F,SBD,FR-O,63,Raw,1990,PA,60.7,102.5,107.5,112.5,112.5,57.5,60,-62.5,60,137.5,145,150,150,322.5
2,Heather Collins,F,SBD,FR-O,63,Raw,1982,MD,57.4,100,107.5,-112.5,107.5,55,60,62.5,62.5,105,112.5,-120,112.5,282.5
3,Larissa Pluta,F,SBD,FR-O,63,Raw,1979,PA,62.9,102.5,-112.5,-112.5,102.5,55,60,-62.5,60,107.5,115,117.5,117.5,280
4,Brittany Bardo,F,SBD,FR-O,63,Raw,1992,PA,62.1,85,92.5,100,100,47.5,52.5,55,55,105,115,120,120,275
5,Leah Pandiscia,F,SBD,FR-O,63,Raw,1987,PA,60.2,92.5,-97.5,97.5,97.5,50,-55,-55,50,102.5,107.5,112.5,112.5,260
6,Amanda Buzby,F,SBD,FR-O,63,Raw,1981,PA,62.2,80,92.5,-100,92.5,55,60,-62.5,60,92.5,100,107.5,107.5,260
1,Erin Decker,F,SBD,FR-O,72,Raw,1992,PA,70.4,127.5,132.5,137.5,137.5,52.5,55,-57.5,55,130,135,140,140,332.5
1,Tiffani Bacon,F,SBD,FR-O,84,Raw,1984,MD,73.7,92.5,115,-137.5,115,45,60,-70,60,115,130,140,140,315
2,Chelsea Cronin,F,SBD,FR-O,84,Raw,1990,NJ,76.1,105,110,115,115,55,-60,-60,55,120,127.5,137.5,137.5,307.5
3,Nina Gutierrez,F,SBD,FR-O,84,Raw,1993,NJ,73.6,102.5,105,112.5,112.5,47.5,50,-55,50,110,120,127.5,127.5,290
4,Samantha Silberstein,F,SBD,FR-O,84,Raw,1993,PA,83,92.5,97.5,105,105,62.5,65,-70,65,107.5,115,120,120,290
1,Ebony Jones,F,SBD,FR-O,84+,Raw,1989,MD,108.8,145,165,182.5,182.5,65,82.5,-92.5,82.5,155,182.5,190,190,455
1,Giselle Repuyan,F,SBD,FR-T3,57,Raw,1999,NJ,55.8,77.5,82.5,85,85,-40,40,42.5,42.5,100,107.5,115,115,242.5
1,Victoria Smith,F,SBD,FR-T3,72,Raw,1999,NJ,67.9,-105,105,-112.5,105,47.5,-50,50,50,102.5,110,-115,110,265
1,Alexander Kang,M,SBD,M-O,66,Single-ply,1984,MD,65.8,245,260,,260,25,137.5,-140,137.5,225,245,-250,245,642.5
1,Dong Yun,M,SBD,MR-Jr,74,Raw,1996,NJ,73.2,182.5,190,197.5,197.5,120,125,-132.5,125,197.5,207.5,-217.5,207.5,530
2,Carl Dominick Garcia,M,SBD,MR-Jr,74,Raw,1995,NJ,73.6,170,180,195,195,-112.5,112.5,-117.5,112.5,200,207.5,-210,207.5,515
1,Kevin Hayes,M,SBD,MR-Jr,93,Raw,1996,NJ,91.2,207.5,220,232.5,232.5,162.5,-175,-175,162.5,250,260,265,265,660
2,Sergio Delgado,M,SBD,MR-Jr,93,Raw,1994,FL,88.1,175,182.5,-187.5,182.5,125,132.5,137.5,137.5,225,-232.5,232.5,232.5,552.5
3,Alexander Vargas,M,SBD,MR-Jr,93,Raw,1994,NJ,91.1,147.5,152.5,157.5,157.5,107.5,112.5,-120,112.5,165,170,175,175,445
1,Galvin Repuyan,M,SBD,MR-Jr,105,Raw,1997,NJ,100.5,205,-217.5,-220,205,130,137.5,145,145,217.5,230,242.5,242.5,592.5
2,Seth Hamilton,M,SBD,MR-Jr,105,Raw,1994,PA,101.5,165,-172.5,172.5,172.5,-125,125,-137.5,125,190,200,-210,200,497.5
1,Robert Scanlan,M,SBD,MR-M1,83,Raw,1973,NJ,82,107.5,112.5,117.5,117.5,70,75,80,80,140,147.5,155,155,352.5
1,Mitch Stoller,M,SBD,MR-M3,93,Raw,1953,NJ,86.8,65,-72.5,85,85,70,87.5,-100,87.5,130,140,145,145,317.5
1,Peter Li,M,SBD,MR-O,74,Raw,1993,PA,71.4,207.5,220,227.5,227.5,132.5,140,147.5,147.5,227.5,245,255,255,630
2,Dong Yun,M,SBD,MR-O,74,Raw,1996,NJ,73.2,182.5,190,197.5,197.5,120,125,-132.5,125,197.5,207.5,-217.5,207.5,530
3,Charles Kopf,M,SBD,MR-O,74,Raw,1991,DE,74,142.5,152.5,160,160,92.5,100,102.5,102.5,180,192.5,200,200,462.5
4,Nate Rieder,M,SBD,MR-O,74,Raw,1988,PA,73.1,125,135,-140,135,90,95,100,100,175,185,192.5,192.5,427.5
5,Muhammad Saad,M,SBD,MR-O,74,Raw,1989,PA,69.1,110,117.5,122.5,122.5,75,82.5,87.5,87.5,130,137.5,145,145,355
1,Connor Borkert,M,SBD,MR-O,83,Raw,1997,PA,82.4,247.5,260,-262.5,260,170,172.5,175,175,255,267.5,277.5,277.5,712.5
2,Kevin Giron,M,SBD,MR-O,83,Raw,1991,NJ,82.6,185,195,200,200,130,132.5,137.5,137.5,240,255,262.5,262.5,600
3,Gerald Repuyan,M,SBD,MR-O,83,Raw,1993,NJ,81.7,207.5,-222.5,-222.5,207.5,125,132.5,-137.5,132.5,225,242.5,-255,242.5,582.5
4,Jason Landsverk,M,SBD,MR-O,83,Raw,1988,MD,77.4,160,165,172.5,172.5,120,125,-135,125,180,187.5,200,200,497.5
5,Karl Leinheiser,M,SBD,MR-O,83,Raw,1993,NJ,78.4,-130,130,137.5,137.5,115,117.5,-125,117.5,160,165,177.5,177.5,432.5
6,Robert Scanlan,M,SBD,MR-O,83,Raw,1973,NJ,82,107.5,112.5,117.5,117.5,70,75,80,80,140,147.5,155,155,352.5
1,Thomas Colabella,M,SBD,MR-O,93,Raw,1987,NJ,84.9,-190,190,210,210,130,-137.5,137.5,137.5,235,242.5,247.5,247.5,595
2,Michael Campanese,M,SBD,MR-O,93,Raw,1982,PA,92.5,182.5,195,-200,195,125,-137.5,-137.5,125,220,230,232.5,232.5,552.5
3,Nicholas Grant,M,SBD,MR-O,93,Raw,1994,NY,85.5,155,170,177.5,177.5,132.5,140,147.5,147.5,125,162.5,-177.5,162.5,487.5
4,Nicholas Pasquariello,M,SBD,MR-O,93,Raw,1983,PA,90.5,-147.5,-155,155,155,100,105,-110,105,195,205,212.5,212.5,472.5
5,Alexander Vargas,M,SBD,MR-O,93,Raw,1994,NJ,91.1,147.5,152.5,157.5,157.5,107.5,112.5,-120,112.5,165,170,175,175,445
1,Jeffrey Ocampo,M,SBD,MR-O,105,Raw,1990,PA,103.2,215,-230,230,230,140,150,-155,150,272.5,285,305,305,685
2,John Shiner,M,SBD,MR-O,105,Raw,1986,PA,102.4,135,-147.5,147.5,147.5,65,75,-85,75,155,165,175,175,397.5
1,Mark Fisher,M,SBD,MR-O,120,Raw,1979,PA,115.6,220,227.5,-232.5,227.5,155,167.5,-172.5,167.5,252.5,257.5,-262.5,257.5,652.5
2,Ian Peek,M,SBD,MR-O,120,Raw,1980,NJ,116.4,192.5,205,215,215,145,152.5,160,160,265,-280,-280,265,640
3,Tim Huke,M,SBD,MR-O,120,Raw,1978,PA,108.7,182.5,192.5,195,195,-125,125,-127.5,125,205,215,-227.5,215,535
1,John Haughney,M,SBD,MR-O,120+,Raw,1986,PA,127.6,277.5,292.5,305,305,180,192.5,200,200,317.5,332.5,342.5,342.5,847.5
2,Bhisham Sharma,M,SBD,MR-O,120+,Raw,1983,PA,136,150,157.5,165,165,85,90,95,95,195,205,-207.5,205,465
DQ,Ryan Sotnick,M,SBD,MR-T3,74,Raw,1998,MD,72.2,-180,180,-192.5,180,-95,-95,-95,,207.5,225,-227.5,225,
1,Austin Rusnak,M,SBD,MR-T3,83,Raw,1999,NJ,81.4,135,140,142.5,142.5,82.5,87.5,90,90,165,175,185,185,417.5
