Division,WeightClassKg,Place,Name,Team,BodyweightKg,Best3SquatKg,Best3BenchKg,Best3DeadliftKg,TotalKg,Equipment,Event,Sex
Boys,55.79,1,Alberto Gonzalez,Centerville,55.16,142.88,61.23,154.22,358.34,Single-ply,SBD,M
Boys,55.79,2,Michael Hill,Normangee,54.98,122.47,74.84,136.08,333.39,Single-ply,SBD,M
Boys,55.79,DQ,Hunter Dudley,Normangee,54.98,122.47,65.77,113.4,,Single-ply,SBD,M
Boys,59.87,1,Bobby Sanchez,Centerville,57.79,136.08,79.38,145.15,360.61,Single-ply,SBD,M
Boys,59.87,2,Pate Leathers,Centerville,59.87,124.74,61.23,147.42,333.39,Single-ply,SBD,M
Boys,59.87,3,Justin Smith,Franklin,57.79,113.4,70.31,145.15,328.85,Single-ply,SBD,M
Boys,59.87,4,Daniel Villareal,Centerville,57.52,104.33,58.97,90.72,254.01,Single-ply,SBD,M
Boys,67.13,1,Harris Sherrod,Jewett Leon,62.14,165.56,81.65,183.7,430.91,Single-ply,SBD,M
Boys,67.13,2,Tyler Evans,Franklin,65.77,151.95,81.65,142.88,376.48,Single-ply,SBD,M
Boys,67.13,3,Cristian Zarate,Centerville,66.95,122.47,83.91,142.88,349.27,Single-ply,SBD,M
Boys,67.13,4,Nick Hrncir,Franklin,63.59,120.2,70.31,129.27,319.78,Single-ply,SBD,M
Boys,67.13,5,Tristian Ross,Normangee,60.06,124.74,63.5,124.74,312.98,Single-ply,SBD,M
Boys,67.13,6,Caiden Boss,Centerville,65.41,83.91,77.11,111.13,272.16,Single-ply,SBD,M
Boys,74.84,1,Sergio Villareal,Centerville,73.57,217.72,113.4,219.99,551.11,Single-ply,SBD,M
Boys,74.84,2,Jeremy Flake,Jewett Leon,71.67,154.22,99.79,172.37,426.38,Single-ply,SBD,M
Boys,74.84,3,Roland Davis,Centerville,68.67,142.88,92.99,179.17,415.04,Single-ply,SBD,M
Boys,74.84,4,Justin Bowen,Centerville,74.03,151.95,83.91,142.88,378.75,Single-ply,SBD,M
Boys,74.84,5,Nathan McCoslin,Jewett Leon,70.76,145.15,79.38,145.15,369.68,Single-ply,SBD,M
Boys,74.84,6,Joe Squires,Franklin,72.94,136.08,83.91,133.81,353.8,Single-ply,SBD,M
Boys,82.1,1,Jason Smith,Jewett Leon,80.74,161.03,79.38,172.37,412.77,Single-ply,SBD,M
Boys,82.1,2,Cameron Aldridge,Jewett Leon,78.2,145.15,77.11,158.76,381.02,Single-ply,SBD,M
Boys,82.1,3,Ashton Ferguson,Franklin,80.74,136.08,83.91,156.49,376.48,Single-ply,SBD,M
Boys,82.1,4,Curtis Stanford,Jewett Leon,78.02,124.74,95.25,147.42,367.41,Single-ply,SBD,M
Boys,82.1,5,Joseph Vega,Franklin,81.83,140.61,81.65,142.88,365.14,Single-ply,SBD,M
Boys,82.1,6,Asher Ward,Franklin,76.84,124.74,81.65,145.15,351.53,Single-ply,SBD,M
Boys,82.1,7,Logan Kolanek,Franklin,78.83,120.2,77.11,129.27,326.59,Single-ply,SBD,M
Boys,89.81,1,Walter Beltran,Jewett Leon,83.28,181.44,97.52,172.37,451.32,Single-ply,SBD,M
Boys,89.81,2,Bryson Crowley,Centerville,83.82,151.95,90.72,183.7,426.38,Single-ply,SBD,M
Boys,89.81,3,Keegan Wilson,Franklin,83.91,140.61,74.84,136.08,351.53,Single-ply,SBD,M
Boys,99.79,1,Nick Ucci,Jewett Leon,92.99,165.56,95.25,174.63,435.45,Single-ply,SBD,M
Boys,99.79,2,Aron Orndorff,Jewett Leon,99.79,142.88,81.65,174.63,399.16,Single-ply,SBD,M
Boys,109.77,1,Cody Tilson,Franklin,107.14,149.69,72.57,145.15,367.41,Single-ply,SBD,M
Boys,109.77,DQ,Donnie Alexander,Jewett Leon,101.7,,,,,Single-ply,SBD,M
Boys,124.74,1,Korey Grisham,Centerville,113.49,249.48,124.74,226.8,601.01,Single-ply,SBD,M
