Division,WeightClassKg,Place,Name,Team,BodyweightKg,Best3SquatKg,Best3BenchKg,Best3DeadliftKg,TotalKg,Equipment,Event,Sex
Boys,51.71,1,Brian Villarreal,Geronimo Navarro,48.08,86.18,58.97,120.2,265.35,Single-ply,SBD,M
Boys,55.79,1,Oscar Sanchez,Seguin,55.25,158.76,88.45,183.7,430.91,Single-ply,SBD,M
Boys,55.79,2,Alex Mata,Lockhart,54.79,88.45,52.16,127.01,267.62,Single-ply,SBD,M
Boys,55.79,3,Austin Schlemper,Universal City Randolph,52.8,102.06,47.63,113.4,263.08,Single-ply,SBD,M
Boys,59.87,1,Rigo Franco,Poth,58.88,124.74,95.25,138.35,358.34,Single-ply,SBD,M
Boys,59.87,2,Thomas Rodriguez,Poth,59.33,129.27,92.99,129.27,351.53,Single-ply,SBD,M
Boys,59.87,3,Sam Muniz,San Marcos,59.51,106.59,72.57,149.69,328.85,Single-ply,SBD,M
Boys,59.87,4,Leo Calderon,San Marcos,58.24,106.59,83.91,111.13,301.64,Single-ply,SBD,M
Boys,59.87,DQ,Jacob Esquivel,Seguin,59.15,,,,,Single-ply,SBD,M
Boys,67.13,DQ,Hunter Berry,Sealy,60.1,,,,,Single-ply,SBD,M
Boys,67.13,DQ,Kerry Von Schrader,Sealy,60.1,,,,,Single-ply,SBD,M
Boys,67.13,1,Zach Trujillo,Universal City Randolph,64.77,165.56,97.52,170.1,433.18,Single-ply,SBD,M
Boys,67.13,2,Alan Johns,Poth,66.41,167.83,120.2,129.27,417.3,Single-ply,SBD,M
Boys,67.13,3,Brian Lopez,Geronimo Navarro,66.22,147.42,104.33,147.42,399.16,Single-ply,SBD,M
Boys,67.13,4,David Montealvo,Seguin,63.14,129.27,79.38,158.76,367.41,Single-ply,SBD,M
Boys,67.13,5,Ryan Clark,Universal City Randolph,66.04,115.67,70.31,120.2,306.17,Single-ply,SBD,M
Boys,67.13,6,Alex Gill,Universal City Randolph,66.22,97.52,65.77,113.4,276.69,Single-ply,SBD,M
Boys,67.13,DQ,Josh Oldag,Sealy,61.78,158.76,,,,Single-ply,SBD,M
Boys,67.13,DQ,BJ Alvarado,Sealy,62.05,52.16,,,,Single-ply,SBD,M
Boys,67.13,DQ,Yeri Hykel,Buda Hays,63.5,,,,,Single-ply,SBD,M
Boys,67.13,DQ,Jace Williams,Buda Hays,63.5,106.59,,,,Single-ply,SBD,M
Boys,67.13,DQ,Austin Rodriguez,Buda Hays,65.59,,,,,Single-ply,SBD,M
Boys,67.13,DQ,James Meyer,Poth,64.23,,,,,Single-ply,SBD,M
Boys,67.13,DQ,Hugo Perez,Lockhart,65.59,120.2,,,,Single-ply,SBD,M
Boys,74.84,1,Jamison Smolka,Poth,74.21,190.51,131.54,183.7,505.76,Single-ply,SBD,M
Boys,74.84,2,Justin Villegas,Seguin,70.58,142.88,117.93,170.1,430.91,Single-ply,SBD,M
Boys,74.84,3,Ever Calderon,Buda Hays,70.85,151.95,102.06,174.63,428.64,Single-ply,SBD,M
Boys,74.84,4,Manny Salazar,San Marcos,71.94,158.76,92.99,176.9,428.64,Single-ply,SBD,M
Boys,74.84,5,Miguel Rivera,Universal City Randolph,70.13,142.88,97.52,179.17,419.57,Single-ply,SBD,M
Boys,74.84,6,Hunter Jansky,Poth,72.03,142.88,97.52,149.69,390.09,Single-ply,SBD,M
Boys,74.84,7,Hunter Luscombe,Sealy,70.31,145.15,81.65,156.49,383.29,Single-ply,SBD,M
Boys,82.1,8,Brock Gonzales,Universal City Randolph,75.07,111.13,81.65,151.95,344.73,Single-ply,SBD,M
Boys,74.84,9,Will Schaub,Poth,71.94,124.74,88.45,127.01,340.19,Single-ply,SBD,M
Boys,74.84,10,Will Serna,Poth,69.49,131.54,86.18,117.93,335.66,Single-ply,SBD,M
Boys,74.84,11,Luke Jackson,Buda Hays,71.76,99.79,77.11,117.93,294.84,Single-ply,SBD,M
Boys,74.84,DQ,Joel Hinojosa,Seguin,73.94,131.54,,,,Single-ply,SBD,M
Boys,82.1,1,Jacob Palmares,Buda Hays,81.47,195.04,111.13,204.12,510.29,Single-ply,SBD,M
Boys,82.1,2,Jay Leal,Geronimo Navarro,78.02,174.63,97.52,204.12,476.27,Single-ply,SBD,M
Boys,82.1,2,Joel Juarez,Lockhart,81.65,163.29,102.06,179.17,444.52,Single-ply,SBD,M
Boys,82.1,3,Shawn Schmidt,Geronimo Navarro,81.65,149.69,97.52,154.22,401.43,Single-ply,SBD,M
Boys,82.1,4,Jared Leal,Geronimo Navarro,79.83,156.49,88.45,154.22,399.16,Single-ply,SBD,M
Boys,82.1,5,Marcos Johnson,Lockhart,81.69,154.22,102.06,161.03,417.3,Single-ply,SBD,M
Boys,82.1,5,Kyle Jiral,Poth,75.11,145.15,90.72,154.22,390.09,Single-ply,SBD,M
Boys,82.1,6,Gunner Brown,Lockhart,76.57,124.74,92.99,165.56,383.29,Single-ply,SBD,M
Boys,82.1,7,Clayton Jaskinia,Poth,77.29,145.15,97.52,127.01,369.68,Single-ply,SBD,M
Boys,82.1,8,Will Hartwick,Lockhart,75.84,124.74,83.91,151.95,360.61,Single-ply,SBD,M
Boys,82.1,9,Terri Ward,Sealy,81.01,106.59,83.91,161.03,351.53,Single-ply,SBD,M
Boys,82.1,10,Matt Gomez,Geronimo Navarro,82.1,124.74,81.65,140.61,347,Single-ply,SBD,M
Boys,82.1,11,Victor Martinez,San Marcos,80.65,113.4,79.38,136.08,328.85,Single-ply,SBD,M
Boys,82.1,DQ,Angel Cruz,Lockhart,78.56,136.08,,,,Single-ply,SBD,M
Boys,82.1,DQ,Kyle Miller,Lockhart,75.66,136.08,,,,Single-ply,SBD,M
Boys,89.81,1,Justin Hatfield,Geronimo Navarro,87.09,183.7,113.4,183.7,480.81,Single-ply,SBD,M
Boys,89.81,3,Cole Brust,Universal City Randolph,84.28,151.95,108.86,183.7,444.52,Single-ply,SBD,M
Boys,89.81,4,Steven Cardenas,Seguin,87.54,165.56,111.13,142.88,419.57,Single-ply,SBD,M
Boys,89.81,6,Noe Gomez,Geronimo Navarro,89.36,138.35,95.25,131.54,365.14,Single-ply,SBD,M
Boys,89.81,7,Jonis Nava,San Marcos,87.54,142.88,68.04,151.95,362.87,Single-ply,SBD,M
Boys,89.81,8,Daryl Ontiveros,San Marcos,86.45,124.74,88.45,147.42,360.61,Single-ply,SBD,M
Boys,89.81,9,Caleb Ceaser,Universal City Randolph,83.64,106.59,68.04,102.06,276.69,Single-ply,SBD,M
Boys,89.81,10,Matt Swanson,Universal City Randolph,84.28,97.52,56.7,102.06,256.28,Single-ply,SBD,M
Boys,89.81,DQ,Tyler Carlson,Sealy,86.27,124.74,,,,Single-ply,SBD,M
Boys,99.79,1,Elias Villalobos,San Marcos,96.62,206.38,117.93,242.67,566.99,Single-ply,SBD,M
Boys,99.79,2,Conner Roe,Geronimo Navarro,99.34,210.92,142.88,213.19,566.99,Single-ply,SBD,M
Boys,99.79,3,Bryan London,Universal City Randolph,92.08,204.12,113.4,219.99,537.51,Single-ply,SBD,M
Boys,99.79,4,Ryan Farrell,Universal City Randolph,91.08,190.51,133.81,204.12,528.44,Single-ply,SBD,M
Boys,99.79,5,Nick Hykel,Buda Hays,97.52,161.03,145.15,192.78,498.95,Single-ply,SBD,M
Boys,99.79,6,Justin Torres,Lockhart,91.44,183.7,102.06,183.7,469.47,Single-ply,SBD,M
Boys,99.79,7,Freddy Larry,Universal City Randolph,94.53,183.7,102.06,183.7,469.47,Single-ply,SBD,M
Boys,99.79,8,Marshall Crabb,Geronimo Navarro,98.43,122.47,86.18,142.88,351.53,Single-ply,SBD,M
Boys,99.79,DQ,Colby Ardrey,Buda Hays,95.07,161.03,120.2,,,Single-ply,SBD,M
Boys,99.79,DQ,Adam Gordon,Sealy,91.63,,,,,Single-ply,SBD,M
Boys,99.79,DQ,Jalen Rodriguez,Seguin,94.62,188.24,,136.08,,Single-ply,SBD,M
Boys,99.79,DQ,Khalid Schuler,Seguin,99.7,226.8,,183.7,,Single-ply,SBD,M
Boys,99.79,DQ,D'Angelo Sutton,Seguin,94.26,142.88,,,,Single-ply,SBD,M
Boys,109.77,1,Kolby Janek,Poth,104.14,231.33,154.22,208.65,594.21,Single-ply,SBD,M
Boys,109.77,2,Lane Springs,Geronimo Navarro,100.7,204.12,120.2,181.44,505.76,Single-ply,SBD,M
Boys,109.77,3,Cameron Dittert,Sealy,101.06,192.78,111.13,174.63,478.54,Single-ply,SBD,M
Boys,124.74,1,Jesse Benevides Munoz,San Marcos,124.47,242.67,149.69,244.94,637.3,Single-ply,SBD,M
Boys,124.74,2,D'Antre Smith,Seguin,124.47,226.8,149.69,195.04,571.53,Single-ply,SBD,M
Boys,124.74,3,Kurt Bollinger,Sealy,111.95,224.53,136.08,188.24,548.85,Single-ply,SBD,M
Boys,124.74,4,Jeremy Rodriguez,Geronimo Navarro,112.49,213.19,147.42,174.63,535.24,Single-ply,SBD,M
Boys,124.74,5,Cesar Romero,Universal City Randolph,115.76,151.95,102.06,206.38,460.4,Single-ply,SBD,M
Boys,124.74,6,Josh Urrutia,San Marcos,122.02,163.29,102.06,185.97,451.32,Single-ply,SBD,M
Boys,124.74,7,Seth Seale,Buda Hays,113.4,136.08,129.27,147.42,412.77,Single-ply,SBD,M
Boys,124.74,8,AJ Bosquez,San Marcos,121.02,120.2,74.84,140.61,335.66,Single-ply,SBD,M
