Division,WeightClassKg,Place,Name,Team,BodyweightKg,Best3SquatKg,Best3BenchKg,Best3DeadliftKg,TotalKg,Equipment,Event,Sex
Boys,51.71,1,Cody Dauenhaur,Springtown,51.71,102.06,43.09,113.4,258.55,Single-ply,SBD,M
Boys,51.71,DQ,Javier Reynoso,Springtown,51.71,,,,,Single-ply,SBD,M
Boys,55.79,1,Jard Walker,Springtown,55.79,131.54,63.5,136.08,331.12,Single-ply,SBD,M
Boys,55.79,2,Chase Lynn,Springtown,55.79,120.2,68.04,142.88,331.12,Single-ply,SBD,M
Boys,55.79,3,Michael Lira,Fort Worth Boswell,55.79,120.2,70.31,136.08,326.59,Single-ply,SBD,M
Boys,55.79,4,Colton Gaston,Aledo,55.34,88.45,61.23,124.74,274.42,Single-ply,SBD,M
Boys,59.87,1,Buddy Harrell,Springtown,59.87,147.42,88.45,147.42,383.29,Single-ply,SBD,M
Boys,59.87,2,Colton Nabors,Springtown,59.87,117.93,77.11,154.22,349.27,Single-ply,SBD,M
Boys,59.87,3,Dallas Delmere,Fort Worth Boswell,59.87,136.08,70.31,136.08,342.46,Single-ply,SBD,M
Boys,59.87,4,Eugene Johnson,Fort Worth Boswell,59.87,115.67,88.45,129.27,333.39,Single-ply,SBD,M
Boys,59.87,5,Shea Woods,Aledo,59.87,111.13,61.23,120.2,292.57,Single-ply,SBD,M
Boys,59.87,6,Cole Mays,Aledo,59.87,104.33,70.31,97.52,272.16,Single-ply,SBD,M
Boys,67.13,1,Kevin Barns,White Settlement Brewer,65.32,181.44,104.33,197.31,483.08,Single-ply,SBD,M
Boys,67.13,2,Wesley Keathley,White Settlement Brewer,61.23,181.44,113.4,183.7,478.54,Single-ply,SBD,M
Boys,67.13,3,Rashard Wilson,Fort Worth Boswell,66.68,174.63,104.33,185.97,464.93,Single-ply,SBD,M
Boys,67.13,4,Trey Ehrardt,Aledo,64.41,165.56,86.18,174.63,426.38,Single-ply,SBD,M
Boys,67.13,5,Ryan Chastain,Aledo,63.5,161.03,90.72,163.29,415.04,Single-ply,SBD,M
Boys,67.13,6,Ben Jopling,Aledo,65.77,149.69,95.25,161.03,405.97,Single-ply,SBD,M
Boys,67.13,7,Billy Chappell,Springtown,67.13,142.88,72.57,158.76,374.21,Single-ply,SBD,M
Boys,67.13,8,Matt Burkhead,Fort Worth Boswell,63.5,142.88,81.65,140.61,365.14,Single-ply,SBD,M
Boys,67.13,9,Eddie Quintana,Fort Worth Boswell,61.69,129.27,83.91,147.42,360.61,Single-ply,SBD,M
Boys,67.13,10,Baron Johnson,Fort Worth Boswell,67.13,115.67,92.99,142.88,351.53,Single-ply,SBD,M
Boys,67.13,11,Jordon Bumgarner,Springtown,67.13,120.2,97.52,124.74,342.46,Single-ply,SBD,M
Boys,74.84,1,David Martinez,Fort Worth Boswell,74.39,192.78,129.27,183.7,505.76,Single-ply,SBD,M
Boys,74.84,2,Ryan Wood,Fort Worth Boswell,71.21,176.9,111.13,165.56,453.59,Single-ply,SBD,M
Boys,74.84,3,Richic Millsap,Springtown,74.84,161.03,86.18,158.76,405.97,Single-ply,SBD,M
Boys,74.84,4,Aarron Hooper,Springtown,74.84,154.22,95.25,154.22,403.7,Single-ply,SBD,M
Boys,74.84,5,Darrell Tubbs,White Settlement Brewer,73.94,142.88,102.06,149.69,394.63,Single-ply,SBD,M
Boys,74.84,6,Jonathon Colon,Fort Worth Boswell,71.21,142.88,70.31,151.95,365.14,Single-ply,SBD,M
Boys,74.84,7,Daniel Ramirez,Fort Worth Boswell,74.84,,86.18,133.81,219.99,Single-ply,BD,M
Boys,82.1,1,Glen Bradley,Springtown,82.1,192.78,120.2,204.12,517.1,Single-ply,SBD,M
Boys,82.1,2,Cameron Dauenhaur,Springtown,82.1,201.85,122.47,192.78,517.1,Single-ply,SBD,M
Boys,82.1,3,Slater Vandertuin,Aledo,82.1,170.1,111.13,190.51,471.74,Single-ply,SBD,M
Boys,82.1,4,Corben Abila,White Settlement Brewer,80.74,154.22,122.47,172.37,449.06,Single-ply,SBD,M
Boys,82.1,5,Nathan Aycock,Aledo,81.65,158.76,115.67,163.29,437.72,Single-ply,SBD,M
Boys,82.1,6,Hugo Gonzales,White Settlement Brewer,78.93,147.42,90.72,156.49,394.63,Single-ply,SBD,M
Boys,82.1,7,Mathew Borgstedt,White Settlement Brewer,77.11,145.15,92.99,154.22,392.36,Single-ply,SBD,M
Boys,82.1,8,Kevin Watson,Aledo,81.65,142.88,92.99,129.27,365.14,Single-ply,SBD,M
Boys,82.1,9,Kadel Murdock,Springtown,82.1,104.33,104.33,142.88,351.53,Single-ply,SBD,M
Boys,89.81,1,Austin Price,Aledo,89.36,251.74,138.35,208.65,598.74,Single-ply,SBD,M
Boys,89.81,2,Jeffrey Hutto,Fort Worth Boswell,84.82,185.97,115.67,199.58,501.22,Single-ply,SBD,M
Boys,89.81,3,Justin Acherman,Springtown,89.81,190.51,113.4,195.04,498.95,Single-ply,SBD,M
Boys,89.81,4,Matthew Hissam,Aledo,86.18,176.9,108.86,192.78,478.54,Single-ply,SBD,M
Boys,89.81,5,Ryan Perez,Fort Worth Boswell,85.28,181.44,111.13,181.44,474,Single-ply,SBD,M
Boys,89.81,6,Imran Uddin,Springtown,89.81,183.7,113.4,176.9,474,Single-ply,SBD,M
Boys,89.81,7,Garrett Hamilton,Fort Worth Boswell,88.45,172.37,104.33,154.22,430.91,Single-ply,SBD,M
Boys,89.81,8,Addison Vidrine,Aledo,86.18,149.69,102.06,165.56,417.3,Single-ply,SBD,M
Boys,89.81,9,Cody Cluck,Fort Worth Boswell,83.46,154.22,95.25,163.29,412.77,Single-ply,SBD,M
Boys,89.81,10,Randy Meza,White Settlement Brewer,89.81,138.35,81.65,124.74,344.73,Single-ply,SBD,M
Boys,89.81,11,Justin Kayser,Aledo,87.09,97.52,63.5,95.25,256.28,Single-ply,SBD,M
Boys,99.79,1,Anthony Washington,White Settlement Brewer,97.98,204.12,102.06,219.99,526.17,Single-ply,SBD,M
Boys,99.79,2,Corey Abbott,White Settlement Brewer,91.17,158.76,131.54,179.17,469.47,Single-ply,SBD,M
Boys,99.79,3,Matt Armstrong,Aledo,99.34,176.9,102.06,174.63,453.59,Single-ply,SBD,M
Boys,99.79,4,Dusty Roper,Springtown,99.79,154.22,129.27,165.56,449.06,Single-ply,SBD,M
Boys,99.79,5,Shane Newkirk,Springtown,99.79,158.76,99.79,163.29,421.84,Single-ply,SBD,M
Boys,109.77,1,Hank Allen,White Settlement Brewer,105.69,213.19,129.27,199.58,542.04,Single-ply,SBD,M
Boys,109.77,2,Cody Brooks,Aledo,108.86,190.51,124.74,181.44,496.68,Single-ply,SBD,M
Boys,109.77,3,Tim Cappo,White Settlement Brewer,100.24,183.7,102.06,165.56,451.32,Single-ply,SBD,M
Boys,109.77,4,Jarvis Brent,Springtown,109.77,188.24,95.25,163.29,446.79,Single-ply,SBD,M
Boys,109.77,5,Ryan Gonsoulin,Aledo,104.78,174.63,108.86,158.76,442.25,Single-ply,SBD,M
Boys,109.77,6,James Doughty,White Settlement Brewer,102.97,154.22,104.33,163.29,421.84,Single-ply,SBD,M
Boys,109.77,7,Troy Swift,Springtown,109.77,149.69,72.57,172.37,394.63,Single-ply,SBD,M
Boys,109.77,8,Dusten Pulliam,White Settlement Brewer,103.87,142.88,90.72,154.22,387.82,Single-ply,SBD,M
Boys,109.77,9,Aj Ray,Aledo,108.86,147.42,79.38,145.15,371.95,Single-ply,SBD,M
Boys,109.77,10,Maddison Harbuck,Aledo,107.5,122.47,83.91,142.88,349.27,Single-ply,SBD,M
Boys,124.74,1,James De La Rosa,White Settlement Brewer,122.47,217.72,136.08,206.38,560.19,Single-ply,SBD,M
Boys,124.74,2,Zac Cook,White Settlement Brewer,120.66,219.99,108.86,195.04,523.9,Single-ply,SBD,M
Boys,124.74,3,Jacob Sorrells,Springtown,124.74,206.38,106.59,192.78,505.76,Single-ply,SBD,M
Boys,124.74,4,Kevin Frantz,Aledo,122.47,183.7,117.93,174.63,476.27,Single-ply,SBD,M
Boys,124.74,5,Jasser Saleh,White Settlement Brewer,117.48,176.9,115.67,170.1,462.66,Single-ply,SBD,M
Boys,124.74,6,Douglas Byers,Springtown,124.74,188.24,88.45,140.61,417.3,Single-ply,SBD,M
Boys,124.74,7,Hayden Lambert,Aledo,113.85,108.86,81.65,136.08,326.59,Single-ply,SBD,M
Boys,124.74+,1,Kevin Williams,Fort Worth Boswell,148.32,260.82,142.88,278.96,682.66,Single-ply,SBD,M
Boys,124.74+,2,Joseph Fuqua,Fort Worth Boswell,160.57,199.58,108.86,204.12,512.56,Single-ply,SBD,M
Boys,124.74+,3,Travor Winsstead,Springtown,125.19,192.78,90.72,170.1,453.59,Single-ply,SBD,M
Boys,124.74+,4,Zac Mayoral,White Settlement Brewer,130.18,174.63,106.59,142.88,424.11,Single-ply,SBD,M
Boys,124.74+,5,Cameron Kirkland,Aledo,136.53,136.08,95.25,127.01,358.34,Single-ply,SBD,M
Boys,51.71,1,Cody Dauenhaur,Springtown,51.71,102.06,43.09,113.4,258.55,Single-ply,SBD,M
Boys,51.71,DQ,Javier Reynoso,Springtown,51.71,,,,,Single-ply,SBD,M
Boys,55.79,1,Jard Walker,Springtown,55.79,131.54,63.5,136.08,331.12,Single-ply,SBD,M
Boys,55.79,2,Chase Lynn,Springtown,55.79,120.2,68.04,142.88,331.12,Single-ply,SBD,M
Boys,55.79,3,Michael Lira,Fort Worth Boswell,55.79,120.2,70.31,136.08,326.59,Single-ply,SBD,M
Boys,55.79,4,Colton Gaston,Aledo,55.34,88.45,61.23,124.74,274.42,Single-ply,SBD,M
Boys,59.87,1,Buddy Harrell,Springtown,59.87,147.42,88.45,147.42,383.29,Single-ply,SBD,M
Boys,59.87,2,Colton Nabors,Springtown,59.87,117.93,77.11,154.22,349.27,Single-ply,SBD,M
Boys,59.87,3,Dallas Delmere,Fort Worth Boswell,59.87,136.08,70.31,136.08,342.46,Single-ply,SBD,M
Boys,59.87,4,Eugene Johnson,Fort Worth Boswell,59.87,115.67,88.45,129.27,333.39,Single-ply,SBD,M
Boys,59.87,5,Shea Woods,Aledo,59.87,111.13,61.23,120.2,292.57,Single-ply,SBD,M
Boys,59.87,6,Cole Mays,Aledo,59.87,104.33,70.31,97.52,272.16,Single-ply,SBD,M
Boys,67.13,1,Kevin Barns,White Settlement Brewer,65.32,181.44,104.33,197.31,483.08,Single-ply,SBD,M
Boys,67.13,2,Wesley Keathley,White Settlement Brewer,61.23,181.44,113.4,183.7,478.54,Single-ply,SBD,M
Boys,67.13,3,Rashard Wilson,Fort Worth Boswell,66.68,174.63,104.33,185.97,464.93,Single-ply,SBD,M
Boys,67.13,4,Trey Ehrardt,Aledo,64.41,165.56,86.18,174.63,426.38,Single-ply,SBD,M
Boys,67.13,5,Ryan Chastain,Aledo,63.5,161.03,90.72,163.29,415.04,Single-ply,SBD,M
Boys,67.13,6,Ben Jopling,Aledo,65.77,149.69,95.25,161.03,405.97,Single-ply,SBD,M
Boys,67.13,7,Billy Chappell,Springtown,67.13,142.88,72.57,158.76,374.21,Single-ply,SBD,M
Boys,67.13,8,Matt Burkhead,Fort Worth Boswell,63.5,142.88,81.65,140.61,365.14,Single-ply,SBD,M
Boys,67.13,9,Eddie Quintana,Fort Worth Boswell,61.69,129.27,83.91,147.42,360.61,Single-ply,SBD,M
Boys,67.13,10,Baron Johnson,Fort Worth Boswell,67.13,115.67,92.99,142.88,351.53,Single-ply,SBD,M
Boys,67.13,11,Jordon Bumgarner,Springtown,67.13,120.2,97.52,124.74,342.46,Single-ply,SBD,M
Boys,74.84,1,David Martinez,Fort Worth Boswell,74.39,192.78,129.27,183.7,505.76,Single-ply,SBD,M
Boys,74.84,2,Ryan Wood,Fort Worth Boswell,71.21,176.9,111.13,165.56,453.59,Single-ply,SBD,M
Boys,74.84,3,Richic Millsap,Springtown,74.84,161.03,86.18,158.76,405.97,Single-ply,SBD,M
Boys,74.84,4,Aarron Hooper,Springtown,74.84,154.22,95.25,154.22,403.7,Single-ply,SBD,M
Boys,74.84,5,Darrell Tubbs,White Settlement Brewer,73.94,142.88,102.06,149.69,394.63,Single-ply,SBD,M
Boys,74.84,6,Jonathon Colon,Fort Worth Boswell,71.21,142.88,70.31,151.95,365.14,Single-ply,SBD,M
Boys,74.84,7,Daniel Ramirez,Fort Worth Boswell,74.84,,86.18,133.81,219.99,Single-ply,BD,M
Boys,82.1,1,Glen Bradley,Springtown,82.1,192.78,120.2,204.12,517.1,Single-ply,SBD,M
Boys,82.1,2,Cameron Dauenhaur,Springtown,82.1,201.85,122.47,192.78,517.1,Single-ply,SBD,M
Boys,82.1,3,Slater Vandertuin,Aledo,82.1,170.1,111.13,190.51,471.74,Single-ply,SBD,M
Boys,82.1,4,Corben Abila,White Settlement Brewer,80.74,154.22,122.47,172.37,449.06,Single-ply,SBD,M
Boys,82.1,5,Nathan Aycock,Aledo,81.65,158.76,115.67,163.29,437.72,Single-ply,SBD,M
Boys,82.1,6,Hugo Gonzales,White Settlement Brewer,78.93,147.42,90.72,156.49,394.63,Single-ply,SBD,M
Boys,82.1,7,Mathew Borgstedt,White Settlement Brewer,77.11,145.15,92.99,154.22,392.36,Single-ply,SBD,M
Boys,82.1,8,Kevin Watson,Aledo,81.65,142.88,92.99,129.27,365.14,Single-ply,SBD,M
Boys,82.1,9,Kadel Murdock,Springtown,82.1,104.33,104.33,142.88,351.53,Single-ply,SBD,M
Boys,89.81,1,Austin Price,Aledo,89.36,251.74,138.35,208.65,598.74,Single-ply,SBD,M
Boys,89.81,2,Jeffrey Hutto,Fort Worth Boswell,84.82,185.97,115.67,199.58,501.22,Single-ply,SBD,M
Boys,89.81,3,Justin Acherman,Springtown,89.81,190.51,113.4,195.04,498.95,Single-ply,SBD,M
Boys,89.81,4,Matthew Hissam,Aledo,86.18,176.9,108.86,192.78,478.54,Single-ply,SBD,M
Boys,89.81,5,Ryan Perez,Fort Worth Boswell,85.28,181.44,111.13,181.44,474,Single-ply,SBD,M
Boys,89.81,6,Imran Uddin,Springtown,89.81,183.7,113.4,176.9,474,Single-ply,SBD,M
Boys,89.81,7,Garrett Hamilton,Fort Worth Boswell,88.45,172.37,104.33,154.22,430.91,Single-ply,SBD,M
Boys,89.81,8,Addison Vidrine,Aledo,86.18,149.69,102.06,165.56,417.3,Single-ply,SBD,M
Boys,89.81,9,Cody Cluck,Fort Worth Boswell,83.46,154.22,95.25,163.29,412.77,Single-ply,SBD,M
Boys,89.81,10,Randy Meza,White Settlement Brewer,89.81,138.35,81.65,124.74,344.73,Single-ply,SBD,M
Boys,89.81,11,Justin Kayser,Aledo,87.09,97.52,63.5,95.25,256.28,Single-ply,SBD,M
Boys,99.79,1,Anthony Washington,White Settlement Brewer,97.98,204.12,102.06,219.99,526.17,Single-ply,SBD,M
Boys,99.79,2,Corey Abbott,White Settlement Brewer,91.17,158.76,131.54,179.17,469.47,Single-ply,SBD,M
Boys,99.79,3,Matt Armstrong,Aledo,99.34,176.9,102.06,174.63,453.59,Single-ply,SBD,M
Boys,99.79,4,Dusty Roper,Springtown,99.79,154.22,129.27,165.56,449.06,Single-ply,SBD,M
Boys,99.79,5,Shane Newkirk,Springtown,99.79,158.76,99.79,163.29,421.84,Single-ply,SBD,M
Boys,109.77,1,Hank Allen,White Settlement Brewer,105.69,213.19,129.27,199.58,542.04,Single-ply,SBD,M
Boys,109.77,2,Cody Brooks,Aledo,108.86,190.51,124.74,181.44,496.68,Single-ply,SBD,M
Boys,109.77,3,Tim Cappo,White Settlement Brewer,100.24,183.7,102.06,165.56,451.32,Single-ply,SBD,M
Boys,109.77,4,Jarvis Brent,Springtown,109.77,188.24,95.25,163.29,446.79,Single-ply,SBD,M
Boys,109.77,5,Ryan Gonsoulin,Aledo,104.78,174.63,108.86,158.76,442.25,Single-ply,SBD,M
Boys,109.77,6,James Doughty,White Settlement Brewer,102.97,154.22,104.33,163.29,421.84,Single-ply,SBD,M
Boys,109.77,7,Troy Swift,Springtown,109.77,149.69,72.57,172.37,394.63,Single-ply,SBD,M
Boys,109.77,8,Dusten Pulliam,White Settlement Brewer,103.87,142.88,90.72,154.22,387.82,Single-ply,SBD,M
Boys,109.77,9,Aj Ray,Aledo,108.86,147.42,79.38,145.15,371.95,Single-ply,SBD,M
Boys,109.77,10,Maddison Harbuck,Aledo,107.5,122.47,83.91,142.88,349.27,Single-ply,SBD,M
Boys,124.74,1,James De La Rosa,White Settlement Brewer,122.47,217.72,136.08,206.38,560.19,Single-ply,SBD,M
Boys,124.74,2,Zac Cook,White Settlement Brewer,120.66,219.99,108.86,195.04,523.9,Single-ply,SBD,M
Boys,124.74,3,Jacob Sorrells,Springtown,124.74,206.38,106.59,192.78,505.76,Single-ply,SBD,M
Boys,124.74,4,Kevin Frantz,Aledo,122.47,183.7,117.93,174.63,476.27,Single-ply,SBD,M
Boys,124.74,5,Jasser Saleh,White Settlement Brewer,117.48,176.9,115.67,170.1,462.66,Single-ply,SBD,M
Boys,124.74,6,Douglas Byers,Springtown,124.74,188.24,88.45,140.61,417.3,Single-ply,SBD,M
Boys,124.74,7,Hayden Lambert,Aledo,113.85,108.86,81.65,136.08,326.59,Single-ply,SBD,M
Boys,124.74+,1,Kevin Williams,Fort Worth Boswell,148.32,260.82,142.88,278.96,682.66,Single-ply,SBD,M
Boys,124.74+,2,Joseph Fuqua,Fort Worth Boswell,160.57,199.58,108.86,204.12,512.56,Single-ply,SBD,M
Boys,124.74+,3,Travor Winsstead,Springtown,125.19,192.78,90.72,170.1,453.59,Single-ply,SBD,M
Boys,124.74+,4,Zac Mayoral,White Settlement Brewer,130.18,174.63,106.59,142.88,424.11,Single-ply,SBD,M
Boys,124.74+,5,Cameron Kirkland,Aledo,136.53,136.08,95.25,127.01,358.34,Single-ply,SBD,M
