Place,Name,State,WeightClassKg,BodyweightKg,Age,Best3SquatKg,Best3BenchKg,Best3DeadliftKg,TotalKg,Sex,Division,Equipment,Event,Deadlift4Kg
1,Ashley Escobar,NV,56,56,20,112.5,60,127.5,300,F,Juniors 20-23,Raw,SBD,
2,Dana Lobrio,NV,56,52.8,21,80,42.5,110,232.5,F,Juniors 20-23,Raw,SBD,
1,Johanna Mendez,NV,60,59.6,21,135,57.5,145,337.5,F,Juniors 20-23,Raw,SBD,
1,Michelle Dean,NV,56,54.8,25,102.5,42.5,130,275,F,Open,Raw,SBD,
1,Kat Secor,NV,82.5,79.8,29,192.5,110,220,522.5,F,Open,Raw,SBD,
1,Ashleigh Phillips,NV,90+,97.8,27,155,88,185,428,F,Open,Raw,SBD,193
1,Justin Bonaparte,NV,60,57.4,22,157.5,102.5,200,460,M,Juniors 20-23,Raw,SBD,
1,JP Romero,NV,67.5,65.4,22,125,87.5,162.5,375,M,Juniors 20-23,Raw,SBD,
1,Ramon Mendez,NV,75,74.6,22,217.5,125,230,572.5,M,Juniors 20-23,Raw,SBD,
2,Kyeu Lanza,NV,75,73.7,22,175,112.5,227.5,515,M,Juniors 20-23,Raw,SBD,
1,Lukas Schanbacher,NV,90,88,17,200,117.5,210,527.5,M,Juniors 16-17,Raw,SBD,
1,Ryan Boyd,NV,90,88.9,18,182.5,115,210,507.5,M,Juniors 18-19,Raw,SBD,
1,Jaegar Rossman,NV,100,95.9,13,142.5,90,150,382.5,M,Juniors 13-15,Raw,SBD,
1,Jesus Morales,UT,100,95.5,19,242.5,182.5,272.5,697.5,M,Juniors 18-19,Raw,SBD,
2,Conrad Johnson,NV,100,97.6,19,145,92.5,200,437.5,M,Juniors 18-19,Raw,SBD,
1,Justin Bonaparte,NV,60,57.4,22,157.5,102.5,200,460,M,Open,Raw,SBD,
1,Ramon Mendez,NV,75,74.6,22,217.5,125,230,572.5,M,Open,Raw,SBD,
2,Jarred Pacheco,NV,75,74.4,24,145,90,182.5,417.5,M,Open,Raw,SBD,
1,Stefan Larsen,UT,82.5,80.7,24,227.5,160,290,677.5,M,Open,Raw,SBD,
2,Christopher Hammond,NV,82.5,82.5,29,200,150,232.5,582.5,M,Open,Raw,SBD,
3,Michael Rowland,NV,82.5,81.7,24,160,112.5,225,497.5,M,Open,Raw,SBD,
4,Paul Fischer,NV,82.5,78.3,31,150,105,212.5,467.5,M,Open,Raw,SBD,
1,Lance Iman,NV,90,89.6,35,230,185,240,655,M,Open,Raw,SBD,
2,Reggie Loyola,NV,90,86.1,37,207.5,155,260,622.5,M,Open,Raw,SBD,
3,Jon Miller,NV,90,89.1,32,220,140,260,620,M,Open,Raw,SBD,
4,Jason Warren,NV,90,88.2,23,210,130,260,600,M,Open,Raw,SBD,
5,Michael Mcglothlin,NV,90,90,22,212.5,132.5,250,595,M,Open,Raw,SBD,
6,Scott Gallo,NV,90,89.5,25,197.5,140,227.5,565,M,Open,Raw,SBD,
7,Gustave Ruetenik,NV,90,88.4,31,202.5,127.5,230,560,M,Open,Raw,SBD,
8,Jordan Gregory #2,NV,90,88.5,32,162.5,145,232.5,540,M,Open,Raw,SBD,
1,Patrick Grennan,NV,100,97,31,240,160,275,675,M,Open,Raw,SBD,
2,Andrew Martinez,NV,100,96.4,28,240,135,285,660,M,Open,Raw,SBD,
3,Matt Lisiewski,NV,100,99.2,34,160,102.5,227.5,490,M,Open,Raw,SBD,
1,Sinjin Howerton,NV,125,122.7,26,280,227.5,322.5,830,M,Open,Raw,SBD,
2,Chris Welch,NV,125,118.5,27,262.5,175,317.5,755,M,Open,Raw,SBD,
3,John Dignan,NV,125,119.2,50,255,135,245,635,M,Open,Raw,SBD,
4,Jonathan Aguirre,NV,125,120.2,29,205,145,235,585,M,Open,Raw,SBD,
1,Reggie Loyola,NV,90,86.1,37,207.5,155,260,622.5,M,Submasters 35-39,Raw,SBD,
1,Joshua Olsen,UT,100,96,36,157.5,130,207.5,495,M,Submasters 35-39,Raw,SBD,
1,Charles Weidner,NV,90,86.6,43,197.5,125,227.5,550,M,Masters 40-44,Raw,SBD,
1,Allen Stanek,NV,90,88.6,71,127.5,60,167.5,355,M,Masters 70-74,Raw,SBD,
1,Jason Giffen,NV,110,107.6,43,160,117.5,227.5,505,M,Masters 40-44,Raw,SBD,
1,David Cartin,NV,110,106.5,51,180,140,225,545,M,Masters 50-54,Raw,SBD,
1,John Dignan,NV,125,119.2,50,255,135,245,635,M,Masters 50-54,Raw,SBD,
1,Mark Danyluk,CA,140+,149.4,51,195,225,235,655,M,Masters 50-54,Raw,SBD,
1,Miriam Aileen Juan,NV,56,55.1,24,92.5,47.5,115,255,F,Open,Wraps,SBD,
1,Daniel Dollopac,NV,67.5,66,18,172.5,105,227.5,505,M,Juniors 18-19,Wraps,SBD,
1,Cameron Cunningham,CA,100,97.7,25,210,140,255,605,M,Open,Wraps,SBD,
1,Ruben Garcia,UT,110,110,42,272.5,167.5,277.5,717.5,M,Open,Wraps,SBD,
2,Crosby Colon,NV,110,105.8,28,237.5,165,250,652.5,M,Open,Wraps,SBD,
1,Jack Bagley,NV,125,120.6,36,170,112.5,205,487.5,M,Submasters 35-39,Wraps,SBD,
1,David Cunningham,AZ,82.5,81.3,64,85,67.5,145,297.5,M,Masters 60-64,Wraps,SBD,
1,Ruben Garcia,UT,110,110,42,272.5,167.5,277.5,717.5,M,Masters 40-44,Wraps,SBD,
1,Malinda Barnes,AZ,82.5,79.6,39,165,112.5,185,462.5,F,Open,Single-ply,SBD,
1,Malinda Barnes,AZ,82.5,79.6,39,165,112.5,185,462.5,F,Submasters 35-39,Single-ply,SBD,
1,Jose Ramires,NV,125,122.1,26,320,227.5,275,822.5,M,Open,Single-ply,SBD,
1,Russell Bayer,NV,140+,142.8,31,225,195,272.5,692.5,M,Open,Single-ply,SBD,
1,Anthony Galeano,NV,90,86.8,39,137.5,70,160,367.5,M,Submasters 35-39,Single-ply,SBD,
1,Kumiko-Katie Moore,NV,52,51.8,55,,70,,70,F,Open,Raw,B,
1,Kumiko-Katie Moore,NV,52,51.8,55,,70,,70,F,Masters 55-59,Raw,B,
1,Conrad Johnson,NV,100,97.6,19,,92.5,,92.5,M,Juniors 18-19,Raw,B,
1,Gibrann Eguiza,NV,90,86.2,29,,117.5,,117.5,M,Open,Raw,B,
1,Rob Boger,NV,100,94.5,30,,192.5,,192.5,M,Open,Raw,B,
1,Ruben Garcia,UT,110,110,42,,167.5,,167.5,M,Open,Raw,B,
1,Charles Weidner,NV,90,86.6,43,,125,,125,M,Masters 40-44,Raw,B,
1,Ruben Garcia,UT,110,110,42,,167.5,,167.5,M,Masters 40-44,Raw,B,
1,Mark Danyluk,CA,140+,149.4,51,,225,,225,M,Masters 50-54,Raw,B,
1,Kumiko-Katie Moore,NV,52,51.8,55,,67.5,,67.5,F,Open,Single-ply,B,
1,Kumiko-Katie Moore,NV,52,51.8,55,,67.5,,67.5,F,Masters 55-59,Single-ply,B,
1,Conrad Johnson,NV,100,97.6,19,,,200,200,M,Juniors 18-19,Raw,D,
1,Gibrann Eguiza,NV,90,86.2,29,,,192.5,192.5,M,Open,Raw,D,
1,Ruben Garcia,UT,110,110,42,,,277.5,277.5,M,Open,Raw,D,
2,Micah Mtatabikwa-Walker,NV,110,108,31,,,272.5,272.5,M,Open,Raw,D,
1,Charles Weidner,NV,90,86.6,43,,,227.5,227.5,M,Masters 40-44,Raw,D,
1,Ruben Garcia,UT,110,110,42,,,277.5,277.5,M,Masters 40-44,Raw,D,
1,Jason Blodgett,NV,140+,150,40,,,182.5,182.5,M,Masters 40-44,Raw,D,
1,Mark Danyluk,CA,140+,149.4,51,,,235,235,M,Masters 50-54,Raw,D,
