Division,WeightClassKg,Place,Name,Team,BodyweightKg,Best3SquatKg,Best3BenchKg,Best3DeadliftKg,TotalKg,Equipment,Event,Sex
Boys,51.71,1,DJ Walker,Georgetown East View,50.8,81.65,52.16,102.06,235.87,Single-ply,SBD,M
Boys,51.71,2,Hayden Hughes,Georgetown,50.71,74.84,47.63,97.52,219.99,Single-ply,SBD,M
Boys,55.79,1,Zyle Nance,Dripping Springs,55.61,113.4,58.97,136.08,308.44,Single-ply,SBD,M
Boys,55.79,2,Kaden Hewitt,Bastrop,55.47,102.06,63.5,117.93,283.5,Single-ply,SBD,M
Boys,55.79,DQ,Billy Pearson,Pflugerville Connally,55.79,124.74,124.74,,,Single-ply,SBD,M
Boys,59.87,1,Owen Mallard,Georgetown,57.11,163.29,79.38,172.37,415.04,Single-ply,SBD,M
Boys,59.87,2,Michael Marullo,Georgetown East View,58.01,136.08,88.45,127.01,351.53,Single-ply,SBD,M
Boys,59.87,3,Danny Doan,Pflugerville Connally,57.88,106.59,77.11,102.06,285.76,Single-ply,SBD,M
Boys,59.87,4,Chris Gomez,Austin Lake Travis,59.6,83.91,83.91,111.13,278.96,Single-ply,SBD,M
Boys,59.87,5,Sutton Lindsley,Bastrop,56.56,90.72,72.57,108.86,272.16,Single-ply,SBD,M
Boys,59.87,6,Ryan Wall,Georgetown East View,58.38,95.25,40.82,117.93,254.01,Single-ply,SBD,M
Boys,59.87,7,Ryan Davenport,Dripping Springs,57.83,92.99,49.9,108.86,251.74,Single-ply,SBD,M
Boys,59.87,8,Kaden Harris,Georgetown East View,56.38,70.31,56.7,97.52,224.53,Single-ply,SBD,M
Boys,59.87,DQ,Dominic Hamilton,Georgetown East View,58.56,,,,,Single-ply,SBD,M
Boys,67.13,1,Dereon Kizzie,Pflugerville Connally,63.5,140.61,106.59,174.63,421.84,Single-ply,SBD,M
Boys,67.13,2,Aiden Lee Wen,Austin Westlake,65.73,158.76,104.33,154.22,417.3,Single-ply,SBD,M
Boys,67.13,3,Christopher Brenham,Georgetown,64.5,151.95,81.65,156.49,390.09,Single-ply,SBD,M
Boys,67.13,4,Jordan Kuglin,Georgetown East View,65.73,147.42,83.91,156.49,387.82,Single-ply,SBD,M
Boys,67.13,5,Mark Field,Georgetown,66.45,113.4,86.18,163.29,362.87,Single-ply,SBD,M
Boys,67.13,6,Jordan Green,Austin Westlake,65.36,147.42,83.91,129.27,360.61,Single-ply,SBD,M
Boys,67.13,6,Larry Estrada,Pflugerville Connally,,92.99,65.77,102.06,260.82,Single-ply,SBD,M
Boys,67.13,7,Cole Lunsford,Pflugerville Hendrickson,62.19,106.59,72.57,136.08,315.25,Single-ply,SBD,M
Boys,67.13,8,Daniel Russell,Georgetown East View,65.5,117.93,68.04,129.27,315.25,Single-ply,SBD,M
Boys,67.13,9,Chance McGuire,Georgetown,60.1,102.06,58.97,133.81,294.84,Single-ply,SBD,M
Boys,67.13,10,Trent Greenman,Dripping Springs,60.65,111.13,65.77,113.4,290.3,Single-ply,SBD,M
Boys,67.13,11,Dillon Cahill,Georgetown,64.64,106.59,54.43,115.67,276.69,Single-ply,SBD,M
Boys,67.13,DQ,Brandon Batot,Bastrop,65.82,174.63,,,,Single-ply,SBD,M
Boys,67.13,DQ,Jared Smith,Bastrop,65.91,,,,,Single-ply,SBD,M
Boys,67.13,DQ,Tanner Hamilton,Austin Lake Travis,64.86,106.59,,,,Single-ply,SBD,M
Boys,74.84,1,Zach Reid,Dripping Springs,71.26,192.78,113.4,192.78,498.95,Single-ply,SBD,M
Boys,74.84,2,Jordan Lawrence,Pflugerville Connally,70.99,151.95,111.13,185.97,449.06,Single-ply,SBD,M
Boys,74.84,3,Eduardo Perez,Georgetown,69.85,158.76,86.18,172.37,417.3,Single-ply,SBD,M
Boys,74.84,4,Erik Anderson #3,Georgetown,74.3,154.22,90.72,158.76,403.7,Single-ply,SBD,M
Boys,74.84,5,Drew Ybarra,Pflugerville Connally,73.75,133.81,95.25,165.56,394.63,Single-ply,SBD,M
Boys,74.84,6,Steven Crider,Austin Westlake,72.35,149.69,81.65,154.22,385.55,Single-ply,SBD,M
Boys,74.84,7,Brandon Stevenson,Austin Lake Travis,68.9,111.13,74.84,142.88,328.85,Single-ply,SBD,M
Boys,74.84,7,Michael Nnaji,Pflugerville Connally,,83.91,70.31,102.06,256.28,Single-ply,SBD,M
Boys,74.84,8,Cory Caskey,Georgetown East View,70.85,120.2,72.57,136.08,328.85,Single-ply,SBD,M
Boys,74.84,9,Donte Miller,Pflugerville Connally,67.59,106.59,68.04,124.74,299.37,Single-ply,SBD,M
Boys,74.84,10,TJ Eldridge,Pflugerville Hendrickson,67.68,111.13,68.04,102.06,281.23,Single-ply,SBD,M
Boys,74.84,DQ,Javon Burrel,Georgetown East View,69.4,149.69,,,,Single-ply,SBD,M
Boys,74.84,DQ,Aaron Garces,Georgetown East View,72.48,124.74,,,,Single-ply,SBD,M
Boys,74.84,DQ,Wesley Peterson,Austin Westlake,69.44,,,,,Single-ply,SBD,M
Boys,82.1,1,Phillip Wilson,Pflugerville Connally,81.19,224.53,142.88,208.65,576.06,Single-ply,SBD,M
Boys,82.1,2,Matt Hemphill,Dripping Springs,79.88,219.99,127.01,204.12,551.11,Single-ply,SBD,M
Boys,82.1,3,Dalton Thomas,Bastrop,78.97,204.12,106.59,213.19,523.9,Single-ply,SBD,M
Boys,82.1,4,Matt May,Georgetown,79.97,174.63,88.45,183.7,446.79,Single-ply,SBD,M
Boys,82.1,5,Joey Montoya,Georgetown,79.11,147.42,97.52,195.04,439.98,Single-ply,SBD,M
Boys,82.1,6,Brandon English,Dripping Springs,81.74,136.08,81.65,142.88,360.61,Single-ply,SBD,M
Boys,82.1,7,Caden Legget,Georgetown,75.07,124.74,79.38,149.69,353.8,Single-ply,SBD,M
Boys,82.1,8,Zach Peterman,Dripping Springs,75.25,127.01,79.38,122.47,328.85,Single-ply,SBD,M
Boys,82.1,9,Jamie Sanchez,Georgetown East View,81.42,111.13,72.57,136.08,319.78,Single-ply,SBD,M
Boys,82.1,10,Cade Connors,Austin Lake Travis,81.6,111.13,88.45,117.93,317.51,Single-ply,SBD,M
Boys,82.1,11,Cory Alcala,Pflugerville Connally,79.24,113.4,86.18,113.4,312.98,Single-ply,SBD,M
Boys,82.1,12,Yaser Mirza,Pflugerville Connally,81.74,83.91,54.43,111.13,249.48,Single-ply,SBD,M
Boys,82.1,DQ,Tyler Solomon,Georgetown,79.92,136.08,,,,Single-ply,SBD,M
Boys,89.81,1,Austin Naiser,Georgetown East View,84.37,179.17,131.54,192.78,503.49,Single-ply,SBD,M
Boys,89.81,2,Ryan Perry,Bastrop,85.73,181.44,115.67,197.31,494.42,Single-ply,SBD,M
Boys,89.81,3,Steele O'Connor,Austin Westlake,89.45,183.7,120.2,188.24,492.15,Single-ply,SBD,M
Boys,89.81,4,Isiah Faz,Austin Westlake,86.64,172.37,104.33,183.7,460.4,Single-ply,SBD,M
Boys,89.81,5,Kyle Urbanosky,Georgetown,85.41,176.9,95.25,181.44,453.59,Single-ply,SBD,M
Boys,89.81,6,Bobby Magee,Austin Westlake,88.18,172.37,99.79,181.44,453.59,Single-ply,SBD,M
Boys,89.81,7,Blake Dollar,Austin Lake Travis,86.18,147.42,106.59,176.9,430.91,Single-ply,SBD,M
Boys,89.81,8,Keith Mitchhart,Dripping Springs,84.01,151.95,90.72,174.63,417.3,Single-ply,SBD,M
Boys,89.81,9,Braden Cassity,Austin Westlake,89.81,142.88,90.72,161.03,394.63,Single-ply,SBD,M
Boys,89.81,10,Walker Fain,Georgetown,82.33,151.95,88.45,151.95,392.36,Single-ply,SBD,M
Boys,89.81,11,Jimmy Salazar,Pflugerville Hendrickson,86,124.74,92.99,156.49,374.21,Single-ply,SBD,M
Boys,89.81,12,Frank Durante,Georgetown,82.33,138.35,90.72,142.88,371.95,Single-ply,SBD,M
Boys,89.81,13,Luke Wilkin,Austin Westlake,86.27,136.08,68.04,136.08,340.19,Single-ply,SBD,M
Boys,89.81,14,Elijah Estrada,Pflugerville Hendrickson,86.27,108.86,86.18,127.01,322.05,Single-ply,SBD,M
Boys,89.81,DQ,Andre Stiles,Pflugerville Connally,85.05,129.27,,,,Single-ply,SBD,M
Boys,99.79,1,Derrick Juptner,Georgetown,97.2,233.6,151.95,229.06,614.62,Single-ply,SBD,M
Boys,99.79,2,Keeland Moore,Georgetown,99.56,244.94,145.15,215.46,605.55,Single-ply,SBD,M
Boys,99.79,3,Hunter Creasey,Georgetown,95.8,210.92,120.2,235.87,566.99,Single-ply,SBD,M
Boys,99.79,4,Matthew Herrera,Austin Lake Travis,99.79,204.12,104.33,204.12,512.56,Single-ply,SBD,M
Boys,99.79,5,David Mata,Georgetown,97.52,201.85,106.59,192.78,501.22,Single-ply,SBD,M
Boys,99.79,6,Jovany Araujo,Georgetown East View,97.52,181.44,106.59,204.12,492.15,Single-ply,SBD,M
Boys,99.79,7,Kaden Langston,Austin Lake Travis,94.48,181.44,124.74,174.63,480.81,Single-ply,SBD,M
Boys,99.79,8,Leo Ramirez,Georgetown East View,90.72,151.95,97.52,181.44,430.91,Single-ply,SBD,M
Boys,99.79,9,Nick Furr,Georgetown,92.49,151.95,83.91,190.51,426.38,Single-ply,SBD,M
Boys,99.79,10,David Neal,Austin Westlake,94.8,158.76,92.99,170.1,421.84,Single-ply,SBD,M
Boys,99.79,11,Sam King,Georgetown East View,90.26,145.15,102.06,156.49,403.7,Single-ply,SBD,M
Boys,99.79,12,Devin Gregory,Pflugerville Hendrickson,93.44,124.74,74.84,183.7,383.29,Single-ply,SBD,M
Boys,99.79,13,Xavier Napoliello,Austin Westlake,98.43,133.81,95.25,149.69,378.75,Single-ply,SBD,M
Boys,99.79,14,Jake Williamson,Dripping Springs,98.43,136.08,86.18,142.88,365.14,Single-ply,SBD,M
Boys,99.79,15,Bryan Sevilla,Pflugerville Connally,90.76,104.33,56.7,111.13,272.16,Single-ply,SBD,M
Boys,99.79,DQ,Noe Salazar,Bastrop,91.44,204.12,,,,Single-ply,SBD,M
Boys,109.77,1,Dameion Cavazos,Georgetown,107.5,222.26,136.08,188.24,546.58,Single-ply,SBD,M
Boys,109.77,2,Dominic Pastucci,Pflugerville Hendrickson,108.68,179.17,138.35,224.53,542.04,Single-ply,SBD,M
Boys,109.77,3,Rashon Sheppard,Pflugerville Connally,100.02,183.7,117.93,195.04,496.68,Single-ply,SBD,M
Boys,109.77,4,Tyler Noles,Georgetown,109.41,154.22,113.4,167.83,435.45,Single-ply,SBD,M
Boys,109.77,5,Jameson White,Georgetown,106.78,142.88,86.18,158.76,387.82,Single-ply,SBD,M
Boys,109.77,6,Alfred Garcia,Georgetown,100.02,102.06,102.06,133.81,337.93,Single-ply,SBD,M
Boys,109.77,7,Jace Chambers,Pflugerville Hendrickson,100.38,115.67,83.91,129.27,328.85,Single-ply,SBD,M
Boys,109.77,8,Blake Webster,Austin Westlake,104.14,102.06,70.31,124.74,297.1,Single-ply,SBD,M
Boys,109.77,DQ,Tyrone Wilson,Bastrop,109.23,181.44,,,,Single-ply,SBD,M
Boys,109.77,DQ,Kallen Maxwell,Pflugerville Connally,107.73,113.4,,,,Single-ply,SBD,M
Boys,124.74,1,Justin Hoffman,Bastrop,120.93,215.46,147.42,206.38,569.26,Single-ply,SBD,M
Boys,124.74,2,Nelson Mbanasor,Pflugerville Hendrickson,110.72,201.85,131.54,219.99,553.38,Single-ply,SBD,M
Boys,124.74,3,Allan Edelmon,Georgetown East View,122.02,208.65,138.35,204.12,551.11,Single-ply,SBD,M
Boys,124.74,4,Joshua Tran,Pflugerville Connally,110.09,197.31,117.93,213.19,528.44,Single-ply,SBD,M
Boys,124.74,5,Koy Spano,Austin Lake Travis,114.76,161.03,106.59,176.9,444.52,Single-ply,SBD,M
Boys,124.74,6,Jacoby Coleman,Georgetown,117.3,158.76,106.59,170.1,435.45,Single-ply,SBD,M
Boys,124.74,7,Dallin Garza,Austin Westlake,115.48,154.22,113.4,163.29,430.91,Single-ply,SBD,M
Boys,124.74,8,Tristan Resendez,Pflugerville Connally,114.31,170.1,104.33,151.95,426.38,Single-ply,SBD,M
Boys,124.74,9,Camden Beaty,Dripping Springs,110.59,163.29,90.72,158.76,412.77,Single-ply,SBD,M
Boys,124.74,10,Tyler Barrett,Austin Lake Travis,117.93,120.2,102.06,154.22,376.48,Single-ply,SBD,M
Boys,124.74,DQ,Luke Armstrong,Austin Westlake,112.4,,,,,Single-ply,SBD,M
Boys,124.74,DQ,John Goode,Bastrop,116.35,,,,,Single-ply,SBD,M
Boys,124.74,DQ,Kevin Perrydore,Dripping Springs,114.31,,,,,Single-ply,SBD,M
Boys,124.74,DQ,Tyrek Kerley,Pflugerville Connally,113.99,,,,,Single-ply,SBD,M
Boys,124.74,DQ,Stephan Davis,Pflugerville Connally,112.94,,,,,Single-ply,SBD,M
Boys,124.74+,1,Kade Clapper,Georgetown,141.84,251.74,165.56,204.12,621.42,Single-ply,SBD,M
Boys,124.74+,2,Anthony Rishton,Georgetown,143.34,222.26,124.74,199.58,546.58,Single-ply,SBD,M
Boys,124.74+,3,Silas Davis,Pflugerville Connally,195.04,158.76,129.27,176.9,464.93,Single-ply,SBD,M
Boys,124.74+,4,Chase Patterson,Austin Lake Travis,129.59,170.1,102.06,183.7,455.86,Single-ply,SBD,M
Boys,124.74+,5,Grey Griffin,Austin Westlake,142.34,183.7,115.67,156.49,455.86,Single-ply,SBD,M
Boys,124.74+,6,Travis Claridge,Pflugerville Hendrickson,125.33,124.74,88.45,179.17,392.36,Single-ply,SBD,M
Boys,124.74+,DQ,Rene Loya,Bastrop,132.04,,,,,Single-ply,SBD,M
Boys,,NS,Keenan Duncan,Georgetown,,113.4,74.84,102.06,,Single-ply,SBD,M
