Division,WeightClassKg,Place,Name,Team,BodyweightKg,Best3SquatKg,Best3BenchKg,Best3DeadliftKg,TotalKg,Equipment,Event,Sex
Boys,51.71,1,Robert Barajas,Laredo Martin,51.26,172.37,68.04,188.24,428.64,Single-ply,SBD,M
Boys,55.79,2,Rudy Davila,Laredo United,51.89,102.06,58.97,127.01,288.03,Single-ply,SBD,M
Boys,51.71,DQ,Emilliano Martinez,Rio Grande City,51.71,,,,,Single-ply,SBD,M
Boys,51.71,DQ,Rafael Morales,Laredo Cigarroa,51.71,,,,,Single-ply,SBD,M
Boys,55.79,1,Enrique Alvarez,Laredo Cigarroa,55.25,170.1,102.06,170.1,442.25,Single-ply,SBD,M
Boys,55.79,2,Amado De La Fuente,Laredo United South,55.61,142.88,92.99,170.1,405.97,Single-ply,SBD,M
Boys,55.79,3,Michael Sauceda,Laredo United,53.61,142.88,70.31,158.76,371.95,Single-ply,SBD,M
Boys,55.79,4,Jordy Silguero,Hebbronville,54.79,124.74,92.99,149.69,367.41,Single-ply,SBD,M
Boys,55.79,5,David Saenz,Hebbronville,54.52,136.08,77.11,151.95,365.14,Single-ply,SBD,M
Boys,55.79,6,Ricky Fonseca,Laredo United,53.71,124.74,65.77,133.81,324.32,Single-ply,SBD,M
Boys,55.79,7,Israel Granados,Laredo Nixon,55.52,106.59,54.43,131.54,292.57,Single-ply,SBD,M
Boys,55.79,8,Raul Lopez,Rio Grande City,54.79,86.18,56.7,104.33,247.21,Single-ply,SBD,M
Boys,55.79,DQ,Angel Solano,Bruni,55.79,,,,,Single-ply,SBD,M
Boys,67.13,1,Raymond Lopez,Taft,59.96,185.97,111.13,217.72,514.83,Single-ply,SBD,M
Boys,59.87,2,Edgar Martinez,Laredo Cigarroa,59.78,183.7,88.45,185.97,458.13,Single-ply,SBD,M
Boys,59.87,3,Justin White,Laredo United South,58.15,140.61,74.84,181.44,396.89,Single-ply,SBD,M
Boys,67.13,4,Jairo Morales,Laredo Cigarroa,59.96,124.74,54.43,158.76,337.93,Single-ply,SBD,M
Boys,59.87,5,Mike Munoz,Bruni,56.7,106.59,58.97,136.08,301.64,Single-ply,SBD,M
Boys,59.87,6,Jordan Tomerlin,Laredo United,56.88,83.91,45.36,95.25,224.53,Single-ply,SBD,M
Boys,59.87,DQ,Ricardo Garcia,Rio Grande City,58.6,140.61,81.65,,,Single-ply,SBD,M
Boys,59.87,DQ,Noe Diaz,Falfurrias,59.87,,,,,Single-ply,SBD,M
Boys,67.13,1,Rene Molina,Hebbronville,65.68,197.31,104.33,195.04,496.68,Single-ply,SBD,M
Boys,67.13,2,Paul Lopez,Laredo United South,66.95,174.63,120.2,190.51,485.34,Single-ply,SBD,M
Boys,67.13,3,David Guzman,Taft,65.23,163.29,104.33,204.12,471.74,Single-ply,SBD,M
Boys,67.13,4,William Valdez,Rio Grande City,65.05,151.95,127.01,170.1,449.06,Single-ply,SBD,M
Boys,74.84,5,Jj Serna,Laredo United,67.31,163.29,81.65,190.51,435.45,Single-ply,SBD,M
Boys,67.13,6,Gabriel Ramirez,Ben Bolt-Palito Blanco,60.24,156.49,95.25,167.83,419.57,Single-ply,SBD,M
Boys,74.84,7,James Vasquez,Bruni,67.31,145.15,86.18,165.56,396.89,Single-ply,SBD,M
Boys,67.13,8,Eluid Renteria,Laredo Cigarroa,66.32,158.76,88.45,147.42,394.63,Single-ply,SBD,M
Boys,67.13,9,Jorge Silva,Laredo Nixon,65.86,124.74,74.84,161.03,360.61,Single-ply,SBD,M
Boys,67.13,10,Kevin Guerrero,Hebbronville,64.95,136.08,74.84,147.42,358.34,Single-ply,SBD,M
Boys,67.13,11,Jose Hernandez,Laredo Cigarroa,65.41,142.88,77.11,136.08,356.07,Single-ply,SBD,M
Boys,67.13,12,Matin Benavides,Bruni,63.23,102.06,61.23,136.08,299.37,Single-ply,SBD,M
Boys,67.13,13,Eligio Montalvo,Falfurrias,64.32,90.72,68.04,117.93,276.69,Single-ply,SBD,M
Boys,74.84,DQ,Eliezer Gomez,Laredo United South,67.36,,,,,Single-ply,SBD,M
Boys,67.13,DQ,Mando Rodriguez,Falfurrias,67.13,,,,,Single-ply,SBD,M
Boys,67.13,DQ,Frank Rubaclava,Laredo Cigarroa,67.13,,,,,Single-ply,SBD,M
Boys,67.13,DQ,Adrian Munoz,Laredo Martin,62.6,,,,,Single-ply,SBD,M
Boys,67.13,DQ,Jesus Sandoval,Laredo Martin,63.05,,,,,Single-ply,SBD,M
Boys,67.13,DQ,Alfonso Flores,Laredo Martin,67.13,,,,,Single-ply,SBD,M
Boys,74.84,1,Eduardo Salinas,Laredo Cigarroa,72.3,183.7,102.06,190.51,476.27,Single-ply,SBD,M
Boys,74.84,2,Abram Guerra,Rio Grande City,74.48,183.7,97.52,165.56,446.79,Single-ply,SBD,M
Boys,74.84,3,Justin Guerra,Rio Grande City,74.03,188.24,97.52,156.49,442.25,Single-ply,SBD,M
Boys,74.84,4,John Trevino,Hebbronville,70.03,138.35,74.84,165.56,378.75,Single-ply,SBD,M
Boys,74.84,5,Jose Cerda,Laredo Cigarroa,72.48,129.27,83.91,129.27,342.46,Single-ply,SBD,M
Boys,74.84,DQ,Armin Solis,Rio Grande City,70.67,158.76,,,,Single-ply,SBD,M
Boys,74.84,DQ,Angel Cabrerra,Laredo Martin,74.84,,,,,Single-ply,SBD,M
Boys,74.84,DQ,Edgar Mendiola,Laredo Nixon,74.84,,,,,Single-ply,SBD,M
Boys,74.84,DQ,Lupe Saenz,Falfurrias,74.84,,,,,Single-ply,SBD,M
Boys,74.84,DQ,Rudy Lopez,Ben Bolt-Palito Blanco,74.84,,,,,Single-ply,SBD,M
Boys,74.84,DQ,Aaron Hunter,Bruni,74.84,,,,,Single-ply,SBD,M
Boys,74.84,DQ,Julio Cruz,Bruni,74.84,,,,,Single-ply,SBD,M
Boys,74.84,DQ,Mark Morales,Bruni,74.48,174.63,,,,Single-ply,SBD,M
Boys,82.1,1,Ryan de la Cruz,Ben Bolt-Palito Blanco,80.92,210.92,111.13,201.85,523.9,Single-ply,SBD,M
Boys,82.1,2,Daryl Garcia,Bruni,81.65,181.44,108.86,199.58,489.88,Single-ply,SBD,M
Boys,82.1,3,Jaime Sanchez,Bruni,80.83,161.03,86.18,167.83,415.04,Single-ply,SBD,M
Boys,82.1,4,Alfredo Mancillas,Laredo United,80.38,145.15,108.86,156.49,410.5,Single-ply,SBD,M
Boys,82.1,5,Angel Pena,Falfurrias,77.66,142.88,95.25,145.15,383.29,Single-ply,SBD,M
Boys,82.1,6,Erasmo Canales,Rio Grande City,75.66,127.01,81.65,133.81,342.46,Single-ply,SBD,M
Boys,82.1,DQ,Cesar Castillo,Laredo United South,76.11,219.99,,,,Single-ply,SBD,M
Boys,82.1,DQ,Brandon Garza,Falfurrias,79.2,,,,,Single-ply,SBD,M
Boys,82.1,DQ,Ricky Martinez,Laredo Nixon,82.1,,,,,Single-ply,SBD,M
Boys,82.1,DQ,Lauro Banda,Laredo Nixon,82.1,,,,,Single-ply,SBD,M
Boys,82.1,DQ,Jerry Tanguma,Rio Grande City,82.1,,,,,Single-ply,SBD,M
Boys,82.1,DQ,Jose Herrera,Laredo United,82.01,181.44,83.91,,,Single-ply,SBD,M
Boys,89.81,1,Alex Costilla,Falfurrias,89.09,263.08,156.49,235.87,655.44,Single-ply,SBD,M
Boys,99.79,2,Isaiah Vasquez,Pearsall,89.99,204.12,108.86,226.8,539.77,Single-ply,SBD,M
Boys,89.81,3,Victorino Cantu III,Rio Grande City,86.27,181.44,117.93,190.51,489.88,Single-ply,SBD,M
Boys,89.81,4,Heriberto Canales,Hebbronville,89.63,181.44,104.33,192.78,478.54,Single-ply,SBD,M
Boys,99.79,5,Carlos Munoz,Laredo Nixon,89.9,174.63,92.99,204.12,471.74,Single-ply,SBD,M
Boys,89.81,6,Ivan Gonzalez,Ben Bolt-Palito Blanco,88.18,167.83,104.33,188.24,460.4,Single-ply,SBD,M
Boys,89.81,7,JJ Vela,Falfurrias,83.19,140.61,79.38,133.81,353.8,Single-ply,SBD,M
Boys,89.81,DQ,Esteban Arredondo,Hebbronville,88.09,151.95,,,,Single-ply,SBD,M
Boys,89.81,DQ,Kevin Castro,Laredo Nixon,89.81,,,,,Single-ply,SBD,M
Boys,89.81,DQ,Robert Rodriguez,Laredo Nixon,89.81,,,,,Single-ply,SBD,M
Boys,89.81,DQ,Pete Tejada,Bruni,86.18,185.97,111.13,,,Single-ply,SBD,M
Boys,99.79,DQ,Jeremy Carrasco,Pearsall,89.99,226.8,142.88,,,Single-ply,SBD,M
Boys,99.79,1,Jerry Nino,Laredo Martin,98.07,233.6,163.29,229.06,625.96,Single-ply,SBD,M
Boys,99.79,2,Andres Costilla,Falfurrias,97.61,265.35,136.08,217.72,619.15,Single-ply,SBD,M
Boys,99.79,3,Jesus Benavides,Ben Bolt-Palito Blanco,97.43,226.8,151.95,208.65,587.4,Single-ply,SBD,M
Boys,99.79,4,George Gonzalez,Laredo United South,91.9,226.8,104.33,226.8,557.92,Single-ply,SBD,M
Boys,99.79,5,Jon Garcia,Ben Bolt-Palito Blanco,99.25,204.12,124.74,183.7,512.56,Single-ply,SBD,M
Boys,99.79,6,Lucas Lopez,Ben Bolt-Palito Blanco,97.61,192.78,113.4,192.78,498.95,Single-ply,SBD,M
Boys,99.79,7,Kevin Lujan,Laredo United,93.44,199.58,120.2,172.37,492.15,Single-ply,SBD,M
Boys,109.77,8,Erick Fernandez,Laredo Nixon,99.88,181.44,115.67,192.78,489.88,Single-ply,SBD,M
Boys,99.79,9,Eddie Alvarez,Laredo Martin,98.16,188.24,86.18,151.95,426.38,Single-ply,SBD,M
Boys,99.79,DQ,Richy Lopez,Laredo United South,95.53,231.33,,,,Single-ply,SBD,M
Boys,99.79,DQ,Daniel Ybarra,Hebbronville,99.79,,,,,Single-ply,SBD,M
Boys,99.79,DQ,Jose Coreas,Laredo Cigarroa,99.79,,,,,Single-ply,SBD,M
Boys,99.79,DQ,Trey Munoz,Ben Bolt-Palito Blanco,99.79,,,,,Single-ply,SBD,M
Boys,99.79,DQ,Logan Wilson,Falfurrias,99.79,,,,,Single-ply,SBD,M
Boys,109.77,1,Freddy Chavarria,Laredo Martin,102.33,272.16,172.37,231.33,675.85,Single-ply,SBD,M
Boys,124.74,2,Rafael Vasquez,Laredo United South,110,278.96,138.35,217.72,635.03,Single-ply,SBD,M
Boys,109.77,3,Michael Dominguez,Hebbronville,105.96,231.33,127.01,242.67,601.01,Single-ply,SBD,M
Boys,109.77,4,Kevin Vela,Bruni,109.77,254.01,129.27,215.46,598.74,Single-ply,SBD,M
Boys,109.77,5,Victor Martinez,Laredo Martin,108.95,242.67,129.27,197.31,569.26,Single-ply,SBD,M
Boys,109.77,6,Rick Martinez,Laredo United,101.24,226.8,99.79,165.56,492.15,Single-ply,SBD,M
Boys,109.77,7,Vicente Aguirre,Carrizo Springs,106.32,131.54,72.57,149.69,353.8,Single-ply,SBD,M
Boys,109.77,DQ,Joseph Reyes,Falfurrias,109.77,,,,,Single-ply,SBD,M
Boys,109.77,DQ,Ivan Gonzalez,Bruni,109.77,,,,,Single-ply,SBD,M
Boys,109.77,DQ,Jorge Martinez,Laredo United South,109.77,,,,,Single-ply,SBD,M
Boys,109.77,DQ,Jorge Flores,Rio Grande City,104.69,158.76,79.38,,,Single-ply,SBD,M
Boys,124.74,1,Tony Garcia,Hebbronville,116.21,249.48,149.69,235.87,635.03,Single-ply,SBD,M
Boys,124.74,2,Adrian Trinidad,Laredo United South,113.94,213.19,122.47,217.72,553.38,Single-ply,SBD,M
Boys,124.74,3,Jaime Cardona,Laredo Nixon,113.13,229.06,99.79,197.31,526.17,Single-ply,SBD,M
Boys,124.74,4,Rolando Garza,Hebbronville,117.39,195.04,92.99,183.7,471.74,Single-ply,SBD,M
Boys,124.74,5,Jeffery Garcia,Carrizo Springs,119.75,149.69,122.47,167.83,439.98,Single-ply,SBD,M
Boys,124.74,6,Alexis Manrique,Laredo United,123.38,151.95,102.06,156.49,410.5,Single-ply,SBD,M
Boys,124.74,7,Chris Lira,Bruni,119.2,122.47,86.18,136.08,344.73,Single-ply,SBD,M
Boys,124.74+,1,Carlos Gomez,Laredo Martin,127.82,244.94,158.76,231.33,635.03,Single-ply,SBD,M
Boys,124.74+,2,JR Sandoval,Laredo United,130.63,231.33,90.72,185.97,508.02,Single-ply,SBD,M
Boys,124.74+,3,Gerardo Cadena,Laredo Cigarroa,164.38,190.51,92.99,170.1,453.59,Single-ply,SBD,M
Boys,124.74+,DQ,Jacob Chapa,Bruni,125.19,,,,,Single-ply,SBD,M
Boys,124.74+,DQ,Benito Vega,Laredo United South,125.19,,,,,Single-ply,SBD,M
