Division,WeightClassKg,Place,Name,Team,BodyweightKg,Best3SquatKg,Best3BenchKg,Best3DeadliftKg,TotalKg,Equipment,Event,Sex
Boys,51.71,1,Justin Lindsey,Kennedale,50.44,154.22,83.91,151.95,390.09,Single-ply,SBD,M
Boys,51.71,2,Dalton Adkins,Iowa Park,50.76,129.27,86.18,140.61,356.07,Single-ply,SBD,M
Boys,51.71,3,Juan Salazar,Bonham,51.35,136.08,77.11,129.27,342.46,Single-ply,SBD,M
Boys,51.71,4,Exxon Pantaleon,Krum,50.76,120.2,63.5,149.69,333.39,Single-ply,SBD,M
Boys,51.71,5,JaMarcus Davis,Kennedale,48.26,115.67,70.31,122.47,308.44,Single-ply,SBD,M
Boys,51.71,6,Nick De Leon,Lake Worth,50.12,108.86,70.31,127.01,306.17,Single-ply,SBD,M
Boys,55.79,7,Jacob Hutchins,Graham,51.94,122.47,54.43,124.74,301.64,Single-ply,SBD,M
Boys,55.79,8,Armando Alvarado,Castleberry,51.85,102.06,63.5,120.2,285.76,Single-ply,SBD,M
Boys,51.71,9,Cj Pinedo,Lake Worth,50.62,86.18,49.9,113.4,249.48,Single-ply,SBD,M
Boys,51.71,10,Dallas Elmore,Graham,51.21,90.72,52.16,99.79,242.67,Single-ply,SBD,M
Boys,59.87,1,Darius Rivera,Princeton,55.93,181.44,104.33,195.04,480.81,Single-ply,SBD,M
Boys,55.79,2,Derrick Williams,Kennedale,54.93,176.9,90.72,172.37,439.98,Single-ply,SBD,M
Boys,59.87,3,Ryan Thomas,Iowa Park,55.97,151.95,97.52,156.49,405.97,Single-ply,SBD,M
Boys,59.87,4,Dillan Cromeens,Nevada Community,56.02,133.81,86.18,136.08,356.07,Single-ply,SBD,M
Boys,55.79,5,Alex Samano,Decatur,54.07,133.81,65.77,151.95,351.53,Single-ply,SBD,M
Boys,55.79,6,Jaden Smith,Krum,54.84,124.74,79.38,145.15,349.27,Single-ply,SBD,M
Boys,55.79,7,Cole Owens,Bonham,53.98,140.61,70.31,136.08,347,Single-ply,SBD,M
Boys,55.79,8,Jesus Gam,Decatur,54.34,120.2,68.04,124.74,312.98,Single-ply,SBD,M
Boys,55.79,9,Porter Sciba,Aubrey,52.93,115.67,61.23,106.59,283.5,Single-ply,SBD,M
Boys,55.79,10,Dawson Thompson,Decatur,54.61,95.25,58.97,120.2,274.42,Single-ply,SBD,M
Boys,67.13,1,Shaifq Asmaty,Kennedale,59.92,195.04,92.99,172.37,460.4,Single-ply,SBD,M
Boys,59.87,2,Lucas Sosebee,Iowa Park,59.47,170.1,117.93,170.1,458.13,Single-ply,SBD,M
Boys,59.87,3,Erik Torres,Celina,59.74,165.56,111.13,174.63,451.32,Single-ply,SBD,M
Boys,59.87,4,Grant Carter,Sanger,58.29,154.22,104.33,167.83,426.38,Single-ply,SBD,M
Boys,59.87,5,AJ Garcia,Kennedale,58.51,136.08,79.38,167.83,383.29,Single-ply,SBD,M
Boys,59.87,6,Weston Wenninger,Graham,59.15,129.27,72.57,156.49,358.34,Single-ply,SBD,M
Boys,59.87,7,Geo Miranda,Graham,58.42,136.08,74.84,142.88,353.8,Single-ply,SBD,M
Boys,59.87,8,Lane Simpson,Bonham,59.15,124.74,77.11,145.15,347,Single-ply,SBD,M
Boys,59.87,9,Avery Rangel,Castleberry,57.61,113.4,68.04,136.08,317.51,Single-ply,SBD,M
Boys,59.87,DQ,Chantz Cochran,Decatur,59.15,,,,,Single-ply,SBD,M
Boys,59.87,NS,Austin Chenault,Springtown,,,,,,Single-ply,SBD,M
Boys,67.13,1,Dylan Serna,Krum,65.27,206.38,120.2,204.12,530.7,Single-ply,SBD,M
Boys,67.13,2,Will Carter,Sanger,66.63,192.78,122.47,215.46,530.7,Single-ply,SBD,M
Boys,67.13,3,Ian Concepcion,Krum,67.09,199.58,92.99,219.99,512.56,Single-ply,SBD,M
Boys,67.13,4,Oscar Orozco,Castleberry,66.68,172.37,111.13,219.99,503.49,Single-ply,SBD,M
Boys,67.13,5,Marcus Garza,Graham,65.59,192.78,106.59,199.58,498.95,Single-ply,SBD,M
Boys,67.13,6,Tyler Williams,Aubrey,65.91,183.7,95.25,183.7,462.66,Single-ply,SBD,M
Boys,67.13,7,Travis Wilson,Graham,65.91,151.95,90.72,176.9,419.57,Single-ply,SBD,M
Boys,67.13,8,Aron Velasco,Graham,66.54,161.03,86.18,163.29,410.5,Single-ply,SBD,M
Boys,74.84,DQ,Ethan Balthrop,Castleberry,67.18,,,,,Single-ply,SBD,M
Boys,67.13,DQ,Brandon Garza,Decatur,65.27,170.1,,,,Single-ply,SBD,M
Boys,67.13,DQ,Marcos Morales,Decatur,65.91,172.37,111.13,,,Single-ply,SBD,M
Boys,74.84,1,Alex Scallion,Castleberry,74.8,242.67,154.22,238.14,635.03,Single-ply,SBD,M
Boys,74.84,2,Michael Mitchell,Wichita Falls Hirschi,73.12,222.26,136.08,238.14,596.47,Single-ply,SBD,M
Boys,74.84,3,Jase Hutchens,Graham,74.07,192.78,129.27,219.99,542.04,Single-ply,SBD,M
Boys,74.84,4,Kameron Milton,Lake Worth,73.57,204.12,111.13,208.65,523.9,Single-ply,SBD,M
Boys,74.84,5,Savon Miles,Princeton,73.71,201.85,115.67,195.04,512.56,Single-ply,SBD,M
Boys,82.1,6,Davian Carter,Carrollton Ranchview,74.93,188.24,120.2,190.51,498.95,Single-ply,SBD,M
Boys,74.84,7,Chad Layton,Decatur,72.3,181.44,113.4,188.24,483.08,Single-ply,SBD,M
Boys,74.84,8,Jarrod Nelson,Springtown,72.89,181.44,106.59,185.97,474,Single-ply,SBD,M
Boys,74.84,NS,Jordan Fortner,Melissa,,,,,,Single-ply,SBD,M
Boys,74.84,NS,Daniel Castro,Burkburnett,,,,,,Single-ply,SBD,M
Boys,82.1,1,Leo Brooks,Kennedale,81.1,249.48,174.63,233.6,657.71,Single-ply,SBD,M
Boys,82.1,2,Steven Blankenship,Graham,78.56,222.26,154.22,219.99,596.47,Single-ply,SBD,M
Boys,82.1,3,Kenton Manis,Bonham,81.33,235.87,124.74,231.33,591.94,Single-ply,SBD,M
Boys,82.1,4,Connor Torbert,Aubrey,80.69,217.72,142.88,222.26,582.87,Single-ply,SBD,M
Boys,82.1,5,Kevin Kanzaki,Argyle,81.51,213.19,122.47,201.85,537.51,Single-ply,SBD,M
Boys,82.1,6,Foster Frisk,Celina,78.61,201.85,113.4,213.19,528.44,Single-ply,SBD,M
Boys,82.1,7,Matthew Jelen,Krum,81.19,188.24,129.27,195.04,512.56,Single-ply,SBD,M
Boys,82.1,8,Darius Heath,Carrollton Ranchview,78.65,174.63,122.47,201.85,498.95,Single-ply,SBD,M
Boys,82.1,9,Andrew Alegria,Lake Worth,76.43,174.63,97.52,197.31,469.47,Single-ply,SBD,M
Boys,82.1,DQ,Zach Hollingsworth,Burkburnett,80.97,,,,,Single-ply,SBD,M
Boys,82.1,NS,Damian Sprayberry,Springtown,,,,,,Single-ply,SBD,M
Boys,89.81,1,Chris Rogers,Burkburnett,88.59,274.42,165.56,247.21,687.19,Single-ply,SBD,M
Boys,89.81,2,Derek Shelby,Sanger,86.09,242.67,172.37,249.48,664.51,Single-ply,SBD,M
Boys,89.81,3,Sam Heath,Aubrey,88.13,244.94,163.29,226.8,635.03,Single-ply,SBD,M
Boys,89.81,4,Calvin Stang,Aubrey,88.31,226.8,127.01,240.4,594.21,Single-ply,SBD,M
Boys,89.81,5,Collin Jones,Sanger,87.68,190.51,120.2,204.12,514.83,Single-ply,SBD,M
Boys,89.81,6,Jack VerHoef,Aubrey,89.72,183.7,111.13,208.65,503.49,Single-ply,SBD,M
Boys,89.81,7,Chase Pinion,Anna,83.64,185.97,127.01,188.24,501.22,Single-ply,SBD,M
Boys,89.81,DQ,Danny Wood,Burkburnett,88.45,,,,,Single-ply,SBD,M
Boys,99.79,DQ,Ruben Hernandez,Gainesville,89.9,204.12,113.4,,,Single-ply,SBD,M
Boys,89.81,NS,Baron Browning,Kennedale,,,,,,Single-ply,SBD,M
Boys,89.81,DQ,Eric Maldonado,Castleberry,87.72,210.92,145.15,,,Single-ply,SBD,M
Boys,99.79,1,Alex Joplin,Burkburnett,92.71,276.69,172.37,235.87,684.92,Single-ply,SBD,M
Boys,99.79,2,Garrett Lansford,Anna,93.67,267.62,167.83,226.8,662.24,Single-ply,SBD,M
Boys,99.79,3,James Kemp,Anna,96.89,231.33,142.88,251.74,625.96,Single-ply,SBD,M
Boys,99.79,4,Hugo Giron,Kennedale,97.11,249.48,158.76,208.65,616.89,Single-ply,SBD,M
Boys,99.79,5,Chancey Hull,Aubrey,93.39,213.19,158.76,213.19,585.13,Single-ply,SBD,M
Boys,99.79,6,Caleb Hill,Bonham,98.34,231.33,95.25,210.92,537.51,Single-ply,SBD,M
Boys,99.79,7,Tyler Jennings,Bridgeport,96.52,183.7,136.08,185.97,505.76,Single-ply,SBD,M
Boys,99.79,8,Christopher Reyes,Castleberry,98.16,190.51,122.47,183.7,496.68,Single-ply,SBD,M
Boys,99.79,9,Grayson Briney,Sanger,90.36,206.38,90.72,190.51,487.61,Single-ply,SBD,M
Boys,99.79,DQ,Mark Steinhoff,Aubrey,92.26,233.6,176.9,,,Single-ply,SBD,M
Boys,109.77,1,Conner Barnes,Sanger,100.38,258.55,192.78,229.06,680.39,Single-ply,SBD,M
Boys,109.77,2,Derek Baynes,Graham,103.96,256.28,151.95,240.4,648.64,Single-ply,SBD,M
Boys,109.77,3,Logan Teel,Princeton,101.29,272.16,120.2,240.4,632.76,Single-ply,SBD,M
Boys,109.77,4,Rickey Roberts,Decatur,107.64,240.4,127.01,254.01,621.42,Single-ply,SBD,M
Boys,109.77,5,Jacob Boyd,Mineral Wells,106.73,195.04,147.42,204.12,546.58,Single-ply,SBD,M
Boys,109.77,6,Graham Cowdrey,Decatur,102.69,213.19,131.54,181.44,526.17,Single-ply,SBD,M
Boys,109.77,7,Jesse Villalobos,Iowa Park,108.86,206.38,120.2,197.31,523.9,Single-ply,SBD,M
Boys,109.77,8,Ryan Langley,Sanger,102.56,226.8,113.4,181.44,521.63,Single-ply,SBD,M
Boys,109.77,9,Jacob Boswell,Burkburnett,109.41,204.12,106.59,208.65,519.36,Single-ply,SBD,M
Boys,109.77,10,Matthew Naugle,Kennedale,103.51,102.06,127.01,188.24,417.3,Single-ply,SBD,M
Boys,109.77,NS,Juan Arrendondo,Graham,,,,,,Single-ply,SBD,M
Boys,124.74,1,Husky Melendez,Graham,124.33,297.1,183.7,229.06,709.87,Single-ply,SBD,M
Boys,124.74,2,Brent Reed,Kennedale,121.61,256.28,140.61,265.35,662.24,Single-ply,SBD,M
Boys,124.74,3,Nate Ward,Kennedale,121.74,263.08,154.22,217.72,635.03,Single-ply,SBD,M
Boys,124.74,4,Sammy Serrano,Graham,124.06,274.42,138.35,215.46,628.23,Single-ply,SBD,M
Boys,124.74,5,Dakota Williams,Decatur,112.94,254.01,138.35,231.33,623.69,Single-ply,SBD,M
Boys,124.74,6,Bronson Burks,Bridgeport,118.57,240.4,131.54,251.74,623.69,Single-ply,SBD,M
Boys,124.74,7,Brance Watts,Sanger,111.08,233.6,142.88,199.58,576.06,Single-ply,SBD,M
Boys,124.74,8,Austin Reese,Melissa,122.74,233.6,129.27,204.12,566.99,Single-ply,SBD,M
Boys,124.74,9,Chris Castillo,Graham,117.8,238.14,120.2,206.38,564.72,Single-ply,SBD,M
Boys,124.74,DQ,Nick Diaz,Wichita Falls Hirschi,124.01,238.14,147.42,,,Single-ply,SBD,M
Boys,124.74+,1,Nate Brown,Kennedale,158.49,322.05,190.51,267.62,780.18,Single-ply,SBD,M
Boys,124.74+,2,Michael Castle,Argyle,149.37,317.51,204.12,235.87,757.5,Single-ply,SBD,M
Boys,124.74+,3,Larry Osterman,Aubrey,139.12,240.4,204.12,195.04,639.57,Single-ply,SBD,M
Boys,124.74+,4,Derek Templeman,Princeton,129.5,265.35,138.35,217.72,621.42,Single-ply,SBD,M
Boys,124.74+,5,Terik Rabb,Kennedale,128.77,244.94,147.42,217.72,610.08,Single-ply,SBD,M
Boys,124.74+,6,Colton Richards,Krum,127.69,267.62,122.47,215.46,605.55,Single-ply,SBD,M
Boys,124.74+,7,Taylor Hopkins,Graham,132.45,226.8,145.15,208.65,580.6,Single-ply,SBD,M
Boys,124.74+,8,Hunter Howard,Krum,128.05,226.8,131.54,219.99,578.33,Single-ply,SBD,M
Boys,124.74+,9,Jesse Springfield,Springtown,125.87,226.8,122.47,215.46,564.72,Single-ply,SBD,M
Boys,124.74+,DQ,Jacob Hartsell,Decatur,140.98,249.48,,,,Single-ply,SBD,M
