Division,WeightClassKg,Place,Name,Team,BodyweightKg,Best3SquatKg,Best3BenchKg,Best3DeadliftKg,TotalKg,Equipment,Event,Sex
Boys,51.71,1,Michael Smagghe,Fairfield,48.81,115.67,63.5,120.2,299.37,Single-ply,SBD,M
Boys,55.79,1,Jaquay Brown,Milford,55.52,131.54,81.65,138.35,351.53,Single-ply,SBD,M
Boys,59.87,2,Austin Peppers,Rice,55.97,136.08,61.23,154.22,351.53,Single-ply,SBD,M
Boys,55.79,3,Austin Carter,Rio Vista,53.98,122.47,72.57,136.08,331.12,Single-ply,SBD,M
Boys,55.79,4,Peyton Shirey,Scurry-Rosser,55.52,108.86,61.23,111.13,281.23,Single-ply,SBD,M
Boys,55.79,5,Josh Linton,Blooming Grove,54.88,104.33,45.36,104.33,254.01,Single-ply,SBD,M
Boys,55.79,6,Tyrek Landry,Fairfield,52.53,97.52,54.43,92.99,244.94,Single-ply,SBD,M
Boys,67.13,1,Codie Pair,Rice,60.06,151.95,115.67,165.56,433.18,Single-ply,SBD,M
Boys,67.13,2,Cameron Yates,Scurry-Rosser,59.96,131.54,81.65,138.35,351.53,Single-ply,SBD,M
Boys,59.87,3,Jacob McLean,Scurry-Rosser,59.69,127.01,68.04,136.08,331.12,Single-ply,SBD,M
Boys,67.13,4,Mason Alexander,Scurry-Rosser,60.06,120.2,74.84,127.01,322.05,Single-ply,SBD,M
Boys,59.87,5,Roque Bautista,Rio Vista,57.24,102.06,68.04,131.54,301.64,Single-ply,SBD,M
Boys,59.87,6,Nick Snograss,Blooming Grove,57.29,90.72,49.9,115.67,256.28,Single-ply,SBD,M
Boys,59.87,7,Stone Bankston,Scurry-Rosser,59.51,86.18,49.9,120.2,256.28,Single-ply,SBD,M
Boys,67.13,1,Tristan Lachapelle,Rice,65.05,163.29,108.86,145.15,417.3,Single-ply,SBD,M
Boys,67.13,2,Devin Eggins,Fairfield,63.87,167.83,88.45,142.88,399.16,Single-ply,SBD,M
Boys,67.13,3,Osvalso Solis,Rice,66.77,170.1,81.65,142.88,394.63,Single-ply,SBD,M
Boys,67.13,4,Jonathan Childers,Fairfield,66.86,151.95,83.91,145.15,381.02,Single-ply,SBD,M
Boys,67.13,5,Mike Owens,Milford,61.87,142.88,72.57,154.22,369.68,Single-ply,SBD,M
Boys,67.13,6,Darius Dorsey,Mexia,65.23,127.01,92.99,136.08,356.07,Single-ply,SBD,M
Boys,67.13,7,Ben Nichols,Blooming Grove,62.78,140.61,74.84,136.08,351.53,Single-ply,SBD,M
Boys,67.13,DQ,Dalton Blake,Blooming Grove,64.95,,,,,Single-ply,SBD,M
Boys,67.13,DQ,Steven Kalish,Corsicana Mildred,65.95,92.99,,,,Single-ply,SBD,M
Boys,82.1,1,Chris Atchley,Rice,74.93,188.24,113.4,192.78,494.42,Single-ply,SBD,M
Boys,74.84,2,Jeremy Ballard,Corsicana Mildred,74.3,190.51,102.06,199.58,492.15,Single-ply,SBD,M
Boys,74.84,3,Shadrach Newman,Italy,71.4,176.9,92.99,154.22,424.11,Single-ply,SBD,M
Boys,74.84,4,Dalton Wasinger,Blooming Grove,72.67,149.69,90.72,151.95,392.36,Single-ply,SBD,M
Boys,74.84,5,Jesse Landess,Scurry-Rosser,73.21,136.08,79.38,131.54,347,Single-ply,SBD,M
Boys,74.84,6,JaColby Forge,Mexia,68.31,129.27,70.31,136.08,335.66,Single-ply,SBD,M
Boys,82.1,DQ,Marques Roundtree,Blooming Grove,74.98,,,,,Single-ply,SBD,M
Boys,82.1,1,Robert Robinson,Mexia,81.37,215.46,108.86,210.92,535.24,Single-ply,SBD,M
Boys,82.1,2,Jeremiah Simpson,Fairfield,75.93,181.44,99.79,172.37,453.59,Single-ply,SBD,M
Boys,82.1,3,Tj Graham,Scurry-Rosser,80.29,142.88,113.4,161.03,417.3,Single-ply,SBD,M
Boys,82.1,4,Jimmy Landess,Scurry-Rosser,82.1,149.69,72.57,161.03,383.29,Single-ply,SBD,M
Boys,82.1,5,Dalton McCarter,Blooming Grove,77.66,140.61,68.04,145.15,353.8,Single-ply,SBD,M
Boys,82.1,6,Cody Neal,Mexia,78.93,99.79,65.77,108.86,274.42,Single-ply,SBD,M
Boys,82.1,DQ,Samuel Espinosa,Blooming Grove,80.74,95.25,,,,Single-ply,SBD,M
Boys,89.81,1,Jayson Day,Scurry-Rosser,89.09,204.12,120.2,174.63,498.95,Single-ply,SBD,M
Boys,89.81,2,Jon Cochran,Blooming Grove,86.64,201.85,120.2,170.1,492.15,Single-ply,SBD,M
Boys,89.81,3,Danny Cockerell,Fairfield,84.91,181.44,99.79,165.56,446.79,Single-ply,SBD,M
Boys,89.81,4,Keanu Fathal,Corsicana Mildred,86.64,165.56,106.59,158.76,430.91,Single-ply,SBD,M
Boys,89.81,5,Cole Beddingfield,Fairfield,87.09,170.1,83.91,147.42,401.43,Single-ply,SBD,M
Boys,89.81,6,Justins Robbins,Italy,89.63,124.74,77.11,163.29,365.14,Single-ply,SBD,M
Boys,89.81,7,Johnny Bustamante,Blooming Grove,88.13,136.08,68.04,120.2,324.32,Single-ply,SBD,M
Boys,89.81,8,Rahi Patel,Mexia,88.18,90.72,81.65,124.74,297.1,Single-ply,SBD,M
Boys,89.81,9,Barrett Baker,Rio Vista,88.9,108.86,54.43,111.13,274.42,Single-ply,SBD,M
Boys,89.81,DQ,Levi Darby,Mexia,85.09,,,,,Single-ply,SBD,M
Boys,99.79,1,Cody Sell,Fairfield,98.7,244.94,154.22,235.87,635.03,Single-ply,SBD,M
Boys,99.79,2,Brandon Morris,Scurry-Rosser,94.62,222.26,127.01,213.19,562.45,Single-ply,SBD,M
Boys,99.79,3,Ezavian Franklin,Dallas Life Oak Cliff,94.98,163.29,95.25,167.83,426.38,Single-ply,SBD,M
Boys,99.79,3,Ezavian Franklin,Dallas Life Oak Cliff,94.98,163.29,95.25,167.83,426.38,Single-ply,SBD,M
Boys,99.79,4,Arkiel Winn,Mexia,92.08,147.42,70.31,147.42,365.14,Single-ply,SBD,M
Boys,99.79,5,Jeremy Wood,Fairfield,90.54,140.61,81.65,138.35,360.61,Single-ply,SBD,M
Boys,99.79,6,Lewis Ferrell,Mexia,99.25,111.13,83.91,136.08,331.12,Single-ply,SBD,M
Boys,109.77,1,Ragan Henderson,Rice,108.41,254.01,158.76,299.37,712.14,Single-ply,SBD,M
Boys,109.77,2,Danny Hanna,Corsicana Mildred,109.32,204.12,142.88,213.19,560.19,Single-ply,SBD,M
Boys,109.77,3,Cortlund Rice,Mexia,107.86,206.38,147.42,197.31,551.11,Single-ply,SBD,M
Boys,109.77,4,Justin Smith,Rice,106.23,197.31,115.67,197.31,510.29,Single-ply,SBD,M
Boys,109.77,5,Mario Villareal,Fairfield,102.69,201.85,106.59,181.44,489.88,Single-ply,SBD,M
Boys,124.74,6,Lane Cryer,Scurry-Rosser,109.95,158.76,106.59,170.1,435.45,Single-ply,SBD,M
Boys,109.77,7,Marquis McCullen,Mexia,102.78,163.29,70.31,181.44,415.04,Single-ply,SBD,M
Boys,109.77,8,Rolando Duran,Mexia,106.68,156.49,102.06,156.49,415.04,Single-ply,SBD,M
Boys,109.77,9,Jermal Warren,Dallas Life Oak Cliff,104.24,147.42,120.2,136.08,403.7,Single-ply,SBD,M
Boys,109.77,9,Jermal Warren,Dallas Life Oak Cliff,104.24,147.42,120.2,136.08,403.7,Single-ply,SBD,M
Boys,109.77,10,Ricky Reyes,Mexia,108.59,158.76,92.99,149.69,401.43,Single-ply,SBD,M
Boys,109.77,11,Cody Betser,Fairfield,103.78,149.69,88.45,133.81,371.95,Single-ply,SBD,M
Boys,109.77,DQ,Daniel Rangel,Dallas Life Oak Cliff,102.24,,,,,Single-ply,SBD,M
Boys,109.77,DQ,Daniel Rangel,Dallas Life Oak Cliff,102.24,,,,,Single-ply,SBD,M
Boys,124.74,DQ,Reagan Cloud,Corsicana Mildred,123.2,,,,,Single-ply,SBD,M
Boys,124.74+,1,Quinton Carroll,Dallas Life Oak Cliff,129.18,240.4,138.35,215.46,594.21,Single-ply,SBD,M
Boys,124.74+,1,Quinton Carroll,Dallas Life Oak Cliff,129.18,240.4,138.35,215.46,594.21,Single-ply,SBD,M
Boys,124.74+,2,Johnathan Seabolt,Blooming Grove,141.16,249.48,136.08,181.44,566.99,Single-ply,SBD,M
Boys,124.74+,3,Garrett Lane,Blooming Grove,135.31,204.12,113.4,181.44,498.95,Single-ply,SBD,M
Boys,124.74+,4,Jesus Garcia,Dallas Life Oak Cliff,129.73,161.03,92.99,179.17,433.18,Single-ply,SBD,M
Boys,124.74+,4,Jesus Garcia,Dallas Life Oak Cliff,129.73,161.03,92.99,179.17,433.18,Single-ply,SBD,M
