Division,WeightClassKg,Place,Name,Team,BodyweightKg,Best3SquatKg,Best3BenchKg,Best3DeadliftKg,TotalKg,Equipment,Event,Sex
Boys,55.79,1,Zeke Sosa,Big Lake Reagan County,51.8,117.93,70.31,136.08,324.32,Single-ply,SBD,M
Boys,51.71,2,Henry Ramos,Sonora,50.26,104.33,52.16,113.4,269.89,Single-ply,SBD,M
Boys,51.71,3,Preston McCutcheon,Ozona,48.72,99.79,49.9,111.13,260.82,Single-ply,SBD,M
Boys,55.79,1,Marco Sandate,San Angelo Lake View,52.16,99.79,70.31,131.54,301.64,Single-ply,SBD,M
Boys,59.87,1,Oscar Salgado,Alpine,59.87,136.08,97.52,161.03,394.63,Single-ply,SBD,M
Boys,59.87,2,Brandon Lee,San Angelo Lake View,59.78,158.76,68.04,158.76,385.55,Single-ply,SBD,M
Boys,59.87,3,Rico Rodriguez,Sonora,59.42,127.01,81.65,129.27,337.93,Single-ply,SBD,M
Boys,59.87,4,Manny Villanueva,San Angelo Central,58.51,136.08,72.57,122.47,331.12,Single-ply,SBD,M
Boys,59.87,5,Anthony Jones,San Angelo Grape Creek,59.06,127.01,65.77,131.54,324.32,Single-ply,SBD,M
Boys,67.13,1,John Jurado,Ozona,67.04,195.04,92.99,195.04,483.08,Single-ply,SBD,M
Boys,67.13,2,Austin Ramirez,Iraan,67.13,165.56,88.45,201.85,455.86,Single-ply,SBD,M
Boys,67.13,3,Robert Sauceda,San Angelo Central,67.13,165.56,106.59,161.03,433.18,Single-ply,SBD,M
Boys,67.13,4,Efren Morales,San Angelo Central,61.14,147.42,99.79,156.49,403.7,Single-ply,SBD,M
Boys,67.13,5,Felix Guerra,Sonora,64.23,142.88,88.45,142.88,374.21,Single-ply,SBD,M
Boys,67.13,6,Joseph Alcala,San Angelo Lake View,66.86,117.93,81.65,170.1,369.68,Single-ply,SBD,M
Boys,67.13,7,Javier Garcia,Eldorado,62.41,140.61,81.65,145.15,367.41,Single-ply,SBD,M
Boys,67.13,8,Salvador Lopez,Sonora,64.86,136.08,79.38,145.15,360.61,Single-ply,SBD,M
Boys,67.13,9,Glenn Crowder,Iraan,60.69,131.54,68.04,158.76,358.34,Single-ply,SBD,M
Boys,67.13,10,James Bradley,Ozona,65.59,129.27,86.18,131.54,347,Single-ply,SBD,M
Boys,74.84,11,Dylan Perdue,San Angelo Central,67.22,127.01,95.25,122.47,344.73,Single-ply,SBD,M
Boys,67.13,12,Alberto Rodriguez,Ozona,62.69,104.33,43.09,97.52,244.94,Single-ply,SBD,M
Boys,67.13,DQ,Alex Rivas,Alpine,60.96,115.67,,,,Single-ply,SBD,M
Boys,74.84,1,Angel Moreno,San Angelo Lake View,73.94,240.4,142.88,208.65,591.94,Single-ply,SBD,M
Boys,74.84,2,Luke Parker,Christoval,74.39,197.31,106.59,197.31,501.22,Single-ply,SBD,M
Boys,74.84,3,Cole Hunt,Alpine,74.48,163.29,108.86,210.92,483.08,Single-ply,SBD,M
Boys,74.84,4,Cp Aguilera,San Angelo Lake View,73.57,165.56,108.86,195.04,469.47,Single-ply,SBD,M
Boys,74.84,5,Cody Ortiz,Big Lake Reagan County,70.76,185.97,92.99,183.7,462.66,Single-ply,SBD,M
Boys,74.84,6,Juan Marquez,Big Lake Reagan County,71.4,158.76,90.72,172.37,421.84,Single-ply,SBD,M
Boys,74.84,7,Jonathon Focha,Ozona,73.03,149.69,72.57,199.58,421.84,Single-ply,SBD,M
Boys,74.84,8,Jonathan Gutierrez,Sonora,71.3,165.56,92.99,149.69,408.23,Single-ply,SBD,M
Boys,74.84,9,Raymond Parsons,San Angelo Grape Creek,67.86,136.08,81.65,154.22,371.95,Single-ply,SBD,M
Boys,74.84,10,John Trevino,San Angelo Central,71.03,129.27,92.99,149.69,371.95,Single-ply,SBD,M
Boys,74.84,11,Brandon King,Crane,70.76,140.61,83.91,142.88,367.41,Single-ply,SBD,M
Boys,74.84,12,Kelly Kennedy,San Angelo Grape Creek,68.58,127.01,72.57,136.08,335.66,Single-ply,SBD,M
Boys,74.84,13,Gage Glidewell,Alpine,68.31,113.4,65.77,142.88,322.05,Single-ply,SBD,M
Boys,74.84,14,Matthew Salisbury,San Angelo Grape Creek,67.86,122.47,68.04,129.27,319.78,Single-ply,SBD,M
Boys,82.1,1,Rikkie Ruschenberg,San Angelo Grape Creek,81.65,229.06,117.93,208.65,555.65,Single-ply,SBD,M
Boys,82.1,2,Caleb Hudson,San Angelo Lake View,76.02,190.51,108.86,208.65,508.02,Single-ply,SBD,M
Boys,82.1,3,Kevin O'Dell,San Angelo Grape Creek,79.65,172.37,104.33,179.17,455.86,Single-ply,SBD,M
Boys,82.1,4,Alexis Armendariz,Alpine,77.84,151.95,106.59,195.04,453.59,Single-ply,SBD,M
Boys,82.1,5,Sam Jacobs,Christoval,77.29,167.83,92.99,181.44,442.25,Single-ply,SBD,M
Boys,82.1,6,Elias Terrazes,Alpine,79.11,154.22,86.18,167.83,408.23,Single-ply,SBD,M
Boys,82.1,7,Trace Hariman,Eldorado,80.65,149.69,97.52,149.69,396.89,Single-ply,SBD,M
Boys,82.1,8,Nick Miller,Alpine,80.38,149.69,79.38,165.56,394.63,Single-ply,SBD,M
Boys,89.81,9,Tyler Curtis,Alpine,82.19,136.08,86.18,163.29,385.55,Single-ply,SBD,M
Boys,82.1,10,Lagen Smith,Crane,80.65,149.69,90.72,79.38,319.78,Single-ply,SBD,M
Boys,89.81,1,Trenton Gardner,Big Lake Reagan County,84.64,204.12,106.59,195.04,505.76,Single-ply,SBD,M
Boys,99.79,2,Pecos Silva,Christoval,89.9,181.44,106.59,195.04,483.08,Single-ply,SBD,M
Boys,89.81,3,Osbaldo Vega,Crane,87.63,170.1,124.74,183.7,478.54,Single-ply,SBD,M
Boys,89.81,4,Fabian Gomez,Eldorado,83.28,167.83,106.59,181.44,455.86,Single-ply,SBD,M
Boys,99.79,DQ,Angel Aguilera,Big Lake Reagan County,89.99,256.28,111.13,,,Single-ply,SBD,M
Boys,109.77,1,Aron Quezada,San Angelo Lake View,99.88,219.99,140.61,219.99,580.6,Single-ply,SBD,M
Boys,99.79,2,Gio Galindo,San Angelo Lake View,97.7,199.58,140.61,231.33,571.53,Single-ply,SBD,M
Boys,99.79,3,Blas Guerro,San Angelo Central,98.88,222.26,124.74,201.85,548.85,Single-ply,SBD,M
Boys,109.77,4,Wade Pierce,Iraan,99.88,181.44,142.88,219.99,544.31,Single-ply,SBD,M
Boys,99.79,5,Cody Stephens,Crane,97.98,188.24,145.15,208.65,542.04,Single-ply,SBD,M
Boys,99.79,6,Alex Perez,San Angelo Grape Creek,99.43,197.31,99.79,190.51,487.61,Single-ply,SBD,M
Boys,99.79,7,Kevin Dean,Eldorado,98.97,181.44,104.33,199.58,485.34,Single-ply,SBD,M
Boys,99.79,8,Sammy Villarreal,Alpine,91.81,142.88,99.79,167.83,410.5,Single-ply,SBD,M
Boys,99.79,9,Daniel Lopez,San Angelo Central,97.98,151.95,83.91,161.03,396.89,Single-ply,SBD,M
Boys,99.79,10,Noah Johnson,San Angelo Lake View,96.43,145.15,79.38,149.69,374.21,Single-ply,SBD,M
Boys,99.79,DQ,Louis De La Rosa,Big Lake Reagan County,91.53,,,,,Single-ply,SBD,M
Boys,109.77,1,Nate Newton,San Angelo Central,104.6,229.06,136.08,204.12,569.26,Single-ply,SBD,M
Boys,109.77,2,Adrian Hernandez,San Angelo Grape Creek,107.23,222.26,115.67,217.72,555.65,Single-ply,SBD,M
Boys,109.77,3,Ethan Patlan,Sonora,102.06,190.51,145.15,190.51,526.17,Single-ply,SBD,M
Boys,109.77,4,Angel DeLuna,Sonora,105.96,204.12,108.86,206.38,519.36,Single-ply,SBD,M
Boys,109.77,5,Dakota Short,Big Lake Reagan County,108.77,217.72,97.52,154.22,469.47,Single-ply,SBD,M
Boys,109.77,6,Bryndon Robles,Sonora,106.78,156.49,113.4,149.69,419.57,Single-ply,SBD,M
Boys,109.77,DQ,James Phillips,Crane,101.33,,,,,Single-ply,SBD,M
Boys,124.74,1,Josue Damian,Ozona,110.95,260.82,129.27,226.8,616.89,Single-ply,SBD,M
Boys,124.74,2,Kelton Bales,Iraan,123.29,263.08,124.74,215.46,603.28,Single-ply,SBD,M
Boys,124.74,3,Daren Hernandez,San Angelo Central,116.66,224.53,131.54,210.92,566.99,Single-ply,SBD,M
Boys,124.74,4,Antonio Perez,San Angelo Grape Creek,120.56,185.97,158.76,204.12,548.85,Single-ply,SBD,M
Boys,124.74,5,Zack Taylor,Ozona,115.98,217.72,113.4,179.17,510.29,Single-ply,SBD,M
Boys,124.74,6,JD Esquivel,Big Lake Reagan County,110.5,183.7,90.72,204.12,478.54,Single-ply,SBD,M
Boys,124.74+,1,Dj Schlather,San Angelo Lake View,134.54,249.48,151.95,235.87,637.3,Single-ply,SBD,M
Boys,124.74+,2,Ernie Veloz,Big Lake Reagan County,131.63,254.01,108.86,192.78,555.65,Single-ply,SBD,M
Boys,124.74+,3,Elijah Davis,San Angelo Lake View,139.71,174.63,83.91,176.9,435.45,Single-ply,SBD,M
Boys,124.74+,4,Robert McKee,McCamey,127.46,147.42,90.72,136.08,374.21,Single-ply,SBD,M
Boys,,NS,Tailor Hunt,San Angelo Central,,,,,,Single-ply,SBD,M
Boys,,NS,Daniel Bragg,Alpine,,,,,,Single-ply,SBD,M
Boys,,NS,Robert Reyes,Iraan,,,,,,Single-ply,SBD,M
