Division,WeightClassKg,Place,Name,Team,BodyweightKg,Best3SquatKg,Best3BenchKg,Best3DeadliftKg,TotalKg,Equipment,Event,Sex
Boys,55.79,1,Hector Elizondo,Sharyland Pioneer,51.8,149.69,77.11,161.03,387.82,Single-ply,SBD,M
Boys,51.71,2,Anthony Garcia,Weslaco,49.44,131.54,81.65,154.22,367.41,Single-ply,SBD,M
Boys,51.71,3,Alex Mena,Weslaco,50.35,136.08,74.84,142.88,353.8,Single-ply,SBD,M
Boys,55.79,1,Vince Hernandez,Pharr Valley View,55.7,183.7,102.06,190.51,476.27,Single-ply,SBD,M
Boys,55.79,2,Mike Barajas,Hidalgo Early College,55.79,154.22,99.79,183.7,437.72,Single-ply,SBD,M
Boys,55.79,3,Julian Ortega,Rio Hondo,53.71,151.95,102.06,181.44,435.45,Single-ply,SBD,M
Boys,59.87,4,Juan Tamez,Weslaco East,55.88,163.29,83.91,161.03,408.23,Single-ply,SBD,M
Boys,55.79,5,Marvin Cerda,Brownsville Hanna,55.07,111.13,65.77,111.13,288.03,Single-ply,SBD,M
Boys,67.13,1,Oscar Monjaras,Pharr Valley View,60.06,217.72,111.13,213.19,542.04,Single-ply,SBD,M
Boys,59.87,2,Branden Barajas,Hidalgo Early College,59.42,136.08,74.84,172.37,383.29,Single-ply,SBD,M
Boys,59.87,3,Esai Marez,Mission Sharyland,59.33,117.93,65.77,136.08,319.78,Single-ply,SBD,M
Boys,59.87,4,Elijah Ramirez,Port Isabel,58.51,113.4,61.23,120.2,294.84,Single-ply,SBD,M
Boys,67.13,DQ,Aaron Anguiano,Pharr Valley View,60.06,,,,,Single-ply,SBD,M
Boys,67.13,1,Julian Flores,Rio Hondo,67.13,199.58,129.27,204.12,532.97,Single-ply,SBD,M
Boys,67.13,2,Denzel Castro,Weslaco East,66.68,183.7,117.93,204.12,505.76,Single-ply,SBD,M
Boys,74.84,3,Jordan Aguilar,Mercedes,67.22,190.51,129.27,183.7,503.49,Single-ply,SBD,M
Boys,74.84,4,Marcus Caceres,Weslaco East,67.31,172.37,129.27,197.31,498.95,Single-ply,SBD,M
Boys,67.13,5,Salvador Gonzalez,Sharyland Pioneer,66.68,185.97,102.06,195.04,483.08,Single-ply,SBD,M
Boys,67.13,6,Jorge Cavazos,Mercedes,67.13,174.63,113.4,170.1,458.13,Single-ply,SBD,M
Boys,67.13,7,Freddy Gonzalez,Weslaco East,66.13,158.76,104.33,172.37,435.45,Single-ply,SBD,M
Boys,67.13,8,David Gonzalez,Pharr Valley View,62.78,158.76,83.91,183.7,426.38,Single-ply,SBD,M
Boys,67.13,9,Dominic Ramos,Rio Hondo,65.77,151.95,102.06,142.88,396.89,Single-ply,SBD,M
Boys,67.13,10,Ian Vela,Port Isabel,63.5,127.01,65.77,142.88,335.66,Single-ply,SBD,M
Boys,67.13,DQ,Victor Acosta,Pharr Valley View,65.45,,,,,Single-ply,SBD,M
Boys,67.13,DQ,Rick Gonzalez,Brownsville Hanna,66.59,,,,,Single-ply,SBD,M
Boys,74.84,1,Chris Jackson,Weslaco,73.57,235.87,113.4,226.8,576.06,Single-ply,SBD,M
Boys,74.84,2,Ricardo Vela,Hidalgo Early College,74.39,208.65,115.67,238.14,562.45,Single-ply,SBD,M
Boys,74.84,3,Arturo Mancias,Brownsville Hanna,70.85,197.31,108.86,201.85,508.02,Single-ply,SBD,M
Boys,74.84,4,Romeo Lopez,Sharyland Pioneer,72.85,183.7,115.67,199.58,498.95,Single-ply,SBD,M
Boys,74.84,5,Alec Gonzalez,Mercedes,69.94,176.9,106.59,188.24,471.74,Single-ply,SBD,M
Boys,74.84,6,Brandon Ramos,La Joya,72.48,201.85,95.25,172.37,469.47,Single-ply,SBD,M
Boys,74.84,7,Octavio De La Cruz,Hidalgo Early College,74.21,165.56,111.13,183.7,460.4,Single-ply,SBD,M
Boys,74.84,8,Michael Valle,Hidalgo Early College,69.85,156.49,90.72,179.17,426.38,Single-ply,SBD,M
Boys,74.84,9,Gustavo Antonio,Port Isabel,71.67,154.22,90.72,149.69,394.63,Single-ply,SBD,M
Boys,74.84,10,Javier Guzman,Rio Hondo,70.31,142.88,102.06,145.15,390.09,Single-ply,SBD,M
Boys,74.84,11,Jorge Valenzuela,Hidalgo Early College,70.76,108.86,79.38,129.27,317.51,Single-ply,SBD,M
Boys,74.84,DQ,Roel Benitez,Rio Hondo,73.94,208.65,,,,Single-ply,SBD,M
Boys,74.84,DQ,Gilbert Guajardo,Pharr Valley View,73.94,226.8,129.27,,,Single-ply,SBD,M
Boys,74.84,DQ,Noe Rodriguez,Edcouch-Elsa,73.94,170.1,,,,Single-ply,SBD,M
Boys,74.84,DQ,Jesus Perez,Los Fresnos,73.94,,,,,Single-ply,SBD,M
Boys,74.84,DQ,Alejandro Santisteban,La Joya,71.85,197.31,,,,Single-ply,SBD,M
Boys,82.1,1,Rigo Ayala,Edcouch-Elsa,81.69,249.48,151.95,238.14,639.57,Single-ply,SBD,M
Boys,82.1,2,Fabian Rodriguez,Los Fresnos,81.56,226.8,145.15,235.87,607.81,Single-ply,SBD,M
Boys,82.1,3,Jesus Reyna,Weslaco,81.28,215.46,136.08,226.8,578.33,Single-ply,SBD,M
Boys,82.1,4,Salvador Castillo,Mission Sharyland,79.65,208.65,115.67,235.87,560.19,Single-ply,SBD,M
Boys,82.1,5,Roy Pedraza,Weslaco East,78.47,213.19,136.08,204.12,553.38,Single-ply,SBD,M
Boys,82.1,6,Trey Caballero,Weslaco,81.19,199.58,127.01,219.99,546.58,Single-ply,SBD,M
Boys,82.1,7,Yonny Villarreal,La Joya,81.47,210.92,111.13,215.46,537.51,Single-ply,SBD,M
Boys,82.1,8,Joey Guzman,Rio Hondo,81.74,188.24,124.74,215.46,528.44,Single-ply,SBD,M
Boys,82.1,9,Senon Moya,Sharyland Pioneer,80.74,204.12,127.01,167.83,498.95,Single-ply,SBD,M
Boys,82.1,10,Andrew Cantu,Mission Sharyland,81.19,188.24,99.79,181.44,469.47,Single-ply,SBD,M
Boys,82.1,11,Carlos Zarate,Mission Sharyland,82.1,170.1,99.79,195.04,464.93,Single-ply,SBD,M
Boys,82.1,12,Ernesto Prescado,Pharr Valley View,80.29,161.03,108.86,183.7,453.59,Single-ply,SBD,M
Boys,82.1,13,Jesus Barrientes,Mercedes,82.1,170.1,108.86,170.1,449.06,Single-ply,SBD,M
Boys,82.1,14,Nicolas Hinojosa,La Joya,82.1,161.03,120.2,165.56,446.79,Single-ply,SBD,M
Boys,82.1,15,Pedro Hernandez,Rio Hondo,82.1,176.9,104.33,163.29,444.52,Single-ply,SBD,M
Boys,82.1,16,Roger Adame,Mercedes,81.74,170.1,95.25,158.76,424.11,Single-ply,SBD,M
Boys,82.1,DQ,Carlos Martinez,Sharyland Pioneer,80.83,,,,,Single-ply,SBD,M
Boys,82.1,DQ,Esai Camacho,Port Isabel,81.65,210.92,120.2,,,Single-ply,SBD,M
Boys,89.81,1,Seth Garcia,Edcouch-Elsa,89.54,256.28,131.54,265.35,653.17,Single-ply,SBD,M
Boys,89.81,2,David Decanini,Weslaco East,89.36,210.92,113.4,208.65,532.97,Single-ply,SBD,M
Boys,89.81,3,Albino Mendez,Pharr Valley View,89.63,226.8,104.33,183.7,514.83,Single-ply,SBD,M
Boys,89.81,4,David Cantu,Mission Sharyland,89.81,215.46,113.4,174.63,503.49,Single-ply,SBD,M
Boys,89.81,5,Issac Aleman,Hidalgo Early College,83.01,183.7,115.67,201.85,501.22,Single-ply,SBD,M
Boys,89.81,6,Lazaro Bernabe,Hidalgo Early College,89.81,183.7,102.06,183.7,469.47,Single-ply,SBD,M
Boys,89.81,7,Bryan Smith,Mercedes,82.74,172.37,113.4,170.1,455.86,Single-ply,SBD,M
Boys,89.81,8,Joel Moreno,Mission Sharyland,89.72,142.88,102.06,174.63,419.57,Single-ply,SBD,M
Boys,89.81,9,Ty Rhyner,Rio Hondo,86.27,142.88,97.52,136.08,376.48,Single-ply,SBD,M
Boys,89.81,DQ,Richard Wells,Port Isabel,89.81,102.06,,,,Single-ply,SBD,M
Boys,89.81,DQ,Javier Skinner,Rio Hondo,89.45,204.12,,,,Single-ply,SBD,M
Boys,89.81,DQ,Nathan Silva,Brownsville Hanna,86.45,219.99,,,,Single-ply,SBD,M
Boys,99.79,1,Heriberto Hernandez,Weslaco,97.79,258.55,142.88,242.67,644.1,Single-ply,SBD,M
Boys,99.79,2,Elijah Sanchez,Edcouch-Elsa,99.56,244.94,172.37,226.8,644.1,Single-ply,SBD,M
Boys,99.79,3,Eddie Gomez,Edcouch-Elsa,99.52,272.16,131.54,233.6,637.3,Single-ply,SBD,M
Boys,99.79,4,Alex Valadez,Brownsville Hanna,97.52,229.06,154.22,233.6,616.89,Single-ply,SBD,M
Boys,99.79,5,Ricky Arreola,Brownsville Hanna,97.7,217.72,145.15,167.83,530.7,Single-ply,SBD,M
Boys,99.79,6,Sam Rodriguez,La Joya,97.16,192.78,131.54,201.85,526.17,Single-ply,SBD,M
Boys,99.79,7,Leo Gonzalez,Brownsville Hanna,91.81,192.78,106.59,215.46,514.83,Single-ply,SBD,M
Boys,99.79,8,Juan Resendez,La Joya,99.79,176.9,138.35,190.51,505.76,Single-ply,SBD,M
Boys,99.79,9,José Fernández,La Joya,99.06,172.37,95.25,174.63,442.25,Single-ply,SBD,M
Boys,99.79,10,Adolfo Trevino,Mission Sharyland,97.07,170.1,111.13,154.22,435.45,Single-ply,SBD,M
Boys,99.79,11,Carlos Bocanegra,Port Isabel,99.34,161.03,106.59,127.01,394.63,Single-ply,SBD,M
Boys,109.77,1,Jose Gomez,Mercedes,109.77,233.6,142.88,229.06,605.55,Single-ply,SBD,M
Boys,109.77,2,Rolando Villanueva,Brownsville Hanna,107.59,233.6,147.42,206.38,587.4,Single-ply,SBD,M
Boys,109.77,3,Freddy Martinez,Los Fresnos,107.05,201.85,138.35,210.92,551.11,Single-ply,SBD,M
Boys,109.77,4,Roel Sosa,La Joya,105.05,235.87,129.27,181.44,546.58,Single-ply,SBD,M
Boys,109.77,DQ,Rey Rodriguez,Pharr Valley View,103.87,258.55,,,,Single-ply,SBD,M
Boys,109.77,DQ,Manny Hernandez,Rio Hondo,108.14,215.46,124.74,,,Single-ply,SBD,M
Boys,124.74,1,Gabriel Rodriguez,Edcouch-Elsa,124.51,385.55,210.92,272.16,868.63,Single-ply,SBD,M
Boys,124.74,2,Julio Contreras,Edcouch-Elsa,124.51,322.05,158.76,260.82,741.62,Single-ply,SBD,M
Boys,124.74,3,Andrew Salazar,Pharr Valley View,118.84,278.96,204.12,238.14,721.21,Single-ply,SBD,M
Boys,124.74,4,Rudy De La Torre,Weslaco,117.03,242.67,115.67,201.85,560.19,Single-ply,SBD,M
Boys,124.74,5,Adrian Arredondo,Brownsville Hanna,112.13,219.99,142.88,192.78,555.65,Single-ply,SBD,M
Boys,124.74,DQ,Ricky Leyva,La Joya,121.56,,,,,Single-ply,SBD,M
Boys,124.74+,1,Bruce Castro,Los Fresnos,142.88,272.16,156.49,240.4,669.05,Single-ply,SBD,M
Boys,124.74+,2,Brandon Perez,Weslaco,148.78,244.94,136.08,213.19,594.21,Single-ply,SBD,M
Boys,124.74+,3,Daniel Solis,La Joya,149.69,244.94,129.27,204.12,578.33,Single-ply,SBD,M
Boys,124.74+,4,Danny Melendez,Mercedes,146.24,240.4,122.47,195.04,557.92,Single-ply,SBD,M
Boys,124.74+,5,Andres Garcia,Weslaco East,125.55,208.65,131.54,181.44,521.63,Single-ply,SBD,M
