Division,WeightClassKg,Place,Name,Team,BodyweightKg,Best3SquatKg,Best3BenchKg,Best3DeadliftKg,TotalKg,Equipment,Event,Sex
Girls,44.23,1,Jailin Munoz,Lago Vista,40.82,90.72,34.02,92.99,217.72,Single-ply,SBD,F
Girls,44.23,2,Brianna Brudney,Lampasas,44.23,79.38,36.29,88.45,204.12,Single-ply,SBD,F
Girls,44.23,3,Hannah Zurovetz,Lago Vista,42.91,79.38,34.02,86.18,199.58,Single-ply,SBD,F
Girls,44.23,4,Lily Buckley,Lago Vista,41.91,72.57,31.75,77.11,181.44,Single-ply,SBD,F
Girls,44.23,5,Kennedy Cook,Florence,43,70.31,29.48,72.57,172.37,Single-ply,SBD,F
Girls,44.23,6,Haley Howton,Salado,38.65,56.7,34.02,74.84,165.56,Single-ply,SBD,F
Girls,47.85,1,Serina Saucedo,Lago Vista,45.9,92.99,40.82,95.25,229.06,Single-ply,SBD,F
Girls,47.85,2,Maci Holcomb,Lampasas,46.99,72.57,34.02,81.65,188.24,Single-ply,SBD,F
Girls,47.85,3,Lora Weaver,Brady,46.99,68.04,27.22,83.91,179.17,Single-ply,SBD,F
Girls,47.85,4,Rachel Bachman,Liberty Hill,47.81,58.97,31.75,68.04,158.76,Single-ply,SBD,F
Girls,47.85,5,Tancy Hester,Florence,45.9,61.23,22.68,61.23,145.15,Single-ply,SBD,F
Girls,51.94,1,Maddie Graham,Salado,51.62,113.4,61.23,129.27,303.91,Single-ply,SBD,F
Girls,51.94,2,Angel Galindo,Brady,50.98,102.06,52.16,106.59,260.82,Single-ply,SBD,F
Girls,51.94,3,Madeline McCulloch,Salado,49.53,102.06,47.63,102.06,251.74,Single-ply,SBD,F
Girls,51.94,4,Bailee Rowe,Gatesville,51.89,72.57,34.02,106.59,213.19,Single-ply,SBD,F
Girls,51.94,5,Traci Madden,Lampasas,51.8,70.31,36.29,68.04,174.63,Single-ply,SBD,F
Girls,56.02,1,Elizabeth Trejo,Gatesville,55.25,120.2,63.5,124.74,308.44,Single-ply,SBD,F
Girls,56.02,2,Hanna Monroe,Brady,55.97,124.74,43.09,117.93,285.76,Single-ply,SBD,F
Girls,56.02,3,Raquel Morado,Brady,53.52,102.06,54.43,120.2,276.69,Single-ply,SBD,F
Girls,56.02,4,Aisha Martinez,Brady,54.88,102.06,52.16,113.4,267.62,Single-ply,SBD,F
Girls,56.02,5,Felicia Perez,Llano,55.52,113.4,52.16,97.52,263.08,Single-ply,SBD,F
Girls,56.02,6,Gabrielle Ramirez,Florence,55.52,102.06,43.09,115.67,260.82,Single-ply,SBD,F
Girls,56.02,7,Cameron Tuggle,Lago Vista,54.7,106.59,40.82,104.33,251.74,Single-ply,SBD,F
Girls,56.02,8,Leilani Flores,Lampasas,53.89,95.25,49.9,88.45,233.6,Single-ply,SBD,F
Girls,56.02,9,Madeline Murray,Salado,53.07,92.99,34.02,102.06,229.06,Single-ply,SBD,F
Girls,56.02,10,Mariela Torres,Burnet,55.16,79.38,43.09,81.65,204.12,Single-ply,SBD,F
Girls,56.02,11,Hannah Dean,Liberty Hill,53.61,72.57,31.75,83.91,188.24,Single-ply,SBD,F
Girls,56.02,12,Karina Nevarez,Lampasas,54.79,68.04,31.75,79.38,179.17,Single-ply,SBD,F
Girls,56.02,13,Makenna Savage,Liberty Hill,52.25,52.16,34.02,68.04,154.22,Single-ply,SBD,F
Girls,60.1,1,Cassy Carlton,Lago Vista,58.42,131.54,52.16,117.93,301.64,Single-ply,SBD,F
Girls,60.1,2,Meredith Moore,Llano,58.6,111.13,52.16,113.4,276.69,Single-ply,SBD,F
Girls,60.1,3,Kayla Ledezma,Brady,59.87,106.59,52.16,111.13,269.89,Single-ply,SBD,F
Girls,60.1,4,Victoria Bell,Burnet,59.42,104.33,52.16,111.13,267.62,Single-ply,SBD,F
Girls,60.1,5,Taylor Navarette,Florence,57.24,102.06,43.09,106.59,251.74,Single-ply,SBD,F
Girls,60.1,6,Jenna Vann,Lampasas,56.7,95.25,45.36,102.06,242.67,Single-ply,SBD,F
Girls,60.1,7,Sienna Lawson,Lampasas,59.6,83.91,40.82,108.86,233.6,Single-ply,SBD,F
Girls,60.1,8,Jayci Craig,Burnet,58.24,99.79,36.29,92.99,229.06,Single-ply,SBD,F
Girls,60.1,9,Jillian Lobstein,Brady,56.61,86.18,47.63,92.99,226.8,Single-ply,SBD,F
Girls,60.1,10,Montana Hallmark,Lampasas,57.42,86.18,38.56,90.72,215.46,Single-ply,SBD,F
Girls,60.1,11,Serena Farries,Liberty Hill,59.24,86.18,36.29,90.72,213.19,Single-ply,SBD,F
Girls,60.1,12,Caroline Birnbaum,Salado,59.78,61.23,45.36,88.45,195.04,Single-ply,SBD,F
Girls,60.1,13,Mary Griego,Gatesville,57.7,52.16,40.82,83.91,176.9,Single-ply,SBD,F
Girls,60.1,14,Kirsten Draper,Liberty Hill,59.06,63.5,34.02,79.38,176.9,Single-ply,SBD,F
Girls,60.1,15,Katie Champion,Salado,57.42,58.97,34.02,63.5,156.49,Single-ply,SBD,F
Girls,67.36,1,Leslie Hernandez,Brady,62.14,136.08,61.23,149.69,347,Single-ply,SBD,F
Girls,67.36,2,Gabby Martinez,Lampasas,66.22,127.01,54.43,129.27,310.71,Single-ply,SBD,F
Girls,67.36,3,Jennilee Tamplen,Florence,62.6,124.74,43.09,127.01,294.84,Single-ply,SBD,F
Girls,67.36,4,Audrey Reese,Lampasas,61.51,95.25,45.36,115.67,256.28,Single-ply,SBD,F
Girls,67.36,5,Elizabeth Montes,Liberty Hill,62.78,102.06,45.36,104.33,251.74,Single-ply,SBD,F
Girls,67.36,6,Tuesday Brown,Lampasas,63.87,88.45,47.63,111.13,247.21,Single-ply,SBD,F
Girls,67.36,7,Kaylie Davidson,Salado,66.22,79.38,,,79.38,Single-ply,S,F
Girls,75.07,1,Lana Waddle,Lago Vista,73.03,154.22,65.77,138.35,358.34,Single-ply,SBD,F
Girls,75.07,2,Michelle Gonzales,Brady,73.66,138.35,70.31,136.08,344.73,Single-ply,SBD,F
Girls,75.07,3,Maria Lozada,Gatesville,71.03,131.54,63.5,142.88,337.93,Single-ply,SBD,F
Girls,75.07,4,Courtney Owen,Bangs,72.39,108.86,58.97,131.54,299.37,Single-ply,SBD,F
Girls,75.07,5,Jillian Brewer,Florence,69.94,117.93,70.31,106.59,294.84,Single-ply,SBD,F
Girls,75.07,6,Ariana Wilkinson,Lampasas,71.4,108.86,61.23,124.74,294.84,Single-ply,SBD,F
Girls,75.07,7,Jasmin Medina,Gatesville,74.16,108.86,54.43,129.27,292.57,Single-ply,SBD,F
Girls,75.07,8,Ashley Rosales,Florence,73.21,129.27,49.9,108.86,288.03,Single-ply,SBD,F
Girls,75.07,9,Pam Griego,Gatesville,74.84,97.52,65.77,113.4,276.69,Single-ply,SBD,F
Girls,75.07,10,Eva Beebe,Lago Vista,68.31,104.33,47.63,120.2,272.16,Single-ply,SBD,F
Girls,75.07,11,Crystal Montes,Lago Vista,73.48,113.4,43.09,113.4,269.89,Single-ply,SBD,F
Girls,75.07,12,Amie Hernandez,Lampasas,69.13,83.91,54.43,113.4,251.74,Single-ply,SBD,F
Girls,75.07,13,Brynn Wittenburg,Lampasas,70.85,95.25,49.9,95.25,240.4,Single-ply,SBD,F
Girls,75.07,14,Mariela Suarez,Lampasas,68.22,92.99,36.29,102.06,231.33,Single-ply,SBD,F
Girls,75.07,15,Hope Moseley,Lampasas,70.67,83.91,43.09,95.25,222.26,Single-ply,SBD,F
Girls,82.33,1,Amanda Stiles,Florence,80.01,154.22,92.99,140.61,387.82,Single-ply,SBD,F
Girls,82.33,2,Sara Estes,Brady,78.74,142.88,68.04,145.15,356.07,Single-ply,SBD,F
Girls,82.33,3,Marina Sanchez,Brady,78.38,136.08,52.16,149.69,337.93,Single-ply,SBD,F
Girls,82.33,4,Arleth Fraga,Brady,80.38,124.74,61.23,124.74,310.71,Single-ply,SBD,F
Girls,82.33,5,Maria Reza,Brady,81.83,124.74,54.43,124.74,303.91,Single-ply,SBD,F
Girls,82.33,6,Jeralyn Bunting,Lampasas,79.47,111.13,52.16,120.2,283.5,Single-ply,SBD,F
Girls,82.33,7,Kristin Cox,Liberty Hill,80.56,117.93,49.9,108.86,276.69,Single-ply,SBD,F
Girls,82.33,8,Victoria Clayton,Lampasas,80.01,99.79,43.09,124.74,267.62,Single-ply,SBD,F
Girls,82.33,9,Ilaysah Broadnax,Gatesville,78.38,83.91,52.16,86.18,222.26,Single-ply,SBD,F
Girls,82.33,10,Kami Keith,Bangs,76.93,61.23,38.56,74.84,174.63,Single-ply,SBD,F
Girls,90.04,1,Corinna Lyon,Gatesville,86.82,142.88,83.91,145.15,371.95,Single-ply,SBD,F
Girls,90.04,2,Ximena Gutierrez,Florence,86.91,122.47,49.9,117.93,290.3,Single-ply,SBD,F
Girls,90.04,3,Amanda Mena,Liberty Hill,87.27,115.67,49.9,124.74,290.3,Single-ply,SBD,F
Girls,90.04,4,Alicia Mendoza,Lago Vista,87,115.67,45.36,120.2,281.23,Single-ply,SBD,F
Girls,90.04,5,Rachel Wilk,Salado,89.18,92.99,49.9,122.47,265.35,Single-ply,SBD,F
Girls,90.04,6,Mikeala Hudson,Brady,87.27,92.99,38.56,90.72,222.26,Single-ply,SBD,F
Girls,90.04,7,Kailey Bow,Burnet,88.63,77.11,38.56,99.79,215.46,Single-ply,SBD,F
Girls,100.02,1,KayDee Sexton,Gatesville,93.35,181.44,106.59,154.22,442.25,Single-ply,SBD,F
Girls,100.02,2,Cursti Cope,Gatesville,91.72,170.1,136.08,133.81,439.98,Single-ply,SBD,F
Girls,100.02,3,Gaby Angel,Florence,94.08,174.63,58.97,136.08,369.68,Single-ply,SBD,F
Girls,100.02,4,Cassie Carmichael,Bangs,93.53,108.86,63.5,127.01,299.37,Single-ply,SBD,F
Girls,100.02,5,Stella Sievers,Salado,96.71,120.2,49.9,115.67,285.76,Single-ply,SBD,F
Girls,100.02,6,Araceli Torres,Burnet,95.89,117.93,47.63,117.93,283.5,Single-ply,SBD,F
Girls,100.02,7,Allie Child,Liberty Hill,91.63,113.4,54.43,113.4,281.23,Single-ply,SBD,F
Girls,100.02,8,Amber Clark,Marble Falls,95.25,104.33,40.82,108.86,254.01,Single-ply,SBD,F
Girls,100.02,9,Emma Taylor,Liberty Hill,96.34,88.45,43.09,106.59,238.14,Single-ply,SBD,F
Girls,100.02,10,Alyha Nix,Lampasas,98.61,70.31,47.63,117.93,235.87,Single-ply,SBD,F
Girls,100.02,11,Sabrina Spakes,Salado,90.54,58.97,43.09,79.38,181.44,Single-ply,SBD,F
Girls,100.02+,1,Shelbie Long,Florence,107.68,229.06,113.4,185.97,528.44,Single-ply,SBD,F
Girls,100.02+,2,Desiree Vajgrt,Burnet,112.49,158.76,79.38,154.22,392.36,Single-ply,SBD,F
Girls,100.02+,3,Paige Hale,Lampasas,109.86,149.69,63.5,151.95,365.14,Single-ply,SBD,F
Girls,100.02+,4,Savannah Powers,Lago Vista,101.51,165.56,68.04,124.74,358.34,Single-ply,SBD,F
Girls,100.02+,5,Dannie McMillan,Lampasas,104.05,97.52,47.63,95.25,240.4,Single-ply,SBD,F
Girls,100.02+,6,Brittney Bowden,Bangs,101.51,86.18,52.16,92.99,231.33,Single-ply,SBD,F
Girls,100.02+,DQ,Keshlei Bridges,Salado,129.73,,,,,Single-ply,SBD,F
