Name,WeightClassKg,BodyweightKg,State,Best3SquatKg,Best3BenchKg,Best3DeadliftKg,TotalKg,Event,Equipment,Sex,Division,Squat4Kg,Bench4Kg,Deadlift4Kg,Place
Austin Bunch,90,87.54,TN,199.58,138.35,201.85,539.77,SBD,Wraps,M,Teenage 18-19,,,,1
Nathan Robbins,125,122.29,NC,249.48,158.76,240.4,648.64,SBD,Wraps,M,Teenage 18-19,,,,1
Adam Tucker,82.5,81.37,TN,165.56,104.33,226.8,496.68,SBD,Wraps,M,Juniors,,,,1
Adam Chauncey,82.5,81.37,TN,156.49,113.4,204.12,474,SBD,Wraps,M,Juniors,,,,2
Jeff Clem,82.5,77.75,TN,167.83,104.33,183.7,455.86,SBD,Wraps,M,Juniors,,,,3
Tommy Chadwell,90,87.72,TN,210.92,149.69,229.06,589.67,SBD,Wraps,M,Juniors,,,,1
Robert Kamisol,90,87.54,NC,231.33,147.42,206.38,585.13,SBD,Wraps,M,Juniors,,,,2
Nick Bailey,110,107.23,TN,201.85,145.15,247.21,594.21,SBD,Wraps,M,Juniors,,,,1
Stephanie Diliegro,67.5,62.51,NC,113.4,63.5,136.08,312.98,SBD,Wraps,F,Open,,,,1
Yuonna Covington,82.5,79.02,TN,113.4,68.04,154.22,335.66,SBD,Wraps,F,Open,,,,1
Shannon Nash,90,83.28,SC,190.51,163.29,195.04,548.85,SBD,Wraps,F,Open,,,,1
Nelda Newton,60,58.79,NC,74.84,49.9,115.67,240.4,SBD,Wraps,F,Masters 45-49,77.11,52.16,,1
Lori Lamb,67.5,60.87,NC,74.84,61.23,99.79,235.87,SBD,Wraps,F,Masters 45-49,77.11,,104.33,1
Joan Plumer,56,55.79,KY,68.04,52.16,113.4,233.6,SBD,Wraps,F,Masters 50-54,,,,1
Colt Dyer,100,95.16,GA,226.8,142.88,204.12,573.79,SBD,Wraps,M,Juniors,,,,1
Luke Zito,82.5,81.1,SC,129.27,129.27,170.1,428.64,SBD,Wraps,M,Open,,,,1
Dacon Gardner,100,91.08,NC,226.8,165.56,149.69,542.05,SBD,Wraps,M,Open,,,,3
Luke Huntzinger,100,97.89,TN,226.8,163.29,242.67,632.76,SBD,Wraps,M,Open,,,,1
Matt Holder,100,96.62,TN,226.8,172.37,229.06,628.23,SBD,Wraps,M,Open,,,,2
Ryan Rolf,110,109.41,TN,238.14,158.76,242.67,639.57,SBD,Wraps,M,Open,,,,1
Mathew Hughes,110,105.14,TN,195.04,122.47,217.72,535.24,SBD,Wraps,M,Open,,,,2
Troy Nash,125,124.74,SC,351.53,201.85,272.16,825.54,SBD,Wraps,M,Open,,,,1
Curtis Rabon,125,124.47,NC,306.17,208.65,281.23,796.05,SBD,Wraps,M,Open,,,,2
Michael Schultz,140,138.25,SC,331.12,238.14,340.19,909.45,SBD,Wraps,M,Open,,,,1
Ken Shearer,118,117.66,OH,238.14,163.29,272.16,673.58,SBD,Wraps,M,Submasters,,,,1
Curtis Rabon,125,124.47,NC,306.17,208.65,281.23,796.05,SBD,Wraps,M,Masters 45-49,,,,1
David Lindley,75,72.17,TN,90.72,56.7,106.59,254.01,SBD,Wraps,M,Masters 65-69,,,,1
Amber Tarpley,90+,131.27,TN,215.46,145.15,154.22,514.83,SBD,Single-ply,F,Open,,,,1
Matt York,75,74.84,TN,265.35,204.12,222.26,691.73,SBD,Multi-ply,M,Open,,,,1
Marty Bavetz,82.5,81.19,WV,306.17,235.87,281.23,823.27,SBD,Multi-ply,M,Open,,,,1
John Hill,110,107.14,GA,272.16,226.8,260.82,759.77,SBD,Multi-ply,M,Open,,,,1
Robert Patterson,100,96.07,GA,272.16,215.46,276.69,764.3,SBD,Multi-ply,M,Submasters,,,,1
Hayden Spradlin,44,31.48,TN,,38.56,90.72,129.27,BD,Raw,M,Pre-Teen,,,,1
James Shelton,110,106.1,WV,,97.52,215.46,312.98,BD,Raw,M,Teenage 16-17,,,,1
Jennifer McElhannon,67.5,63.5,SC,,56.7,138.35,195.04,BD,Raw,F,Open,,,,1
Demick Nunn,100,96.62,SC,,176.9,238.14,415.04,BD,Raw,M,Open,,,,1
Adam Carr,100,99.43,KY,,192.78,306.17,498.95,BD,Raw,M,Submasters,,,,1
Barry Duncan,140+,163.29,TN,,131.54,170.1,301.64,BD,Raw,M,Masters 50-54,,,,1
Jason McCown,125,118.84,WV,,299.37,317.51,616.89,BD,Single-ply,M,Open,,,,1
Jason Carter,140+,147.42,TN,,278.96,285.76,564.72,BD,Raw,M,Masters 40-44,,,,1
Jared Mitchell,100,93.53,WV,,154.22,215.46,369.68,BD,Multi-ply,M,Teenage 18-19,,,,1
Derek Wingo,118,112.22,WV,,206.38,235.87,442.25,BD,Multi-ply,M,Open,,,242.67,1
Shawn Brooks #2,140+,157.76,OH,,317.51,299.37,616.89,BD,Multi-ply,M,Masters 40-44,,,,1
Amber Brown,67.5,66.68,NC,,81.65,,81.65,B,Raw,F,Open,,,,1
Tyler Horton,75,71.67,GA,,90.72,,90.72,B,Raw,M,Teenage 16-17,,,,1
Stan Barmore,110,110,SC,,274.42,,274.42,B,Raw,M,Open,,,,1
Brian Griffith,82.5,81.74,TN,,142.88,,142.88,B,Raw,M,Masters 40-44,,,,1
Robert Moss,140,134.72,NC,,224.53,,224.53,B,Raw,M,Masters 45-49,,,,1
Barry Duncan,140+,163.29,TN,,131.54,,131.54,B,Raw,M,Masters 50-54,,,,1
Ricky Williams,118,114.49,GA,,147.42,,147.42,B,Raw,M,Masters 55-59,,,,1
Hubert Davis,140,130.82,TN,,167.83,,167.83,B,Raw,M,Masters 55-59,,,,1
CJ Allen,125,119.84,GA,,204.12,,204.12,B,Single-ply,M,Juniors,,226.8,,1
Ronald Spradlin,100,98.43,TN,,154.22,,154.22,B,Single-ply,M,Masters 55-59,,,,1
Nick Young,140+,150.23,TN,,317.51,,317.51,B,Multi-ply,M,Juniors,,,,1
Mike Beaty,140+,154.22,TN,,317.51,,317.51,B,Multi-ply,M,Open,,,,1
Tim Hughs,100,94.89,NC,,199.58,,199.58,B,Multi-ply,M,Submasters,,,,1
Kevin Dawd,125,120.56,NC,,333.39,,333.39,B,Multi-ply,M,Submasters,,,,1
Wesley Ogle,90,87.91,NC,,147.42,,147.42,B,Multi-ply,M,Masters 40-44,,,,1
Orlando Green,110,104.24,GA,,,376.48,376.48,D,Raw,M,Open,,,,1
Don Johnson,140,128.37,TN,,,276.69,276.69,D,Raw,M,Open,,,,1
Barry Duncan,140+,163.29,TN,,,170.1,170.1,D,Raw,M,Masters 50-54,,,,1
Wayne Stover,90,85.09,TN,,,231.33,231.33,D,Multi-ply,M,Masters 40-44,,,,1
