Division,WeightClassKg,Place,Name,Team,BodyweightKg,Best3SquatKg,Best3BenchKg,Best3DeadliftKg,TotalKg,Equipment,Event,Sex
Boys,51.71,1,Joey Salinas,Jacksboro,51.71,131.54,68.04,140.61,340.19,Single-ply,SBD,M
Boys,55.79,2,Derrick Seibman,Childress,51.89,113.4,63.5,122.47,299.37,Single-ply,SBD,M
Boys,55.79,1,Camron Senters,Burkburnett,55.34,172.37,79.38,165.56,417.3,Single-ply,SBD,M
Boys,55.79,2,Jd Franke,Henrietta,55.43,170.1,92.99,149.69,412.77,Single-ply,SBD,M
Boys,59.87,3,Dillon Gonzales,Graham,55.97,149.69,72.57,127.01,349.27,Single-ply,SBD,M
Boys,55.79,4,Christian Farr,Henrietta,55.16,113.4,86.18,136.08,335.66,Single-ply,SBD,M
Boys,55.79,5,Braden Aguirre,Childress,55.52,120.2,72.57,124.74,317.51,Single-ply,SBD,M
Boys,59.87,6,Jonathan Salazar,Bridgeport,55.88,127.01,79.38,111.13,317.51,Single-ply,SBD,M
Boys,55.79,7,Brian Keksi,Burkburnett,52.62,104.33,63.5,120.2,288.03,Single-ply,SBD,M
Boys,55.79,8,Matt Nix,Wichita Falls Rider,53.16,104.33,54.43,115.67,274.42,Single-ply,SBD,M
Boys,55.79,9,Andrew Hernandez,Electra,53.25,111.13,52.16,111.13,274.42,Single-ply,SBD,M
Boys,55.79,10,Jared Wood,Iowa Park,54.16,86.18,61.23,92.99,240.4,Single-ply,SBD,M
Boys,55.79,11,Michael Falla,Wichita Falls City View,52.53,79.38,54.43,97.52,231.33,Single-ply,SBD,M
Boys,55.79,12,Ethan Raber,Wichita Falls City View,54.07,61.23,34.02,83.91,179.17,Single-ply,SBD,M
Boys,59.87,1,Alex Greene,Henrietta,58.06,165.56,92.99,172.37,430.91,Single-ply,SBD,M
Boys,59.87,2,Brandon Hisaw,Graham,59.06,163.29,83.91,163.29,410.5,Single-ply,SBD,M
Boys,59.87,3,Taylor Ross,Nocona,59.51,149.69,90.72,167.83,408.23,Single-ply,SBD,M
Boys,59.87,4,Adam Byrd,Wichita Falls Rider,59.42,133.81,83.91,181.44,399.16,Single-ply,SBD,M
Boys,67.13,5,Dylan Horton,Graham,60.06,142.88,79.38,140.61,362.87,Single-ply,SBD,M
Boys,67.13,6,Austin Winter,Iowa Park,60.06,151.95,61.23,138.35,351.53,Single-ply,SBD,M
Boys,59.87,7,Jordan Magars,Childress,58.97,113.4,81.65,136.08,331.12,Single-ply,SBD,M
Boys,59.87,DQ,Josh Wood,Iowa Park,59.15,147.42,,,,Single-ply,SBD,M
Boys,67.13,1,Dalton Day,Henrietta,65.77,192.78,108.86,185.97,487.61,Single-ply,SBD,M
Boys,67.13,2,Luke Hartman,Iowa Park,65.77,183.7,113.4,188.24,485.34,Single-ply,SBD,M
Boys,67.13,3,Juan Martinez,Graham,64.14,174.63,115.67,179.17,469.47,Single-ply,SBD,M
Boys,67.13,4,Davy Salazar,Childress,66.32,165.56,117.93,183.7,467.2,Single-ply,SBD,M
Boys,67.13,5,Dalton Pullin,Seymour,66.59,165.56,90.72,181.44,437.72,Single-ply,SBD,M
Boys,67.13,6,Blaze Lynn,Electra,67.13,172.37,86.18,158.76,417.3,Single-ply,SBD,M
Boys,67.13,7,Steven Blankenship,Graham,67.04,163.29,97.52,140.61,401.43,Single-ply,SBD,M
Boys,67.13,8,Andre Raymond,Bridgeport,67.04,163.29,83.91,151.95,399.16,Single-ply,SBD,M
Boys,67.13,9,Reagan Brewer,Iowa Park,63.5,161.03,79.38,149.69,390.09,Single-ply,SBD,M
Boys,67.13,10,Jesse Herd,Jacksboro,66.5,145.15,88.45,151.95,385.55,Single-ply,SBD,M
Boys,67.13,11,David Burton,Wichita Falls Hirschi,62.23,142.88,79.38,158.76,381.02,Single-ply,SBD,M
Boys,67.13,12,Seth Rogers,Jacksboro,64.95,154.22,86.18,138.35,378.75,Single-ply,SBD,M
Boys,74.84,1,Colbey Watson,Iowa Park,74.75,215.46,122.47,206.38,544.31,Single-ply,SBD,M
Boys,82.1,2,Norman James,Wichita Falls City View,74.93,206.38,133.81,188.24,528.44,Single-ply,SBD,M
Boys,74.84,3,Ramon Salazar,Jacksboro,73.21,215.46,115.67,192.78,523.9,Single-ply,SBD,M
Boys,74.84,4,Dawson Hawthorne,Graham,73.66,213.19,115.67,192.78,521.63,Single-ply,SBD,M
Boys,82.1,5,Stoney Newberry,Henrietta,74.93,172.37,131.54,204.12,508.02,Single-ply,SBD,M
Boys,74.84,6,Will Cawley,Graham,72.76,195.04,108.86,197.31,501.22,Single-ply,SBD,M
Boys,74.84,7,Gabe Huerta,Bridgeport,74.12,176.9,127.01,167.83,471.74,Single-ply,SBD,M
Boys,74.84,8,Dj Thomas,Jacksboro,74.39,176.9,97.52,179.17,453.59,Single-ply,SBD,M
Boys,74.84,9,Larry Ash,Wichita Falls,74.75,174.63,102.06,165.56,442.25,Single-ply,SBD,M
Boys,82.1,10,Jared Lott,Wichita Falls Rider,74.93,167.83,111.13,158.76,437.72,Single-ply,SBD,M
Boys,74.84,11,Willie Haymon,Vernon,69.49,165.56,90.72,149.69,405.97,Single-ply,SBD,M
Boys,74.84,12,Conner Brewer,Iowa Park,70.31,136.08,90.72,163.29,390.09,Single-ply,SBD,M
Boys,74.84,13,Patrick Riordan,Henrietta,73.75,158.76,65.77,158.76,383.29,Single-ply,SBD,M
Boys,82.1,14,Lonnie Ellifritz,Childress,75.02,142.88,83.91,138.35,365.14,Single-ply,SBD,M
Boys,74.84,15,Ricardo Carrillo,Wichita Falls City View,68.31,124.74,72.57,142.88,340.19,Single-ply,SBD,M
Boys,74.84,16,Zach Mire,Burkburnett,68.04,115.67,68.04,142.88,326.59,Single-ply,SBD,M
Boys,74.84,DQ,Breton Awbrey,Wichita Falls City View,68.95,158.76,,,,Single-ply,SBD,M
Boys,74.84,DQ,Nathan Whitington,Wichita Falls,74.16,154.22,,,,Single-ply,SBD,M
Boys,82.1,1,Zack Romine,Burkburnett,80.01,231.33,133.81,204.12,569.26,Single-ply,SBD,M
Boys,82.1,2,Wes Hastings,Archer City,79.74,183.7,122.47,190.51,496.68,Single-ply,SBD,M
Boys,82.1,3,Luke McCarthy,Wichita Falls,81.19,165.56,111.13,174.63,451.32,Single-ply,SBD,M
Boys,82.1,4,Ruan Lopez,Wichita Falls Rider,78.02,149.69,97.52,192.78,439.98,Single-ply,SBD,M
Boys,82.1,5,Brandon Thompson,Jacksboro,79.2,163.29,95.25,181.44,439.98,Single-ply,SBD,M
Boys,82.1,6,Taron Goodwin,Archer City,78.11,183.7,74.84,170.1,428.64,Single-ply,SBD,M
Boys,82.1,7,Tyler Gay,Nocona,75.84,167.83,83.91,172.37,424.11,Single-ply,SBD,M
Boys,82.1,8,Antonio Murrillo,Jacksboro,76.38,167.83,88.45,154.22,410.5,Single-ply,SBD,M
Boys,82.1,9,Cody Taylor,Seymour,76.75,149.69,79.38,174.63,403.7,Single-ply,SBD,M
Boys,82.1,10,Zack Stumbaugh,Iowa Park,81.28,154.22,106.59,136.08,396.89,Single-ply,SBD,M
Boys,82.1,11,Thomas Musgrave,Iowa Park,75.66,147.42,92.99,136.08,376.48,Single-ply,SBD,M
Boys,82.1,12,Collin Joyce,Wichita Falls Hirschi,75.93,140.61,79.38,149.69,369.68,Single-ply,SBD,M
Boys,82.1,13,Jaymes Upchurch,Burkburnett,77.93,124.74,70.31,129.27,324.32,Single-ply,SBD,M
Boys,82.1,14,Brandon Mobley,Iowa Park,80.92,102.06,61.23,106.59,269.89,Single-ply,SBD,M
Boys,82.1,DQ,Tanner Thompson,Childress,80.29,117.93,,,,Single-ply,SBD,M
Boys,82.1,DQ,Korey Wilburn,Wichita Falls Rider,80.56,,,,,Single-ply,SBD,M
Boys,89.81,1,Terence Jackson,Wichita Falls City View,82.74,226.8,113.4,242.67,582.87,Single-ply,SBD,M
Boys,89.81,2,Beau Hudson,Vernon,83.19,190.51,145.15,190.51,526.17,Single-ply,SBD,M
Boys,89.81,3,Nick Lemmond,Seymour,87.09,204.12,122.47,195.04,521.63,Single-ply,SBD,M
Boys,89.81,4,Devin Daume,Graham,89.63,188.24,117.93,181.44,487.61,Single-ply,SBD,M
Boys,89.81,5,Caiden Fenoglio,Nocona,85.18,174.63,127.01,181.44,483.08,Single-ply,SBD,M
Boys,89.81,6,Nolan O'Shea,Wichita Falls City View,87.27,192.78,104.33,183.7,480.81,Single-ply,SBD,M
Boys,89.81,7,Colton Carnes,Archer City,83.55,185.97,104.33,170.1,460.4,Single-ply,SBD,M
Boys,89.81,8,Jack Cummings,Burkburnett,88.81,165.56,88.45,174.63,428.64,Single-ply,SBD,M
Boys,89.81,9,Abaco Fuentez,Bridgeport,85.73,174.63,90.72,147.42,412.77,Single-ply,SBD,M
Boys,89.81,10,Cody Messer,Nocona,88,172.37,83.91,147.42,403.7,Single-ply,SBD,M
Boys,89.81,DQ,Chris Rogers,Burkburnett,88.27,161.03,,,,Single-ply,SBD,M
Boys,89.81,DQ,Zack Watson,Bridgeport,88.54,,,,,Single-ply,SBD,M
Boys,89.81,DQ,Denver Morris,Childress,84.46,195.04,,,,Single-ply,SBD,M
Boys,99.79,1,Isaiha Barnes,Burkburnett,98.61,272.16,145.15,258.55,675.85,Single-ply,SBD,M
Boys,99.79,2,Matthew Johnston,Burkburnett,94.44,208.65,108.86,267.62,585.13,Single-ply,SBD,M
Boys,99.79,3,Joseph Costa,Henrietta,97.16,226.8,151.95,201.85,580.6,Single-ply,SBD,M
Boys,99.79,4,Anthony Garcia,Wichita Falls City View,94.71,222.26,120.2,224.53,566.99,Single-ply,SBD,M
Boys,99.79,5,Kyler Koch,Iowa Park,94.35,199.58,136.08,199.58,535.24,Single-ply,SBD,M
Boys,99.79,6,James Navarro,Wichita Falls Rider,99.06,201.85,115.67,190.51,508.02,Single-ply,SBD,M
Boys,109.77,7,Terry Parker,Wichita Falls Rider,99.97,188.24,111.13,185.97,485.34,Single-ply,SBD,M
Boys,99.79,8,David Whited,Wichita Falls City View,97.61,199.58,106.59,174.63,480.81,Single-ply,SBD,M
Boys,99.79,9,Austin Williamson,Jacksboro,91.17,176.9,108.86,170.1,455.86,Single-ply,SBD,M
Boys,99.79,10,Ej Lozada,Jacksboro,95.8,174.63,88.45,190.51,453.59,Single-ply,SBD,M
Boys,99.79,11,Robby Patchin,Jacksboro,97.52,181.44,106.59,163.29,451.32,Single-ply,SBD,M
Boys,99.79,12,Derek Baynes,Graham,99.25,170.1,102.06,163.29,435.45,Single-ply,SBD,M
Boys,99.79,13,Logan Hrncirik,Seymour,94.35,151.95,99.79,167.83,419.57,Single-ply,SBD,M
Boys,99.79,14,Parker West,Henrietta,98.88,158.76,111.13,145.15,415.04,Single-ply,SBD,M
Boys,99.79,15,Zack McCoy,Childress,92.08,136.08,90.72,127.01,353.8,Single-ply,SBD,M
Boys,99.79,16,Jesse Villalobos,Iowa Park,98.16,133.81,79.38,129.27,342.46,Single-ply,SBD,M
Boys,109.77,1,Scott Dobbins,Burkburnett,109.59,328.85,215.46,272.16,816.47,Single-ply,SBD,M
Boys,109.77,2,Justin Givens,Wichita Falls City View,106.78,229.06,138.35,215.46,582.87,Single-ply,SBD,M
Boys,109.77,3,Stephen Lane,Vernon,105.69,235.87,129.27,204.12,569.26,Single-ply,SBD,M
Boys,109.77,4,Matthew Smith,Bridgeport,103.06,190.51,131.54,185.97,508.02,Single-ply,SBD,M
Boys,124.74,5,Rowdy Harper,Iowa Park,109.86,158.76,104.33,181.44,444.52,Single-ply,SBD,M
Boys,109.77,6,John Brock,Henrietta,105.69,181.44,102.06,158.76,442.25,Single-ply,SBD,M
Boys,109.77,7,Jackson Towery,Nocona,102.78,156.49,92.99,156.49,405.97,Single-ply,SBD,M
Boys,109.77,8,Nic Diaz,Wichita Falls Hirschi,109.59,149.69,92.99,147.42,390.09,Single-ply,SBD,M
Boys,109.77,DQ,Mason Goodwin,Seymour,106.14,,,,,Single-ply,SBD,M
Boys,109.77,DQ,Ian Marshall,Wichita Falls,101.97,,,,,Single-ply,SBD,M
Boys,124.74,1,Nathan Paschal,Graham,117.48,258.55,127.01,204.12,589.67,Single-ply,SBD,M
Boys,124.74,2,Caleb Battisia,Wichita Falls Rider,124.28,249.48,145.15,188.24,582.87,Single-ply,SBD,M
Boys,124.74,3,Sebastian Esquivel,Bridgeport,118.57,185.97,147.42,181.44,514.83,Single-ply,SBD,M
Boys,124.74,4,Jimbo Bentley,Childress,115.67,188.24,127.01,167.83,483.08,Single-ply,SBD,M
Boys,124.74,5,Saul Salazar,Childress,116.03,174.63,124.74,174.63,474,Single-ply,SBD,M
Boys,124.74,6,Matthew Tucker,Jacksboro,112.13,176.9,97.52,174.63,449.06,Single-ply,SBD,M
Boys,124.74,7,Hunter York,Archer City,116.57,170.1,97.52,163.29,430.91,Single-ply,SBD,M
Boys,124.74,8,Jacob Ficklin,Iowa Park,120.47,142.88,92.99,174.63,410.5,Single-ply,SBD,M
Boys,124.74,DQ,Austin Gestes,Iowa Park,119.48,136.08,,,,Single-ply,SBD,M
Boys,124.74,DQ,Mason Harris,Iowa Park,120.38,,,,,Single-ply,SBD,M
Boys,124.74,DQ,Ricky Clark,Burkburnett,113.85,199.58,120.2,,,Single-ply,SBD,M
Boys,124.74+,1,Tyler Seale,Wichita Falls Rider,131.09,249.48,142.88,233.6,625.96,Single-ply,SBD,M
Boys,124.74+,2,Nick Ward,Iowa Park,145.06,226.8,117.93,206.38,551.11,Single-ply,SBD,M
Boys,124.74+,3,Jeffrey Cooley,Jacksboro,132.27,226.8,129.27,190.51,546.58,Single-ply,SBD,M
Boys,124.74+,4,Zachary Graham,Nocona,133.27,181.44,97.52,195.04,474,Single-ply,SBD,M
Boys,124.74+,5,Dylan Fairchild,Iowa Park,144.7,151.95,90.72,149.69,392.36,Single-ply,SBD,M
Boys,124.74+,DQ,Anthony Flores,Wichita Falls City View,131.09,,,,,Single-ply,SBD,M
