Division,WeightClassKg,Place,Name,Team,BodyweightKg,Best3SquatKg,Best3BenchKg,Best3DeadliftKg,TotalKg,Equipment,Event,Sex
Boys,51.71,1,Bryce Leatherwood,Dublin,51.71,122.47,72.57,136.08,331.12,Single-ply,SBD,M
Boys,51.71,2,Enrique Davila,San Saba,51.53,127.01,61.23,138.35,326.59,Single-ply,SBD,M
Boys,51.71,3,Miguel Gallegos,Dublin,51.44,111.13,74.84,131.54,317.51,Single-ply,SBD,M
Boys,51.71,4,Mark Valdez,Brady,48.9,108.86,61.23,136.08,306.17,Single-ply,SBD,M
Boys,51.71,5,Yancey Perkins,Comanche,50.26,92.99,49.9,117.93,260.82,Single-ply,SBD,M
Boys,51.71,6,Memphis Bays,Lingleville,50.98,74.84,49.9,97.52,222.26,Single-ply,SBD,M
Boys,55.79,1,Eli DeHoyos,Brady,54.98,145.15,88.45,158.76,392.36,Single-ply,SBD,M
Boys,55.79,2,Ricky Lopez,Dublin,55.16,136.08,92.99,149.69,378.75,Single-ply,SBD,M
Boys,55.79,3,Arnoldo Moreno,Dublin,54.43,104.33,56.7,127.01,288.03,Single-ply,SBD,M
Boys,55.79,DQ,Trey Cox,Moran,55.79,92.99,,120.2,,Single-ply,SBD,M
Boys,59.87,1,Alex Ansay,Alvarado,59.87,142.88,88.45,154.22,385.55,Single-ply,SBD,M
Boys,59.87,2,Dalton Walker,Ranger,59.87,106.59,74.84,111.13,292.57,Single-ply,SBD,M
Boys,59.87,DQ,Aaron Suniga,Comanche,59.42,,,,,Single-ply,SBD,M
Boys,67.13,1,Cesar Galvan,Dublin,62.41,183.7,106.59,197.31,487.61,Single-ply,SBD,M
Boys,67.13,2,Clayton Schmucker,Dublin,66.77,165.56,97.52,170.1,433.18,Single-ply,SBD,M
Boys,67.13,3,Dylan Mickler,Coleman,62.51,127.01,77.11,142.88,347,Single-ply,SBD,M
Boys,67.13,DQ,Jerry Alvarez,Ranger,66.59,,,,,Single-ply,SBD,M
Boys,67.13,DQ,Luis Ramírez,San Saba,67.13,,,,,Single-ply,SBD,M
Boys,74.84,1,Zach Foster,Comanche,74.3,192.78,113.4,192.78,498.95,Single-ply,SBD,M
Boys,74.84,2,Caden Logan,Alvarado,74.3,188.24,122.47,176.9,487.61,Single-ply,SBD,M
Boys,74.84,3,Hayden Clark,McGregor,70.4,170.1,120.2,181.44,471.74,Single-ply,SBD,M
Boys,74.84,4,Sakima Herrera,San Saba,72.21,154.22,102.06,192.78,449.06,Single-ply,SBD,M
Boys,74.84,5,Taylor Patton,Dublin,74.66,167.83,106.59,170.1,444.52,Single-ply,SBD,M
Boys,74.84,6,John Sanchez,Ranger,72.57,156.49,106.59,174.63,437.72,Single-ply,SBD,M
Boys,74.84,7,Gilberto Baez,San Saba,71.4,163.29,83.91,185.97,433.18,Single-ply,SBD,M
Boys,74.84,8,Dylan Diaz,Coleman,69.49,149.69,106.59,151.95,408.23,Single-ply,SBD,M
Boys,74.84,DQ,Manuel DeLeon,Dublin,72.94,204.12,99.79,,,Single-ply,SBD,M
Boys,74.84,DQ,Javier Baez,San Saba,74.21,,,,,Single-ply,SBD,M
Boys,82.1,1,Colby Sampson,Alvarado,82.1,206.38,127.01,199.58,532.97,Single-ply,SBD,M
Boys,82.1,2,Cristian Vazquez,Dublin,80.01,204.12,124.74,195.04,523.9,Single-ply,SBD,M
Boys,82.1,3,Braegen Berry,Tolar,82.1,197.31,117.93,192.78,508.02,Single-ply,SBD,M
Boys,82.1,4,Blaize Leatherwood,Dublin,81.37,188.24,102.06,204.12,494.42,Single-ply,SBD,M
Boys,82.1,5,Antonio Arellano,Grandview,78.02,161.03,104.33,154.22,419.57,Single-ply,SBD,M
Boys,82.1,6,Luis Ordoñez,Dublin,76.84,133.81,79.38,170.1,383.29,Single-ply,SBD,M
Boys,82.1,7,Samuel Coats,Grandview,75.21,113.4,63.5,133.81,310.71,Single-ply,SBD,M
Boys,82.1,DQ,Matt Lehnhardt,Grandview,76.2,129.27,,136.08,,Single-ply,SBD,M
Boys,89.81,1,Tyler Bell,Dublin,89.45,197.31,145.15,204.12,546.58,Single-ply,SBD,M
Boys,89.81,2,Johnny Jurado,Dublin,87.45,204.12,108.86,204.12,517.1,Single-ply,SBD,M
Boys,89.81,3,Bladen Calley,San Saba,89.09,210.92,99.79,195.04,505.76,Single-ply,SBD,M
Boys,89.81,4,Marcos Saldana,Grandview,86,181.44,115.67,156.49,453.59,Single-ply,SBD,M
Boys,99.79,1,Jack Northridge,Comanche,98.16,247.21,156.49,199.58,603.28,Single-ply,SBD,M
Boys,99.79,2,Tremayne Gullatte,Grandview,96.07,185.97,142.88,181.44,510.29,Single-ply,SBD,M
Boys,99.79,3,Elijah Golden,Grandview,91.9,165.56,108.86,192.78,467.2,Single-ply,SBD,M
Boys,99.79,DQ,Colton Strickland,Hawley,94.08,,,,,Single-ply,SBD,M
Boys,109.77,1,Landin Short,San Saba,101.6,190.51,136.08,204.12,530.7,Single-ply,SBD,M
Boys,109.77,2,Sawyer Barron,Ranger,106.23,210.92,124.74,181.44,517.1,Single-ply,SBD,M
Boys,109.77,3,Jett Hibler,San Saba,109.5,195.04,111.13,201.85,508.02,Single-ply,SBD,M
Boys,109.77,4,Michael Stanley,Dublin,100.06,181.44,129.27,170.1,480.81,Single-ply,SBD,M
Boys,109.77,5,Bricen Ballenger,Dublin,104.24,147.42,104.33,181.44,433.18,Single-ply,SBD,M
Boys,124.74,1,Kendal Beck,Comanche,113.49,294.84,181.44,272.16,748.43,Single-ply,SBD,M
Boys,124.74,2,Clayton Pierce,San Saba,111.13,274.42,165.56,240.4,680.39,Single-ply,SBD,M
Boys,124.74,3,Cesar Reza,Brady,124.74,226.8,113.4,226.8,566.99,Single-ply,SBD,M
Boys,124.74,4,Bryan Reza,San Saba,119.11,190.51,131.54,204.12,526.17,Single-ply,SBD,M
Boys,124.74,5,Julian Ortuna,Lingleville,113.49,213.19,111.13,161.03,485.34,Single-ply,SBD,M
Boys,124.74,6,Victor Juarez,Dublin,114.49,156.49,102.06,179.17,437.72,Single-ply,SBD,M
Boys,124.74+,1,Stran Burrow,Dublin,130.82,215.46,151.95,222.26,589.67,Single-ply,SBD,M
Boys,124.74+,2,Stephen Locklear,Dublin,125.19,210.92,149.69,217.72,578.33,Single-ply,SBD,M
Boys,124.74+,DQ,Jeryd Fain,Coleman,126.19,170.1,,,,Single-ply,SBD,M
