Name,Sex,WeightClassKg,Best3SquatKg,Best3BenchKg,Best3DeadliftKg,TotalKg,Event,Equipment,Division,Place
Joanne Smith,F,60,87.5,37.5,105,230,SBD,Single-ply,Open,1
Catherine Hann,F,60,72.5,42.5,100,215,SBD,Single-ply,Open,2
Dean Jenkirwon,M,75,185,115,220,520,SBD,Single-ply,Open,1
Sean Simpson,M,75,147.5,92.5,140,380,SBD,Single-ply,Open,2
Darren Drewett,M,75,120,85,167.5,372.5,SBD,Single-ply,Open,3
Frank Papp,M,82.5,110,115,165,390,SBD,Single-ply,Open,3
Martin Kemick,M,90,112.5,75,165,352.5,SBD,Single-ply,Open,1
Andrew Abrook,M,125,155,115,165,435,SBD,Single-ply,Open,1