WeightClassKg,Name,Age,BodyweightKg,Deadlift1Kg,Deadlift2Kg,Deadlift3Kg,Best3DeadliftKg,TotalKg,Event,Equipment,Sex,Division,Place
91.17,Kristy Scott,30,88.9,227.5,-250,-250,227.5,227.5,D,Raw,F,Open,1
79.83,Vashon Perryman,26,78.65,295,305,,305,305,D,Raw,M,Open,1
113.85,David Troutt,28,102.69,,,,365,365,D,Raw,M,Open,1
125.19,Tom Emelander,30,124.65,332.5,-352.5,365,365,365,D,Raw,M,Open,1
125.19,Ryan Bracewell,30,125.1,317.5,345,-365,345,345,D,Raw,M,Open,2
125.19,Cody Hyatt,27,123.56,295,317.5,327.5,327.5,327.5,D,Raw,M,Open,3
125.19,BJ Whitehead,36,122.2,295,317.5,-327.5,317.5,317.5,D,Raw,M,Open,4
125.19,Jordan Leason,21,117.3,257.5,-272.5,,257.5,257.5,D,Raw,M,Open,5
125.19+,Benedikt Magnússon,29,163.29,380,400,,400,400,D,Raw,M,Open,1
