WeightClassKg,Division,Sex,Name,Age,BodyweightKg,State,Best3SquatKg,Best3BenchKg,Best3DeadliftKg,TotalKg,Event,Equipment,Place
56,Juniors,F,Lauren Novero,22,55.79,Ar,74.84,34.02,99.79,208.65,SBD,Wraps,1
48,Open,F,Lauren Mitchell,28,47.17,Tn,102.06,34.02,102.06,238.14,SBD,Wraps,1
67.5,Submasters,F,Sarah Newman,36,66.22,Ar,102.06,45.36,113.4,260.82,SBD,Wraps,1
90+,Juniors,F,Mironda Chisom,20,136.98,Ar,165.56,83.91,158.76,408.23,SBD,Wraps,1
82.5,Open,F,Lauren Chisom,26,82.1,Ar,156.49,90.72,192.78,439.98,SBD,Wraps,1
82.5,Open,F,Brooke Grice,30,78.93,Ar,127.01,70.31,113.4,310.71,SBD,Wraps,2
100,Open,F,Lauren McCullan,30,99.34,Ar,151.95,61.23,156.49,369.68,SBD,Wraps,1
75,Masters 40-44,F,Amy Joyner,40,73.03,Ar,127.01,74.84,138.35,340.19,SBD,Wraps,1
67.5,Masters 50-54,F,Robin Smith,53,64.41,Ar,88.45,45.36,106.59,240.4,SBD,Wraps,1
52,Masters 50-54,F,Terry Harrell,53,51.26,Ar,111.13,58.97,111.13,281.23,SBD,Wraps,1
82.5,Masters 50-54,F,Loria Fry,51,78.47,Ar,136.08,106.59,170.1,412.77,SBD,Wraps,1
67.5,Teenage 16-17,M,Tucker Russell,16,67.13,Ar,170.1,108.86,165.56,444.52,SBD,Wraps,1
82.5,Teenage 16-17,M,Keeton Jones,16,81.19,Ar,158.76,113.4,206.38,478.54,SBD,Wraps,1
100,Teenage 16-17,M,Jared Sheperd,17,99.79,Ar,195.04,136.08,238.14,569.26,SBD,Wraps,1
100,Teenage 18-19,M,Trystan Oakley,19,98.43,Ar,240.4,154.22,249.48,644.1,SBD,Wraps,1
82.5,Teenage 18-19,M,Clayton Harrell,19,78.93,Ar,156.49,97.52,197.31,451.32,SBD,Wraps,1
90,Juniors,M,Douglas Mattews,20,89.81,Ar,235.87,140.61,238.14,614.62,SBD,Wraps,1
90,Juniors,M,Xue Yan,22,86.64,Tn,188.24,124.74,233.6,546.58,SBD,Wraps,2
90,Juniors,M,Seth Mikkelson,23,89.36,Ar,151.95,106.59,181.44,439.98,SBD,Wraps,3
125,Juniors,M,Ausrin Harrell,23,121.11,Ar,226.8,147.42,201.85,576.06,SBD,Wraps,1
140,Juniors,M,Morocco Arnold,20,136.08,Ar,294.84,195.04,322.05,811.93,SBD,Wraps,1
56,Open,M,Julio Garcia,25,55.34,Ar,136.08,106.59,165.56,408.23,SBD,Wraps,1
75,Open,M,Kiere Marshall,27,72.12,Ar,165.56,111.13,219.99,496.68,SBD,Wraps,1
82.5,Open,M,Wes Seals,26,81.19,Ar,206.38,133.81,258.55,598.74,SBD,Wraps,1
82.5,Open,M,Daniel Vazuez,27,79.38,Ar,192.78,122.47,222.26,537.51,SBD,Wraps,2
82.5,Open,M,Bobby Scott,26,81.19,Tn,204.12,117.93,201.85,523.9,SBD,Wraps,3
82.5,Open,M,Talor French,23,79.38,Ar,158.76,106.59,151.95,417.3,SBD,Wraps,4
90,Open,M,Matt Fike,26,85.73,Tn,210.92,124.74,238.14,573.79,SBD,Wraps,1
90,Open,M,Josh Artman,30,86.64,Ar,199.58,117.93,235.87,553.38,SBD,Wraps,2
100,Open,M,Nick Ramey,24,92.99,Ar,306.17,183.7,328.85,818.73,SBD,Wraps,1
100,Open,M,Kaleb Chessher,35,98.88,Ar,181.44,161.03,249.48,591.94,SBD,Wraps,3
100,Open,M,Ryan Klipko,28,97.98,Tn,213.19,138.35,240.4,591.94,SBD,Wraps,2
100,Open,M,Matt Writt,31,97.52,Tn,174.63,92.99,229.06,496.68,SBD,Wraps,4
110,Open,M,Jacob Moore,25,101.15,Ar,285.76,165.56,278.96,730.28,SBD,Wraps,1
110,Open,M,Zach Hutson,31,106.14,Ar,183.7,102.06,231.33,517.1,SBD,Wraps,2
140,Open,M,Zach Anschulttz,24,126.1,Ar,238.14,154.22,247.21,639.57,SBD,Wraps,1
140+,Open,M,LaRodrick Duncan,32,150.59,Ar,374.21,206.38,326.59,907.18,SBD,Wraps,1
82.5,Submasters,M,William Moore,35,78.02,Ar,165.56,111.13,206.38,483.08,SBD,Wraps,1
100,Submasters,M,Stan Mills,38,98.88,Ar,249.48,170.1,222.26,641.83,SBD,Wraps,1
82.5,Masters 40-44,M,Mark Sparks,42,81.19,Ar,151.95,136.08,192.78,480.81,SBD,Wraps,1
110,Masters 40-44,M,Matt Livesay,40,106.59,Tn,192.78,142.88,163.29,498.95,SBD,Wraps,1
82.5,Masters 45-49,M,Wade Harrell,49,82.1,Ar,204.12,129.27,183.7,517.1,SBD,Wraps,1
100,Masters 50-54,M,Eric Caldwell,52,96.16,Ar,151.95,99.79,181.44,433.18,SBD,Wraps,1
90,Masters 55-59,M,Sean Softley,55,89.36,Ar,142.88,106.59,156.49,405.97,SBD,Wraps,1
140+,Open,M,Skyler Pike,25,147.42,Ar,,204.12,,204.12,B,Raw,1
75,Open,M,Miles Bailey,30,72.57,Ar,,113.4,240.4,353.8,BD,Raw,1
118,Masters 50-54,M,Keny Fry,52,112.04,Ar,,151.95,226.8,378.75,BD,Raw,1
