Division,WeightClassKg,Place,Name,Team,BodyweightKg,Best3SquatKg,Best3BenchKg,Best3DeadliftKg,TotalKg,Equipment,Event,Sex
Boys,51.71,1,Haif Martinez,Lewisville The Colony,50.71,151.95,95.25,149.69,396.89,Single-ply,SBD,M
Boys,51.71,2,JT White,Cedar Hill,51.35,133.81,54.43,140.61,328.85,Single-ply,SBD,M
Boys,51.71,3,Jared Hamilton,Cedar Hill,50.8,97.52,43.09,108.86,249.48,Single-ply,SBD,M
Boys,55.79,1,Zach Fain,Cedar Hill,54.88,183.7,104.33,183.7,471.74,Single-ply,SBD,M
Boys,55.79,2,Calvin Ford,Burleson,53.25,151.95,83.91,,235.87,Single-ply,SB,M
Boys,55.79,3,Blake Mirowitz,Red Oak,55.07,149.69,83.91,156.49,390.09,Single-ply,SBD,M
Boys,55.79,4,Colton Bedford,Burleson,54.52,138.35,106.59,140.61,385.55,Single-ply,SBD,M
Boys,59.87,5,Demitri Sommer,Lewisville The Colony,55.88,138.35,70.31,138.35,347,Single-ply,SBD,M
Boys,55.79,6,Peyton Adkins,Midlothian,53.16,120.2,77.11,129.27,326.59,Single-ply,SBD,M
Boys,55.79,7,Zach Rose,Cedar Hill,54.88,122.47,65.77,136.08,324.32,Single-ply,SBD,M
Boys,59.87,8,Kenny Roca,Venus,55.88,131.54,63.5,117.93,312.98,Single-ply,SBD,M
Boys,55.79,9,David McGee,Red Oak,53.43,95.25,61.23,138.35,294.84,Single-ply,SBD,M
Boys,55.79,10,Colton Sherer,Cedar Hill,55.34,92.99,61.23,102.06,256.28,Single-ply,SBD,M
Boys,67.13,1,Richard Hernandez,Lewisville The Colony,60.06,204.12,102.06,167.83,474,Single-ply,SBD,M
Boys,59.87,2,Clarington Lightfoot,Everman,58.69,195.04,92.99,181.44,469.47,Single-ply,SBD,M
Boys,59.87,3,Devin Walker,Everman,59.06,176.9,95.25,174.63,446.79,Single-ply,SBD,M
Boys,59.87,4,Carlos Bravo,Lewisville The Colony,57.52,170.1,95.25,174.63,439.98,Single-ply,SBD,M
Boys,67.13,5,Kelton Specks,Cedar Hill,60.06,161.03,97.52,161.03,419.57,Single-ply,SBD,M
Boys,59.87,6,Rene Rivas,Venus,59.06,154.22,83.91,158.76,396.89,Single-ply,SBD,M
Boys,59.87,7,Sean Guinyard,Kennedale,57.42,140.61,81.65,161.03,383.29,Single-ply,SBD,M
Boys,59.87,8,Alex Olmos,Everman,59.15,124.74,97.52,142.88,365.14,Single-ply,SBD,M
Boys,59.87,9,Levi Mowles,Venus,59.24,124.74,65.77,129.27,319.78,Single-ply,SBD,M
Boys,59.87,10,Tyler Hickman,Joshua,59.42,140.61,86.18,138.35,365.14,Single-ply,SBD,M
Boys,59.87,11,Kefrin Kelly,Everman,59.78,149.69,52.16,156.49,358.34,Single-ply,SBD,M
Boys,59.87,12,Chase Porter,Burleson,59.51,124.74,83.91,142.88,351.53,Single-ply,SBD,M
Boys,59.87,13,Collin Hofstad,Midlothian,59.51,115.67,70.31,113.4,299.37,Single-ply,SBD,M
Boys,59.87,DQ,Ali Fouad,Kennedale,59.6,122.47,,,,Single-ply,SBD,M
Boys,74.84,1,Michael Pyon,Kennedale,67.22,215.46,127.01,210.92,553.38,Single-ply,SBD,M
Boys,67.13,2,Tim Sanders,Lewisville The Colony,66.59,217.72,102.06,188.24,508.02,Single-ply,SBD,M
Boys,67.13,3,Derrick Bradshaw,Cedar Hill,67.09,188.24,111.13,206.38,505.76,Single-ply,SBD,M
Boys,67.13,4,Stefan Sommer,Lewisville The Colony,64.41,208.65,99.79,195.04,503.49,Single-ply,SBD,M
Boys,67.13,5,Jafus Johnson,Cedar Hill,66.32,170.1,95.25,174.63,439.98,Single-ply,SBD,M
Boys,67.13,6,Jalin Lee,Cedar Hill,65.77,151.95,95.25,167.83,415.04,Single-ply,SBD,M
Boys,74.84,7,Michael Eusepi,Venus,67.31,165.56,90.72,158.76,415.04,Single-ply,SBD,M
Boys,67.13,8,Nate Jones,Lewisville The Colony,66.13,158.76,92.99,161.03,412.77,Single-ply,SBD,M
Boys,67.13,9,Charles Crosby,Red Oak,60.24,161.03,72.57,165.56,399.16,Single-ply,SBD,M
Boys,67.13,10,Errol Cox,Lewisville The Colony,66.77,147.42,72.57,158.76,378.75,Single-ply,SBD,M
Boys,67.13,11,Dustin Seeton,Midlothian,66.95,124.74,88.45,158.76,371.95,Single-ply,SBD,M
Boys,67.13,12,Tryce Williams,Lewisville The Colony,66.5,140.61,72.57,145.15,358.34,Single-ply,SBD,M
Boys,67.13,13,Joel Benavides,Venus,64.23,136.08,81.65,131.54,349.27,Single-ply,SBD,M
Boys,67.13,14,Jesus Monriguez,Fort Worth South Hills,66.77,81.65,61.23,131.54,274.42,Single-ply,SBD,M
Boys,67.13,DQ,Dakota Kundert,Burleson,65.95,,,,,Single-ply,SBD,M
Boys,67.13,DQ,Brandon Marsh,Burleson,65.68,151.95,111.13,,,Single-ply,SBD,M
Boys,67.13,DQ,Kwasi Bradford,Everman,66.32,,,,,Single-ply,SBD,M
Boys,74.84,1,Cory Sayler,Lewisville The Colony,74.57,256.28,136.08,244.94,637.3,Single-ply,SBD,M
Boys,74.84,2,Vuna Adams,Cedar Hill,74.39,226.8,136.08,235.87,598.74,Single-ply,SBD,M
Boys,74.84,3,Andrew Beckman,Lewisville The Colony,73.3,238.14,151.95,206.38,596.47,Single-ply,SBD,M
Boys,74.84,4,Dylan Byrd,Joshua,70.03,199.58,129.27,197.31,526.17,Single-ply,SBD,M
Boys,74.84,5,Cail Gilley,Kennedale,74.39,204.12,127.01,195.04,526.17,Single-ply,SBD,M
Boys,74.84,6,Dashune Barlow,Cedar Hill,71.67,181.44,97.52,217.72,496.68,Single-ply,SBD,M
Boys,74.84,7,Fred Griffin,Everman,73.94,183.7,115.67,192.78,492.15,Single-ply,SBD,M
Boys,74.84,8,Jeremi Lewis,Red Oak,73.75,190.51,102.06,192.78,485.34,Single-ply,SBD,M
Boys,74.84,9,Aj Clay,Everman,70.31,181.44,95.25,204.12,480.81,Single-ply,SBD,M
Boys,74.84,10,Justin Seeton,Midlothian,73.3,174.63,95.25,190.51,460.4,Single-ply,SBD,M
Boys,74.84,11,David Rodriguez,Joshua,72.39,163.29,99.79,176.9,439.98,Single-ply,SBD,M
Boys,74.84,12,Jason Bethel,Red Oak,72.67,181.44,108.86,147.42,437.72,Single-ply,SBD,M
Boys,74.84,13,KJ Evans,Joshua,73.84,158.76,106.59,163.29,428.64,Single-ply,SBD,M
Boys,74.84,14,Jard Clark,Burleson,68.31,158.76,97.52,165.56,421.84,Single-ply,SBD,M
Boys,74.84,15,Aaron McCarthy,Lewisville The Colony,74.75,151.95,90.72,174.63,417.3,Single-ply,SBD,M
Boys,74.84,16,Kelvin Aguilar,Everman,73.48,165.56,83.91,158.76,408.23,Single-ply,SBD,M
Boys,74.84,17,Devynn Birdow,Everman,74.84,136.08,104.33,165.56,405.97,Single-ply,SBD,M
Boys,74.84,18,Cameron Bundy,Kennedale,73.57,138.35,79.38,149.69,367.41,Single-ply,SBD,M
Boys,74.84,19,Collin Olsen,Lewisville The Colony,73.57,124.74,77.11,154.22,356.07,Single-ply,SBD,M
Boys,74.84,20,Essix Lightfoot,Everman,70.94,147.42,81.65,120.2,349.27,Single-ply,SBD,M
Boys,74.84,21,Tyler Kilberg,Everman,70.85,97.52,61.23,156.49,315.25,Single-ply,SBD,M
Boys,74.84,22,Develyn Parker,Cedar Hill,68.31,102.06,70.31,124.74,297.1,Single-ply,SBD,M
Boys,74.84,DQ,Antwan Bradshaw,Fort Worth South Hills,74.39,,,,,Single-ply,SBD,M
Boys,74.84,DQ,Omero Ortiz,Fort Worth South Hills,69.4,83.91,,,,Single-ply,SBD,M
Boys,82.1,1,Theo Hollars,Burleson,77.66,242.67,136.08,272.16,650.91,Single-ply,SBD,M
Boys,82.1,2,Justin Murphy,Lewisville The Colony,80.65,254.01,142.88,224.53,621.42,Single-ply,SBD,M
Boys,82.1,3,Ruben Fletcher,Everman,77.93,226.8,111.13,226.8,564.72,Single-ply,SBD,M
Boys,82.1,4,Nathan Nicholas,Burleson,77.02,197.31,145.15,197.31,539.77,Single-ply,SBD,M
Boys,82.1,5,JT Taylor,Burleson,77.66,204.12,124.74,210.92,539.77,Single-ply,SBD,M
Boys,82.1,6,Jesse Parker,Joshua,81.56,183.7,106.59,158.76,449.06,Single-ply,SBD,M
Boys,82.1,7,Andre Anderson,Cedar Hill,80.15,185.97,77.11,181.44,444.52,Single-ply,SBD,M
Boys,82.1,8,Quavious Henderson,Midlothian,81.1,140.61,115.67,181.44,437.72,Single-ply,SBD,M
Boys,82.1,9,Koltyn Davis,Kennedale,80.56,170.1,95.25,165.56,430.91,Single-ply,SBD,M
Boys,82.1,10,Alan Lopez,Joshua,78.83,117.93,111.13,163.29,392.36,Single-ply,SBD,M
Boys,82.1,11,Alvaro Guzman,Fort Worth South Hills,81.28,136.08,95.25,158.76,390.09,Single-ply,SBD,M
Boys,82.1,DQ,Ronnie Green,Cedar Hill,78.02,181.44,,,,Single-ply,SBD,M
Boys,82.1,DQ,Cason Ford,Burleson,80.83,192.78,131.54,,,Single-ply,SBD,M
Boys,89.81,1,Stefan Arias,Burleson,87.63,247.21,156.49,219.99,623.69,Single-ply,SBD,M
Boys,89.81,2,Reggie Brooks,Burleson,89.54,229.06,145.15,242.67,616.89,Single-ply,SBD,M
Boys,89.81,3,Scott Scarbrough,Burleson,86.27,226.8,140.61,229.06,596.47,Single-ply,SBD,M
Boys,89.81,4,Cedric Shaw,Everman,86.18,215.46,102.06,197.31,514.83,Single-ply,SBD,M
Boys,99.79,5,Chris Roberts,Cedar Hill,89.95,206.38,124.74,183.7,514.83,Single-ply,SBD,M
Boys,89.81,6,Brett Wade,Kennedale,86.36,176.9,106.59,215.46,498.95,Single-ply,SBD,M
Boys,89.81,7,Robert Lowe,Cedar Hill,83.91,192.78,117.93,174.63,485.34,Single-ply,SBD,M
Boys,99.79,8,Quenton Slaughter,Red Oak,89.9,181.44,97.52,170.1,449.06,Single-ply,SBD,M
Boys,89.81,9,Cody Turner,Joshua,87.36,172.37,108.86,165.56,446.79,Single-ply,SBD,M
Boys,99.79,1,Xavier Warren,Cedar Hill,97.75,226.8,129.27,219.99,576.06,Single-ply,SBD,M
Boys,99.79,2,Darius Stubblefield,Cedar Hill,98.88,210.92,149.69,213.19,573.79,Single-ply,SBD,M
Boys,99.79,3,Eric Ray,Red Oak,97.25,226.8,131.54,213.19,571.53,Single-ply,SBD,M
Boys,99.79,4,Michael Stanley,Burleson,97.7,226.8,133.81,199.58,560.19,Single-ply,SBD,M
Boys,99.79,5,Paul Cox,Everman,98.7,231.33,102.06,215.46,548.85,Single-ply,SBD,M
Boys,99.79,6,Jude Akpunku,Cedar Hill,95.25,197.31,124.74,222.26,544.31,Single-ply,SBD,M
Boys,99.79,7,Corey Feagin,Cedar Hill,97.52,199.58,124.74,199.58,523.9,Single-ply,SBD,M
Boys,99.79,8,Jesse Rios,Midlothian,93.17,208.65,124.74,183.7,517.1,Single-ply,SBD,M
Boys,99.79,9,Rodney Fernandez,Joshua,90.99,185.97,102.06,199.58,487.61,Single-ply,SBD,M
Boys,99.79,10,Tony Kirk,Midlothian,94.8,176.9,108.86,201.85,487.61,Single-ply,SBD,M
Boys,99.79,11,Michael Williams,Joshua,98.43,190.51,115.67,172.37,478.54,Single-ply,SBD,M
Boys,99.79,12,Conner Stewart,Midlothian,93.89,170.1,113.4,181.44,464.93,Single-ply,SBD,M
Boys,99.79,13,Isaiah Hinton,Lewisville The Colony,96.8,181.44,102.06,170.1,453.59,Single-ply,SBD,M
Boys,99.79,14,Jeouony Pastrono,Fort Worth South Hills,93.08,145.15,124.74,181.44,451.32,Single-ply,SBD,M
Boys,109.77,1,Josh Morrison,Lewisville The Colony,108.59,303.91,188.24,251.74,743.89,Single-ply,SBD,M
Boys,124.74,2,Larry Moore Jr,Cedar Hill,109.91,247.21,140.61,256.28,644.1,Single-ply,SBD,M
Boys,109.77,3,Derrick Ellsworth,Burleson,109.68,251.74,151.95,231.33,635.03,Single-ply,SBD,M
Boys,109.77,4,Andrew Wiggins,Everman,106.5,249.48,131.54,233.6,614.62,Single-ply,SBD,M
Boys,109.77,5,Derrick Carrington,Burleson,109.68,272.16,129.27,206.38,607.81,Single-ply,SBD,M
Boys,109.77,6,Robbie Murray,Lewisville The Colony,109.77,240.4,140.61,208.65,589.67,Single-ply,SBD,M
Boys,124.74,7,Josh Allen,Cedar Hill,109.86,222.26,115.67,238.14,576.06,Single-ply,SBD,M
Boys,109.77,8,Sam Preston,Lewisville The Colony,107.41,213.19,111.13,183.7,508.02,Single-ply,SBD,M
Boys,109.77,9,Logan Finch,Red Oak,101.79,192.78,129.27,181.44,503.49,Single-ply,SBD,M
Boys,109.77,10,A'Donnis Tatum,Fort Worth South Hills,109.68,181.44,113.4,204.12,498.95,Single-ply,SBD,M
Boys,109.77,11,Eric Rogers,Joshua,100.52,172.37,97.52,174.63,444.52,Single-ply,SBD,M
Boys,109.77,12,Ty Underwood,Burleson,101.42,172.37,108.86,156.49,437.72,Single-ply,SBD,M
Boys,124.74,13,Dakota Larson,Venus,109.86,174.63,102.06,158.76,435.45,Single-ply,SBD,M
Boys,109.77,14,Felipe Aguiniga,Everman,105.51,136.08,102.06,136.08,374.21,Single-ply,SBD,M
Boys,109.77,DQ,Gasteneau Fisher,Cedar Hill,108.41,226.8,,,,Single-ply,SBD,M
Boys,124.74,1,Ricky Gonzales,Cedar Hill,124.74,290.3,195.04,258.55,743.89,Single-ply,SBD,M
Boys,124.74,2,Fred Gipson,Everman,118.48,192.78,167.83,199.58,560.19,Single-ply,SBD,M
Boys,124.74,3,Kendrick Robinson,Everman,121.38,226.8,113.4,181.44,521.63,Single-ply,SBD,M
Boys,124.74,4,Dylan Baldeschwiler,Burleson,114.4,199.58,129.27,174.63,503.49,Single-ply,SBD,M
Boys,124.74,5,Garrett Smith,Joshua,116.94,201.85,127.01,172.37,501.22,Single-ply,SBD,M
Boys,124.74,6,Diego Mejia,Everman,120.2,192.78,102.06,181.44,476.27,Single-ply,SBD,M
Boys,124.74,7,Daniel Kim,Lewisville The Colony,121.2,195.04,102.06,176.9,474,Single-ply,SBD,M
Boys,124.74,8,Anthony Zapata,Everman,114.4,183.7,90.72,181.44,455.86,Single-ply,SBD,M
Boys,124.74+,1,Xavier Johnson,Burleson,141.07,297.1,170.1,272.16,739.36,Single-ply,SBD,M
Boys,124.74+,2,Josh Burkham,Lewisville The Colony,139.34,306.17,165.56,265.35,737.09,Single-ply,SBD,M
Boys,124.74+,3,Lendon Brookins,Cedar Hill,126.19,294.84,206.38,233.6,734.82,Single-ply,SBD,M
Boys,124.74+,4,DJ Willis,Lewisville The Colony,136.26,299.37,154.22,258.55,712.14,Single-ply,SBD,M
Boys,124.74+,5,Steven Jackson,Lewisville The Colony,132.9,254.01,142.88,272.16,669.05,Single-ply,SBD,M
Boys,124.74+,6,Wesley Gray,Fort Worth South Hills,141.34,226.8,156.49,226.8,610.08,Single-ply,SBD,M
Boys,124.74+,7,Bobby Lynch,Burleson,138.44,219.99,158.76,208.65,587.4,Single-ply,SBD,M
Boys,124.74+,8,Aderius Epps,Cedar Hill,133.81,199.58,124.74,204.12,528.44,Single-ply,SBD,M
Boys,124.74+,9,Jeff Reynolds,Midlothian,142.16,181.44,122.47,174.63,478.54,Single-ply,SBD,M
